<?xml version="1.0" encoding="UTF-8"?>
<model ref="00000000-0000-4000-5f02-5beb5f025beb/i:f1c16ee(checkpoints/jetbrains.mps.lang.smodel.query.dataFlow@beforebaselang)">
  <persistence version="9" />
  <attribute name="checkpoint" value="BeforeBaseLang" />
  <attribute name="prev-generation-plan" value="AspectCPS" />
  <attribute name="prev-checkpoint" value="DescriptorClasses" />
  <attribute name="generation-plan" value="AspectCPS" />
  <languages />
  <imports>
    <import index="anlc" ref="r:7a2f7450-3b47-445d-a540-cc74ec8b5789(jetbrains.mps.lang.smodel.query.dataFlow)" />
    <import index="ksn4" ref="6ed54515-acc8-4d1e-a16c-9fd6cfe951ea/java:jetbrains.mps.lang.smodel(MPS.Core/)" />
    <import index="c17a" ref="8865b7a8-5271-43d3-884c-6fd1d9cfdd34/java:org.jetbrains.mps.openapi.language(MPS.OpenAPI/)" />
    <import index="i8bi" ref="r:c3548bac-30eb-4a2a-937c-0111d5697309(jetbrains.mps.lang.smodel.generator.smodelAdapter)" />
    <import index="1fjm" ref="6ed54515-acc8-4d1e-a16c-9fd6cfe951ea/java:jetbrains.mps.lang.dataFlow.framework(MPS.Core/)" />
    <import index="e8bb" ref="6ed54515-acc8-4d1e-a16c-9fd6cfe951ea/java:jetbrains.mps.smodel.adapter.ids(MPS.Core/)" />
    <import index="2k9e" ref="6ed54515-acc8-4d1e-a16c-9fd6cfe951ea/java:jetbrains.mps.smodel.adapter.structure(MPS.Core/)" />
    <import index="33ny" ref="6354ebe7-c22a-4a0f-ac54-50b52ab9b065/java:java.util(JDK/)" />
    <import index="mhfm" ref="3f233e7f-b8a6-46d2-a57f-795d56775243/java:org.jetbrains.annotations(Annotations/)" />
    <import index="aplb" ref="2af156ab-65c1-4a62-bd0d-ea734f71eab6/r:a1d8bbbf-d4f0-431f-8dcd-a6badc777315(jetbrains.mps.dataFlow.runtime/jetbrains.mps.lang.dataFlow)" />
    <import index="mhbf" ref="8865b7a8-5271-43d3-884c-6fd1d9cfdd34/java:org.jetbrains.mps.openapi.model(MPS.OpenAPI/)" />
    <import index="wyt6" ref="6354ebe7-c22a-4a0f-ac54-50b52ab9b065/java:java.lang(JDK/)" />
  </imports>
  <registry>
    <language id="f3061a53-9226-4cc5-a443-f952ceaf5816" name="jetbrains.mps.baseLanguage">
      <concept id="1202948039474" name="jetbrains.mps.baseLanguage.structure.InstanceMethodCallOperation" flags="nn" index="liA8E" />
      <concept id="1465982738277781862" name="jetbrains.mps.baseLanguage.structure.PlaceholderMember" flags="ng" index="2tJIrI" />
      <concept id="1188207840427" name="jetbrains.mps.baseLanguage.structure.AnnotationInstance" flags="nn" index="2AHcQZ">
        <reference id="1188208074048" name="annotation" index="2AI5Lk" />
      </concept>
      <concept id="1188208481402" name="jetbrains.mps.baseLanguage.structure.HasAnnotation" flags="ng" index="2AJDlI">
        <child id="1188208488637" name="annotation" index="2AJF6D" />
      </concept>
      <concept id="2820489544401957797" name="jetbrains.mps.baseLanguage.structure.DefaultClassCreator" flags="nn" index="HV5vD">
        <reference id="2820489544401957798" name="classifier" index="HV5vE" />
      </concept>
      <concept id="1197027756228" name="jetbrains.mps.baseLanguage.structure.DotExpression" flags="nn" index="2OqwBi">
        <child id="1197027771414" name="operand" index="2Oq$k0" />
        <child id="1197027833540" name="operation" index="2OqNvi" />
      </concept>
      <concept id="1145552977093" name="jetbrains.mps.baseLanguage.structure.GenericNewExpression" flags="nn" index="2ShNRf">
        <child id="1145553007750" name="creator" index="2ShVmc" />
      </concept>
      <concept id="1070462154015" name="jetbrains.mps.baseLanguage.structure.StaticFieldDeclaration" flags="ig" index="Wx3nA">
        <property id="6468716278899126575" name="isVolatile" index="2dlcS1" />
        <property id="6468716278899125786" name="isTransient" index="2dld4O" />
      </concept>
      <concept id="1070475926800" name="jetbrains.mps.baseLanguage.structure.StringLiteral" flags="nn" index="Xl_RD">
        <property id="1070475926801" name="value" index="Xl_RC" />
      </concept>
      <concept id="1081236700937" name="jetbrains.mps.baseLanguage.structure.StaticMethodCall" flags="nn" index="2YIFZM">
        <reference id="1144433194310" name="classConcept" index="1Pybhc" />
      </concept>
      <concept id="1070534934090" name="jetbrains.mps.baseLanguage.structure.CastExpression" flags="nn" index="10QFUN">
        <child id="1070534934091" name="type" index="10QFUM" />
        <child id="1070534934092" name="expression" index="10QFUP" />
      </concept>
      <concept id="1068390468198" name="jetbrains.mps.baseLanguage.structure.ClassConcept" flags="ig" index="312cEu">
        <child id="1165602531693" name="superclass" index="1zkMxy" />
      </concept>
      <concept id="1068431474542" name="jetbrains.mps.baseLanguage.structure.VariableDeclaration" flags="ng" index="33uBYm">
        <property id="1176718929932" name="isFinal" index="3TUv4t" />
        <child id="1068431790190" name="initializer" index="33vP2m" />
      </concept>
      <concept id="1068498886296" name="jetbrains.mps.baseLanguage.structure.VariableReference" flags="nn" index="37vLTw">
        <reference id="1068581517664" name="variableDeclaration" index="3cqZAo" />
      </concept>
      <concept id="1068498886292" name="jetbrains.mps.baseLanguage.structure.ParameterDeclaration" flags="ir" index="37vLTG" />
      <concept id="4972933694980447171" name="jetbrains.mps.baseLanguage.structure.BaseVariableDeclaration" flags="ng" index="19Szcq">
        <child id="5680397130376446158" name="type" index="1tU5fm" />
      </concept>
      <concept id="4269842503726207156" name="jetbrains.mps.baseLanguage.structure.LongLiteral" flags="nn" index="1adDum">
        <property id="4269842503726207157" name="value" index="1adDun" />
      </concept>
      <concept id="1068580123132" name="jetbrains.mps.baseLanguage.structure.BaseMethodDeclaration" flags="ng" index="3clF44">
        <property id="4276006055363816570" name="isSynchronized" index="od$2w" />
        <property id="1181808852946" name="isFinal" index="DiZV1" />
        <child id="1068580123133" name="returnType" index="3clF45" />
        <child id="1068580123134" name="parameter" index="3clF46" />
        <child id="1068580123135" name="body" index="3clF47" />
      </concept>
      <concept id="1068580123165" name="jetbrains.mps.baseLanguage.structure.InstanceMethodDeclaration" flags="ig" index="3clFb_">
        <property id="1178608670077" name="isAbstract" index="1EzhhJ" />
      </concept>
      <concept id="1068580123155" name="jetbrains.mps.baseLanguage.structure.ExpressionStatement" flags="nn" index="3clFbF">
        <child id="1068580123156" name="expression" index="3clFbG" />
      </concept>
      <concept id="1068580123136" name="jetbrains.mps.baseLanguage.structure.StatementList" flags="sn" stub="5293379017992965193" index="3clFbS">
        <child id="1068581517665" name="statement" index="3cqZAp" />
      </concept>
      <concept id="1068580320020" name="jetbrains.mps.baseLanguage.structure.IntegerConstant" flags="nn" index="3cmrfG">
        <property id="1068580320021" name="value" index="3cmrfH" />
      </concept>
      <concept id="1068581242878" name="jetbrains.mps.baseLanguage.structure.ReturnStatement" flags="nn" index="3cpWs6">
        <child id="1068581517676" name="expression" index="3cqZAk" />
      </concept>
      <concept id="1068581242864" name="jetbrains.mps.baseLanguage.structure.LocalVariableDeclarationStatement" flags="nn" index="3cpWs8">
        <child id="1068581242865" name="localVariableDeclaration" index="3cpWs9" />
      </concept>
      <concept id="1068581242863" name="jetbrains.mps.baseLanguage.structure.LocalVariableDeclaration" flags="nr" index="3cpWsn" />
      <concept id="1068581517677" name="jetbrains.mps.baseLanguage.structure.VoidType" flags="in" index="3cqZAl" />
      <concept id="1079359253375" name="jetbrains.mps.baseLanguage.structure.ParenthesizedExpression" flags="nn" index="1eOMI4">
        <child id="1079359253376" name="expression" index="1eOMHV" />
      </concept>
      <concept id="1204053956946" name="jetbrains.mps.baseLanguage.structure.IMethodCall" flags="ng" index="1ndlxa">
        <reference id="1068499141037" name="baseMethodDeclaration" index="37wK5l" />
        <child id="1068499141038" name="actualArgument" index="37wK5m" />
        <child id="4972241301747169160" name="typeArgument" index="3PaCim" />
      </concept>
      <concept id="1212685548494" name="jetbrains.mps.baseLanguage.structure.ClassCreator" flags="nn" index="1pGfFk" />
      <concept id="1107461130800" name="jetbrains.mps.baseLanguage.structure.Classifier" flags="ng" index="3pOWGL">
        <child id="5375687026011219971" name="member" index="jymVt" unordered="true" />
      </concept>
      <concept id="1107535904670" name="jetbrains.mps.baseLanguage.structure.ClassifierType" flags="in" index="3uibUv">
        <reference id="1107535924139" name="classifier" index="3uigEE" />
        <child id="1109201940907" name="parameter" index="11_B2D" />
      </concept>
      <concept id="1178549954367" name="jetbrains.mps.baseLanguage.structure.IVisible" flags="ng" index="1B3ioH">
        <child id="1178549979242" name="visibility" index="1B3o_S" />
      </concept>
      <concept id="1163670490218" name="jetbrains.mps.baseLanguage.structure.SwitchStatement" flags="nn" index="3KaCP$">
        <child id="1163670592366" name="defaultBlock" index="3Kb1Dw" />
        <child id="1163670766145" name="expression" index="3KbGdf" />
        <child id="1163670772911" name="case" index="3KbHQx" />
      </concept>
      <concept id="1163670641947" name="jetbrains.mps.baseLanguage.structure.SwitchCase" flags="ng" index="3KbdKl">
        <child id="1163670677455" name="expression" index="3Kbmr1" />
        <child id="1163670683720" name="body" index="3Kbo56" />
      </concept>
      <concept id="1146644602865" name="jetbrains.mps.baseLanguage.structure.PublicVisibility" flags="nn" index="3Tm1VV" />
      <concept id="1146644623116" name="jetbrains.mps.baseLanguage.structure.PrivateVisibility" flags="nn" index="3Tm6S6" />
    </language>
    <language id="b401a680-8325-4110-8fd3-84331ff25bef" name="jetbrains.mps.lang.generator">
      <concept id="9032177546941580387" name="jetbrains.mps.lang.generator.structure.TrivialNodeId" flags="nn" index="2$VJBW">
        <property id="9032177546941580392" name="nodeId" index="2$VJBR" />
        <child id="8557539026538618631" name="cncpt" index="3iCydw" />
      </concept>
      <concept id="5808518347809715508" name="jetbrains.mps.lang.generator.structure.GeneratorDebug_InputNode" flags="nn" index="385nmt">
        <property id="5808518347809748738" name="presentation" index="385vuF" />
        <child id="5808518347809747118" name="node" index="385v07" />
      </concept>
      <concept id="3864140621129707969" name="jetbrains.mps.lang.generator.structure.GeneratorDebug_Mappings" flags="nn" index="39dXUE">
        <child id="3864140621129713349" name="labels" index="39e2AI" />
      </concept>
      <concept id="3864140621129713351" name="jetbrains.mps.lang.generator.structure.GeneratorDebug_NodeMapEntry" flags="nn" index="39e2AG">
        <child id="5808518347809748862" name="inputNode" index="385vvn" />
        <child id="3864140621129713365" name="outputNode" index="39e2AY" />
      </concept>
      <concept id="3864140621129713348" name="jetbrains.mps.lang.generator.structure.GeneratorDebug_LabelEntry" flags="nn" index="39e2AJ">
        <property id="3864140621129715945" name="label" index="39e3Y2" />
        <child id="3864140621129715947" name="entries" index="39e3Y0" />
      </concept>
      <concept id="3864140621129713362" name="jetbrains.mps.lang.generator.structure.GeneratorDebug_NodeRef" flags="nn" index="39e2AT">
        <reference id="3864140621129713363" name="node" index="39e2AS" />
      </concept>
    </language>
    <language id="df345b11-b8c7-4213-ac66-48d2a9b75d88" name="jetbrains.mps.baseLanguageInternal">
      <concept id="1174294166120" name="jetbrains.mps.baseLanguageInternal.structure.InternalPartialInstanceMethodCall" flags="nn" index="1DoJHT">
        <property id="1174294288199" name="methodName" index="1Dpdpm" />
        <child id="1174313653259" name="returnType" index="1Ez5kq" />
        <child id="1174317636233" name="instance" index="1EMhIo" />
      </concept>
    </language>
    <language id="7866978e-a0f0-4cc7-81bc-4d213d9375e1" name="jetbrains.mps.lang.smodel">
      <concept id="6911370362349121511" name="jetbrains.mps.lang.smodel.structure.ConceptId" flags="nn" index="2x4n5u">
        <property id="6911370362349122519" name="conceptName" index="2x4mPI" />
        <property id="6911370362349121516" name="conceptId" index="2x4n5l" />
        <property id="6911370362349133804" name="isInterface" index="2x4o5l" />
        <child id="6911370362349121514" name="languageIdentity" index="2x4n5j" />
      </concept>
      <concept id="3542851458883438784" name="jetbrains.mps.lang.smodel.structure.LanguageId" flags="nn" index="2V$Bhx">
        <property id="3542851458883439831" name="namespace" index="2V$B1Q" />
        <property id="3542851458883439832" name="languageId" index="2V$B1T" />
      </concept>
    </language>
    <language id="ceab5195-25ea-4f22-9b92-103b95ca8c0c" name="jetbrains.mps.lang.core">
      <concept id="1169194658468" name="jetbrains.mps.lang.core.structure.INamedConcept" flags="ng" index="TrEIO">
        <property id="1169194664001" name="name" index="TrG5h" />
      </concept>
    </language>
  </registry>
  <node concept="312cEu" id="0">
    <property role="TrG5h" value="DataFlowAspectDescriptorImpl" />
    <node concept="2tJIrI" id="1" role="jymVt" />
    <node concept="3clFb_" id="2" role="jymVt">
      <property role="1EzhhJ" value="false" />
      <property role="TrG5h" value="getDataFlowBuilders" />
      <property role="DiZV1" value="false" />
      <property role="od$2w" value="false" />
      <node concept="3Tm1VV" id="6" role="1B3o_S" />
      <node concept="2AHcQZ" id="7" role="2AJF6D">
        <ref role="2AI5Lk" to="mhfm:~NotNull" resolve="NotNull" />
      </node>
      <node concept="3uibUv" id="8" role="3clF45">
        <ref role="3uigEE" to="33ny:~Collection" resolve="Collection" />
        <node concept="3uibUv" id="c" role="11_B2D">
          <ref role="3uigEE" to="1fjm:~IDataFlowBuilder" resolve="IDataFlowBuilder" />
        </node>
      </node>
      <node concept="37vLTG" id="9" role="3clF46">
        <property role="TrG5h" value="concept" />
        <node concept="3uibUv" id="d" role="1tU5fm">
          <ref role="3uigEE" to="c17a:~SAbstractConcept" resolve="SAbstractConcept" />
        </node>
      </node>
      <node concept="3clFbS" id="a" role="3clF47">
        <node concept="3cpWs8" id="e" role="3cqZAp">
          <node concept="3cpWsn" id="h" role="3cpWs9">
            <property role="TrG5h" value="cncpt_a0b" />
            <node concept="3uibUv" id="i" role="1tU5fm">
              <ref role="3uigEE" to="c17a:~SAbstractConcept" resolve="SAbstractConcept" />
            </node>
            <node concept="1eOMI4" id="j" role="33vP2m">
              <node concept="10QFUN" id="k" role="1eOMHV">
                <node concept="37vLTw" id="l" role="10QFUP">
                  <ref role="3cqZAo" node="9" resolve="concept" />
                </node>
                <node concept="3uibUv" id="m" role="10QFUM">
                  <ref role="3uigEE" to="c17a:~SAbstractConcept" resolve="SAbstractConcept" />
                </node>
              </node>
            </node>
          </node>
        </node>
        <node concept="3KaCP$" id="f" role="3cqZAp">
          <node concept="3clFbS" id="n" role="3Kb1Dw" />
          <node concept="3KbdKl" id="o" role="3KbHQx">
            <node concept="3cmrfG" id="q" role="3Kbmr1">
              <property role="3cmrfH" value="0" />
            </node>
            <node concept="3clFbS" id="r" role="3Kbo56">
              <node concept="3cpWs6" id="s" role="3cqZAp">
                <node concept="2YIFZM" id="t" role="3cqZAk">
                  <ref role="37wK5l" to="33ny:~Collections.singletonList(java.lang.Object):java.util.List" resolve="singletonList" />
                  <ref role="1Pybhc" to="33ny:~Collections" resolve="Collections" />
                  <node concept="2ShNRf" id="u" role="37wK5m">
                    <node concept="HV5vD" id="w" role="2ShVmc">
                      <ref role="HV5vE" node="11" resolve="WithStatement_DataFlow" />
                    </node>
                  </node>
                  <node concept="3uibUv" id="v" role="3PaCim">
                    <ref role="3uigEE" to="1fjm:~IDataFlowBuilder" resolve="IDataFlowBuilder" />
                  </node>
                </node>
              </node>
            </node>
          </node>
          <node concept="2OqwBi" id="p" role="3KbGdf">
            <node concept="liA8E" id="x" role="2OqNvi">
              <ref role="37wK5l" to="ksn4:~ConceptIndex.index(org.jetbrains.mps.openapi.language.SAbstractConcept):int" resolve="index" />
              <node concept="37vLTw" id="z" role="37wK5m">
                <ref role="3cqZAo" node="h" resolve="cncpt_a0b" />
              </node>
            </node>
            <node concept="37vLTw" id="y" role="2Oq$k0">
              <ref role="3cqZAo" node="5" resolve="index_vhxjlb_a0b" />
            </node>
          </node>
        </node>
        <node concept="3cpWs6" id="g" role="3cqZAp">
          <node concept="2YIFZM" id="$" role="3cqZAk">
            <ref role="37wK5l" to="33ny:~Collections.emptyList():java.util.List" resolve="emptyList" />
            <ref role="1Pybhc" to="33ny:~Collections" resolve="Collections" />
            <node concept="3uibUv" id="_" role="3PaCim">
              <ref role="3uigEE" to="1fjm:~IDataFlowBuilder" resolve="IDataFlowBuilder" />
            </node>
          </node>
        </node>
      </node>
      <node concept="2AHcQZ" id="b" role="2AJF6D">
        <ref role="2AI5Lk" to="wyt6:~Override" resolve="Override" />
      </node>
    </node>
    <node concept="3Tm1VV" id="3" role="1B3o_S" />
    <node concept="3uibUv" id="4" role="1zkMxy">
      <ref role="3uigEE" to="1fjm:~DataFlowAspectDescriptorBase" resolve="DataFlowAspectDescriptorBase" />
    </node>
    <node concept="Wx3nA" id="5" role="jymVt">
      <property role="2dlcS1" value="false" />
      <property role="2dld4O" value="false" />
      <property role="3TUv4t" value="true" />
      <property role="TrG5h" value="index_vhxjlb_a0b" />
      <node concept="3Tm6S6" id="A" role="1B3o_S" />
      <node concept="2OqwBi" id="B" role="33vP2m">
        <node concept="2OqwBi" id="D" role="2Oq$k0">
          <node concept="2ShNRf" id="F" role="2Oq$k0">
            <node concept="1pGfFk" id="H" role="2ShVmc">
              <ref role="37wK5l" to="ksn4:~ConceptSwitchIndexBuilder.&lt;init&gt;()" resolve="ConceptSwitchIndexBuilder" />
            </node>
          </node>
          <node concept="liA8E" id="G" role="2OqNvi">
            <ref role="37wK5l" to="ksn4:~ConceptSwitchIndexBuilder.put(jetbrains.mps.smodel.adapter.ids.SConceptId...):jetbrains.mps.lang.smodel.ConceptSwitchIndexBuilder" resolve="put" />
            <node concept="2YIFZM" id="I" role="37wK5m">
              <ref role="37wK5l" to="e8bb:~MetaIdFactory.conceptId(long,long,long):jetbrains.mps.smodel.adapter.ids.SConceptId" resolve="conceptId" />
              <ref role="1Pybhc" to="e8bb:~MetaIdFactory" resolve="MetaIdFactory" />
              <node concept="1adDum" id="J" role="37wK5m">
                <property role="1adDun" value="0x1a8554c4eb8443baL" />
              </node>
              <node concept="1adDum" id="K" role="37wK5m">
                <property role="1adDun" value="0x8c346f0d90c6e75aL" />
              </node>
              <node concept="1adDum" id="L" role="37wK5m">
                <property role="1adDun" value="0x3ac2ae2c0bcf368bL" />
              </node>
            </node>
          </node>
        </node>
        <node concept="liA8E" id="E" role="2OqNvi">
          <ref role="37wK5l" to="ksn4:~ConceptSwitchIndexBuilder.seal():jetbrains.mps.lang.smodel.ConceptSwitchIndex" resolve="seal" />
        </node>
      </node>
      <node concept="3uibUv" id="C" role="1tU5fm">
        <ref role="3uigEE" to="ksn4:~ConceptSwitchIndex" resolve="ConceptSwitchIndex" />
      </node>
    </node>
  </node>
  <node concept="39dXUE" id="M">
    <node concept="39e2AJ" id="N" role="39e2AI">
      <property role="39e3Y2" value="switchField" />
      <node concept="39e2AG" id="P" role="39e3Y0">
        <node concept="385nmt" id="Q" role="385vvn">
          <property role="385vuF" value="concept switch" />
          <node concept="2$VJBW" id="S" role="385v07">
            <property role="2$VJBR" value="13" />
            <node concept="2x4n5u" id="T" role="3iCydw">
              <property role="2x4mPI" value="ConceptSwitchStatement" />
              <property role="2x4o5l" value="false" />
              <property role="2x4n5l" value="195uihc0nrdil" />
              <node concept="2V$Bhx" id="U" role="2x4n5j">
                <property role="2V$B1T" value="7866978e-a0f0-4cc7-81bc-4d213d9375e1" />
                <property role="2V$B1Q" value="jetbrains.mps.lang.smodel" />
              </node>
            </node>
          </node>
        </node>
        <node concept="39e2AT" id="R" role="39e2AY">
          <ref role="39e2AS" node="5" resolve="index_vhxjlb_a0b" />
        </node>
      </node>
    </node>
    <node concept="39e2AJ" id="O" role="39e2AI">
      <property role="39e3Y2" value="switchVar" />
      <node concept="39e2AG" id="V" role="39e3Y0">
        <node concept="385nmt" id="W" role="385vvn">
          <property role="385vuF" value="concept switch" />
          <node concept="2$VJBW" id="Y" role="385v07">
            <property role="2$VJBR" value="13" />
            <node concept="2x4n5u" id="Z" role="3iCydw">
              <property role="2x4mPI" value="ConceptSwitchStatement" />
              <property role="2x4o5l" value="false" />
              <property role="2x4n5l" value="195uihc0nrdil" />
              <node concept="2V$Bhx" id="10" role="2x4n5j">
                <property role="2V$B1T" value="7866978e-a0f0-4cc7-81bc-4d213d9375e1" />
                <property role="2V$B1Q" value="jetbrains.mps.lang.smodel" />
              </node>
            </node>
          </node>
        </node>
        <node concept="39e2AT" id="X" role="39e2AY">
          <ref role="39e2AS" node="h" resolve="cncpt_a0b" />
        </node>
      </node>
    </node>
  </node>
  <node concept="312cEu" id="11">
    <property role="TrG5h" value="WithStatement_DataFlow" />
    <node concept="3Tm1VV" id="12" role="1B3o_S" />
    <node concept="3uibUv" id="13" role="1zkMxy">
      <ref role="3uigEE" to="aplb:3HJD4JbIwf_" resolve="DataFlowBuilder" />
    </node>
    <node concept="3clFb_" id="14" role="jymVt">
      <property role="TrG5h" value="build" />
      <node concept="3Tm1VV" id="15" role="1B3o_S" />
      <node concept="3cqZAl" id="16" role="3clF45" />
      <node concept="37vLTG" id="17" role="3clF46">
        <property role="TrG5h" value="_context" />
        <property role="3TUv4t" value="true" />
        <node concept="3uibUv" id="19" role="1tU5fm">
          <ref role="3uigEE" to="aplb:3HJD4JbIvKw" resolve="DataFlowBuilderContext" />
        </node>
      </node>
      <node concept="3clFbS" id="18" role="3clF47">
        <node concept="3clFbF" id="1a" role="3cqZAp">
          <node concept="2OqwBi" id="1c" role="3clFbG">
            <node concept="2OqwBi" id="1d" role="2Oq$k0">
              <node concept="37vLTw" id="1f" role="2Oq$k0">
                <ref role="3cqZAo" node="17" resolve="_context" />
              </node>
              <node concept="liA8E" id="1g" role="2OqNvi">
                <ref role="37wK5l" to="aplb:3HJD4JbIvKV" resolve="getBuilder" />
              </node>
            </node>
            <node concept="liA8E" id="1e" role="2OqNvi">
              <ref role="37wK5l" to="1fjm:~StructuralProgramBuilder.build(java.lang.Object):void" resolve="build" />
              <node concept="10QFUN" id="1h" role="37wK5m">
                <node concept="2YIFZM" id="1i" role="10QFUP">
                  <ref role="1Pybhc" to="i8bi:5IkW5anFcpd" resolve="SLinkOperations" />
                  <ref role="37wK5l" to="i8bi:1pwnB5DiOAj" resolve="getTarget" />
                  <node concept="1DoJHT" id="1k" role="37wK5m">
                    <property role="1Dpdpm" value="getNode" />
                    <node concept="3uibUv" id="1m" role="1Ez5kq">
                      <ref role="3uigEE" to="wyt6:~Object" resolve="Object" />
                    </node>
                    <node concept="37vLTw" id="1n" role="1EMhIo">
                      <ref role="3cqZAo" node="17" resolve="_context" />
                    </node>
                  </node>
                  <node concept="2YIFZM" id="1l" role="37wK5m">
                    <ref role="1Pybhc" to="2k9e:~MetaAdapterFactory" resolve="MetaAdapterFactory" />
                    <ref role="37wK5l" to="2k9e:~MetaAdapterFactory.getContainmentLink(long,long,long,long,java.lang.String):org.jetbrains.mps.openapi.language.SContainmentLink" resolve="getContainmentLink" />
                    <node concept="1adDum" id="1o" role="37wK5m">
                      <property role="1adDun" value="0x1a8554c4eb8443baL" />
                    </node>
                    <node concept="1adDum" id="1p" role="37wK5m">
                      <property role="1adDun" value="0x8c346f0d90c6e75aL" />
                    </node>
                    <node concept="1adDum" id="1q" role="37wK5m">
                      <property role="1adDun" value="0x3ac2ae2c0bcf368bL" />
                    </node>
                    <node concept="1adDum" id="1r" role="37wK5m">
                      <property role="1adDun" value="0x3ac2ae2c0bcf36b7L" />
                    </node>
                    <node concept="Xl_RD" id="1s" role="37wK5m">
                      <property role="Xl_RC" value="scope" />
                    </node>
                  </node>
                </node>
                <node concept="3uibUv" id="1j" role="10QFUM">
                  <ref role="3uigEE" to="mhbf:~SNode" resolve="SNode" />
                </node>
              </node>
            </node>
          </node>
        </node>
        <node concept="3clFbF" id="1b" role="3cqZAp">
          <node concept="2OqwBi" id="1t" role="3clFbG">
            <node concept="2OqwBi" id="1u" role="2Oq$k0">
              <node concept="37vLTw" id="1w" role="2Oq$k0">
                <ref role="3cqZAo" node="17" resolve="_context" />
              </node>
              <node concept="liA8E" id="1x" role="2OqNvi">
                <ref role="37wK5l" to="aplb:3HJD4JbIvKV" resolve="getBuilder" />
              </node>
            </node>
            <node concept="liA8E" id="1v" role="2OqNvi">
              <ref role="37wK5l" to="1fjm:~StructuralProgramBuilder.build(java.lang.Object):void" resolve="build" />
              <node concept="10QFUN" id="1y" role="37wK5m">
                <node concept="2YIFZM" id="1z" role="10QFUP">
                  <ref role="1Pybhc" to="i8bi:5IkW5anFcpd" resolve="SLinkOperations" />
                  <ref role="37wK5l" to="i8bi:1pwnB5DiOAj" resolve="getTarget" />
                  <node concept="1DoJHT" id="1_" role="37wK5m">
                    <property role="1Dpdpm" value="getNode" />
                    <node concept="3uibUv" id="1B" role="1Ez5kq">
                      <ref role="3uigEE" to="wyt6:~Object" resolve="Object" />
                    </node>
                    <node concept="37vLTw" id="1C" role="1EMhIo">
                      <ref role="3cqZAo" node="17" resolve="_context" />
                    </node>
                  </node>
                  <node concept="2YIFZM" id="1A" role="37wK5m">
                    <ref role="1Pybhc" to="2k9e:~MetaAdapterFactory" resolve="MetaAdapterFactory" />
                    <ref role="37wK5l" to="2k9e:~MetaAdapterFactory.getContainmentLink(long,long,long,long,java.lang.String):org.jetbrains.mps.openapi.language.SContainmentLink" resolve="getContainmentLink" />
                    <node concept="1adDum" id="1D" role="37wK5m">
                      <property role="1adDun" value="0x1a8554c4eb8443baL" />
                    </node>
                    <node concept="1adDum" id="1E" role="37wK5m">
                      <property role="1adDun" value="0x8c346f0d90c6e75aL" />
                    </node>
                    <node concept="1adDum" id="1F" role="37wK5m">
                      <property role="1adDun" value="0x3ac2ae2c0bcf368bL" />
                    </node>
                    <node concept="1adDum" id="1G" role="37wK5m">
                      <property role="1adDun" value="0x3ac2ae2c0bcf368cL" />
                    </node>
                    <node concept="Xl_RD" id="1H" role="37wK5m">
                      <property role="Xl_RC" value="stmts" />
                    </node>
                  </node>
                </node>
                <node concept="3uibUv" id="1$" role="10QFUM">
                  <ref role="3uigEE" to="mhbf:~SNode" resolve="SNode" />
                </node>
              </node>
            </node>
          </node>
        </node>
      </node>
    </node>
  </node>
</model>

