<?xml version="1.0" encoding="UTF-8"?>
<model ref="r:6869e2b7-2b2d-443c-a462-ce5a9004892e(jetbrains.mps.build.mps.runner.typesystem)">
  <persistence version="9" />
  <languages>
    <devkit ref="00000000-0000-4000-0000-1de82b3a4936(jetbrains.mps.devkit.aspect.typesystem)" />
  </languages>
  <imports>
    <import index="as3y" ref="r:0f2b4a26-93a1-4327-97ef-ca91b7a4cf5e(jetbrains.mps.build.mps.runner.structure)" />
    <import index="2txq" ref="r:2c8fa2a8-11a0-4729-bd56-47f702d30278(jetbrains.mps.build.mps.behavior)" />
    <import index="z1c3" ref="6ed54515-acc8-4d1e-a16c-9fd6cfe951ea/java:jetbrains.mps.project(MPS.Core/)" />
    <import index="w0gx" ref="6ed54515-acc8-4d1e-a16c-9fd6cfe951ea/java:jetbrains.mps.project.structure.modules(MPS.Core/)" />
    <import index="lui2" ref="8865b7a8-5271-43d3-884c-6fd1d9cfdd34/java:org.jetbrains.mps.openapi.module(MPS.OpenAPI/)" />
    <import index="tpee" ref="r:00000000-0000-4000-0000-011c895902ca(jetbrains.mps.baseLanguage.structure)" />
    <import index="tpck" ref="r:00000000-0000-4000-0000-011c89590288(jetbrains.mps.lang.core.structure)" />
    <import index="wyt6" ref="6354ebe7-c22a-4a0f-ac54-50b52ab9b065/java:java.lang(JDK/)" />
    <import index="tpek" ref="r:00000000-0000-4000-0000-011c895902c0(jetbrains.mps.baseLanguage.behavior)" />
    <import index="tos2" ref="r:19e846e2-aa6a-48a9-8367-2a1eda2709e7(jetbrains.mps.build.mps.runner.behavior)" />
  </imports>
  <registry>
    <language id="f3061a53-9226-4cc5-a443-f952ceaf5816" name="jetbrains.mps.baseLanguage">
      <concept id="4836112446988635817" name="jetbrains.mps.baseLanguage.structure.UndefinedType" flags="in" index="2jxLKc" />
      <concept id="1202948039474" name="jetbrains.mps.baseLanguage.structure.InstanceMethodCallOperation" flags="nn" index="liA8E" />
      <concept id="1154032098014" name="jetbrains.mps.baseLanguage.structure.AbstractLoopStatement" flags="nn" index="2LF5Ji">
        <child id="1154032183016" name="body" index="2LFqv$" />
      </concept>
      <concept id="1197027756228" name="jetbrains.mps.baseLanguage.structure.DotExpression" flags="nn" index="2OqwBi">
        <child id="1197027771414" name="operand" index="2Oq$k0" />
        <child id="1197027833540" name="operation" index="2OqNvi" />
      </concept>
      <concept id="1070475926800" name="jetbrains.mps.baseLanguage.structure.StringLiteral" flags="nn" index="Xl_RD">
        <property id="1070475926801" name="value" index="Xl_RC" />
      </concept>
      <concept id="1081236700937" name="jetbrains.mps.baseLanguage.structure.StaticMethodCall" flags="nn" index="2YIFZM">
        <reference id="1144433194310" name="classConcept" index="1Pybhc" />
      </concept>
      <concept id="1070534058343" name="jetbrains.mps.baseLanguage.structure.NullLiteral" flags="nn" index="10Nm6u" />
      <concept id="1068431474542" name="jetbrains.mps.baseLanguage.structure.VariableDeclaration" flags="ng" index="33uBYm">
        <property id="1176718929932" name="isFinal" index="3TUv4t" />
        <child id="1068431790190" name="initializer" index="33vP2m" />
      </concept>
      <concept id="1068498886296" name="jetbrains.mps.baseLanguage.structure.VariableReference" flags="nn" index="37vLTw">
        <reference id="1068581517664" name="variableDeclaration" index="3cqZAo" />
      </concept>
      <concept id="1225271177708" name="jetbrains.mps.baseLanguage.structure.StringType" flags="in" index="17QB3L" />
      <concept id="4972933694980447171" name="jetbrains.mps.baseLanguage.structure.BaseVariableDeclaration" flags="ng" index="19Szcq">
        <child id="5680397130376446158" name="type" index="1tU5fm" />
      </concept>
      <concept id="1068580123155" name="jetbrains.mps.baseLanguage.structure.ExpressionStatement" flags="nn" index="3clFbF">
        <child id="1068580123156" name="expression" index="3clFbG" />
      </concept>
      <concept id="1068580123159" name="jetbrains.mps.baseLanguage.structure.IfStatement" flags="nn" index="3clFbJ">
        <child id="1068580123160" name="condition" index="3clFbw" />
        <child id="1068580123161" name="ifTrue" index="3clFbx" />
      </concept>
      <concept id="1068580123136" name="jetbrains.mps.baseLanguage.structure.StatementList" flags="sn" stub="5293379017992965193" index="3clFbS">
        <child id="1068581517665" name="statement" index="3cqZAp" />
      </concept>
      <concept id="1068581242875" name="jetbrains.mps.baseLanguage.structure.PlusExpression" flags="nn" index="3cpWs3" />
      <concept id="1068581242878" name="jetbrains.mps.baseLanguage.structure.ReturnStatement" flags="nn" index="3cpWs6" />
      <concept id="1068581242864" name="jetbrains.mps.baseLanguage.structure.LocalVariableDeclarationStatement" flags="nn" index="3cpWs8">
        <child id="1068581242865" name="localVariableDeclaration" index="3cpWs9" />
      </concept>
      <concept id="1068581242863" name="jetbrains.mps.baseLanguage.structure.LocalVariableDeclaration" flags="nr" index="3cpWsn" />
      <concept id="1204053956946" name="jetbrains.mps.baseLanguage.structure.IMethodCall" flags="ng" index="1ndlxa">
        <reference id="1068499141037" name="baseMethodDeclaration" index="37wK5l" />
        <child id="1068499141038" name="actualArgument" index="37wK5m" />
      </concept>
      <concept id="1107535904670" name="jetbrains.mps.baseLanguage.structure.ClassifierType" flags="in" index="3uibUv">
        <reference id="1107535924139" name="classifier" index="3uigEE" />
      </concept>
      <concept id="1081773326031" name="jetbrains.mps.baseLanguage.structure.BinaryOperation" flags="nn" index="3uHJSO">
        <child id="1081773367579" name="rightExpression" index="3uHU7w" />
        <child id="1081773367580" name="leftExpression" index="3uHU7B" />
      </concept>
      <concept id="1073239437375" name="jetbrains.mps.baseLanguage.structure.NotEqualsExpression" flags="nn" index="3y3z36" />
      <concept id="1144226303539" name="jetbrains.mps.baseLanguage.structure.ForeachStatement" flags="nn" index="1DcWWT">
        <child id="1144226360166" name="iterable" index="1DdaDG" />
      </concept>
      <concept id="1144230876926" name="jetbrains.mps.baseLanguage.structure.AbstractForStatement" flags="nn" index="1DupvO">
        <child id="1144230900587" name="variable" index="1Duv9x" />
      </concept>
      <concept id="1082113931046" name="jetbrains.mps.baseLanguage.structure.ContinueStatement" flags="nn" index="3N13vt" />
      <concept id="1080120340718" name="jetbrains.mps.baseLanguage.structure.AndExpression" flags="nn" index="1Wc70l" />
    </language>
    <language id="fd392034-7849-419d-9071-12563d152375" name="jetbrains.mps.baseLanguage.closures">
      <concept id="1199569711397" name="jetbrains.mps.baseLanguage.closures.structure.ClosureLiteral" flags="nn" index="1bVj0M">
        <child id="1199569906740" name="parameter" index="1bW2Oz" />
        <child id="1199569916463" name="body" index="1bW5cS" />
      </concept>
    </language>
    <language id="7a5dda62-9140-4668-ab76-d5ed1746f2b2" name="jetbrains.mps.lang.typesystem">
      <concept id="1175517767210" name="jetbrains.mps.lang.typesystem.structure.ReportErrorStatement" flags="nn" index="2MkqsV">
        <child id="1175517851849" name="errorString" index="2MkJ7o" />
      </concept>
      <concept id="1227096620180" name="jetbrains.mps.lang.typesystem.structure.ReferenceMessageTarget" flags="ng" index="2OE7Q9">
        <reference id="1227096645744" name="linkDeclaration" index="2OEe5H" />
      </concept>
      <concept id="1227096774658" name="jetbrains.mps.lang.typesystem.structure.MessageStatement" flags="ng" index="2OEH$v">
        <child id="1227096802790" name="nodeToReport" index="2OEOjV" />
        <child id="1227096836496" name="messageTarget" index="2OEWyd" />
      </concept>
      <concept id="1195213580585" name="jetbrains.mps.lang.typesystem.structure.AbstractCheckingRule" flags="ig" index="18hYwZ">
        <child id="1195213635060" name="body" index="18ibNy" />
      </concept>
      <concept id="1195214364922" name="jetbrains.mps.lang.typesystem.structure.NonTypesystemRule" flags="ig" index="18kY7G" />
      <concept id="1174642788531" name="jetbrains.mps.lang.typesystem.structure.ConceptReference" flags="ig" index="1YaCAy">
        <reference id="1174642800329" name="concept" index="1YaFvo" />
      </concept>
      <concept id="1174648085619" name="jetbrains.mps.lang.typesystem.structure.AbstractRule" flags="ng" index="1YuPPy">
        <child id="1174648101952" name="applicableNode" index="1YuTPh" />
      </concept>
      <concept id="1174650418652" name="jetbrains.mps.lang.typesystem.structure.ApplicableNodeReference" flags="nn" index="1YBJjd">
        <reference id="1174650432090" name="applicableNode" index="1YBMHb" />
      </concept>
    </language>
    <language id="7866978e-a0f0-4cc7-81bc-4d213d9375e1" name="jetbrains.mps.lang.smodel">
      <concept id="1177026924588" name="jetbrains.mps.lang.smodel.structure.RefConcept_Reference" flags="nn" index="chp4Y">
        <reference id="1177026940964" name="conceptDeclaration" index="cht4Q" />
      </concept>
      <concept id="1179409122411" name="jetbrains.mps.lang.smodel.structure.Node_ConceptMethodCall" flags="nn" index="2qgKlT" />
      <concept id="1143226024141" name="jetbrains.mps.lang.smodel.structure.SModelType" flags="in" index="H_c77" />
      <concept id="1212008292747" name="jetbrains.mps.lang.smodel.structure.Model_GetLongNameOperation" flags="nn" index="LkI2h" />
      <concept id="1171315804604" name="jetbrains.mps.lang.smodel.structure.Model_RootsOperation" flags="nn" index="2RRcyG">
        <reference id="1171315804605" name="concept" index="2RRcyH" />
      </concept>
      <concept id="1139621453865" name="jetbrains.mps.lang.smodel.structure.Node_IsInstanceOfOperation" flags="nn" index="1mIQ4w">
        <child id="1177027386292" name="conceptArgument" index="cj9EA" />
      </concept>
      <concept id="1171999116870" name="jetbrains.mps.lang.smodel.structure.Node_IsNullOperation" flags="nn" index="3w_OXm" />
      <concept id="1172008320231" name="jetbrains.mps.lang.smodel.structure.Node_IsNotNullOperation" flags="nn" index="3x8VRR" />
      <concept id="1138055754698" name="jetbrains.mps.lang.smodel.structure.SNodeType" flags="in" index="3Tqbb2">
        <reference id="1138405853777" name="concept" index="ehGHo" />
      </concept>
      <concept id="1138056022639" name="jetbrains.mps.lang.smodel.structure.SPropertyAccess" flags="nn" index="3TrcHB">
        <reference id="1138056395725" name="property" index="3TsBF5" />
      </concept>
      <concept id="1138056143562" name="jetbrains.mps.lang.smodel.structure.SLinkAccess" flags="nn" index="3TrEf2">
        <reference id="1138056516764" name="link" index="3Tt5mk" />
      </concept>
      <concept id="1138056282393" name="jetbrains.mps.lang.smodel.structure.SLinkListAccess" flags="nn" index="3Tsc0h">
        <reference id="1138056546658" name="link" index="3TtcxE" />
      </concept>
    </language>
    <language id="ceab5195-25ea-4f22-9b92-103b95ca8c0c" name="jetbrains.mps.lang.core">
      <concept id="1169194658468" name="jetbrains.mps.lang.core.structure.INamedConcept" flags="ng" index="TrEIO">
        <property id="1169194664001" name="name" index="TrG5h" />
      </concept>
    </language>
    <language id="83888646-71ce-4f1c-9c53-c54016f6ad4f" name="jetbrains.mps.baseLanguage.collections">
      <concept id="1204796164442" name="jetbrains.mps.baseLanguage.collections.structure.InternalSequenceOperation" flags="nn" index="23sCx2">
        <child id="1204796294226" name="closure" index="23t8la" />
      </concept>
      <concept id="1203518072036" name="jetbrains.mps.baseLanguage.collections.structure.SmartClosureParameterDeclaration" flags="ig" index="Rh6nW" />
      <concept id="1165530316231" name="jetbrains.mps.baseLanguage.collections.structure.IsEmptyOperation" flags="nn" index="1v1jN8" />
      <concept id="1225727723840" name="jetbrains.mps.baseLanguage.collections.structure.FindFirstOperation" flags="nn" index="1z4cxt" />
    </language>
  </registry>
  <node concept="18kY7G" id="6rDosczLWAx">
    <property role="TrG5h" value="check_BuildSolutionRunnerAspect" />
    <node concept="3clFbS" id="6rDosczLWAy" role="18ibNy">
      <node concept="3cpWs8" id="1aYLt$9esyS" role="3cqZAp">
        <node concept="3cpWsn" id="1aYLt$9esyT" role="3cpWs9">
          <property role="TrG5h" value="className" />
          <property role="3TUv4t" value="true" />
          <node concept="17QB3L" id="1aYLt$9esyO" role="1tU5fm" />
          <node concept="2OqwBi" id="1aYLt$9esyU" role="33vP2m">
            <node concept="1YBJjd" id="1aYLt$9esyV" role="2Oq$k0">
              <ref role="1YBMHb" node="6rDosczLWA$" resolve="buildSolutionRunner" />
            </node>
            <node concept="2qgKlT" id="1aYLt$9esyW" role="2OqNvi">
              <ref role="37wK5l" to="tos2:1aYLt$9dW4N" resolve="getClassName" />
            </node>
          </node>
        </node>
      </node>
      <node concept="3cpWs8" id="1aYLt$9euiS" role="3cqZAp">
        <node concept="3cpWsn" id="1aYLt$9euiT" role="3cpWs9">
          <property role="TrG5h" value="methodName" />
          <property role="3TUv4t" value="true" />
          <node concept="17QB3L" id="1aYLt$9euiO" role="1tU5fm" />
          <node concept="2OqwBi" id="1aYLt$9euiU" role="33vP2m">
            <node concept="1YBJjd" id="1aYLt$9euiV" role="2Oq$k0">
              <ref role="1YBMHb" node="6rDosczLWA$" resolve="buildSolutionRunner" />
            </node>
            <node concept="2qgKlT" id="1aYLt$9euiW" role="2OqNvi">
              <ref role="37wK5l" to="tos2:1aYLt$9dX0a" resolve="getMethodName" />
            </node>
          </node>
        </node>
      </node>
      <node concept="3cpWs8" id="6rDosczM1nq" role="3cqZAp">
        <node concept="3cpWsn" id="6rDosczM1nr" role="3cpWs9">
          <property role="TrG5h" value="moduleReference" />
          <node concept="3uibUv" id="6rDosczM1no" role="1tU5fm">
            <ref role="3uigEE" to="lui2:~SModuleReference" resolve="SModuleReference" />
          </node>
          <node concept="2YIFZM" id="6rDosczM1ns" role="33vP2m">
            <ref role="37wK5l" to="w0gx:~ModuleReference.parseReference(java.lang.String):org.jetbrains.mps.openapi.module.SModuleReference" resolve="parseReference" />
            <ref role="1Pybhc" to="w0gx:~ModuleReference" resolve="ModuleReference" />
            <node concept="2OqwBi" id="6rDosczM1nt" role="37wK5m">
              <node concept="2OqwBi" id="6rDosczM1nu" role="2Oq$k0">
                <node concept="1YBJjd" id="6rDosczM1nv" role="2Oq$k0">
                  <ref role="1YBMHb" node="6rDosczLWA$" resolve="buildSolutionRunner" />
                </node>
                <node concept="3TrEf2" id="6rDosczM1nw" role="2OqNvi">
                  <ref role="3Tt5mk" to="as3y:5iKxrmkn6qh" resolve="solution" />
                </node>
              </node>
              <node concept="2qgKlT" id="6rDosczM1nx" role="2OqNvi">
                <ref role="37wK5l" to="2txq:41K1b4v5ZCB" resolve="getModuleReference" />
              </node>
            </node>
          </node>
        </node>
      </node>
      <node concept="3cpWs8" id="6rDosczM1NA" role="3cqZAp">
        <node concept="3cpWsn" id="6rDosczM1NB" role="3cpWs9">
          <property role="TrG5h" value="module" />
          <node concept="3uibUv" id="6rDosczM1Nz" role="1tU5fm">
            <ref role="3uigEE" to="lui2:~SModule" resolve="SModule" />
          </node>
          <node concept="2OqwBi" id="6rDosczM1NC" role="33vP2m">
            <node concept="2YIFZM" id="6rDosczM1ND" role="2Oq$k0">
              <ref role="37wK5l" to="z1c3:~GlobalScope.getInstance():jetbrains.mps.project.GlobalScope" resolve="getInstance" />
              <ref role="1Pybhc" to="z1c3:~GlobalScope" resolve="GlobalScope" />
            </node>
            <node concept="liA8E" id="6rDosczM1NE" role="2OqNvi">
              <ref role="37wK5l" to="z1c3:~GlobalScope.resolve(org.jetbrains.mps.openapi.module.SModuleReference):org.jetbrains.mps.openapi.module.SModule" resolve="resolve" />
              <node concept="37vLTw" id="6rDosczM1NF" role="37wK5m">
                <ref role="3cqZAo" node="6rDosczM1nr" resolve="moduleReference" />
              </node>
            </node>
          </node>
        </node>
      </node>
      <node concept="3clFbJ" id="6rDosczM3kI" role="3cqZAp">
        <node concept="3clFbS" id="6rDosczM3kK" role="3clFbx">
          <node concept="1DcWWT" id="6rDosczNw6J" role="3cqZAp">
            <node concept="3clFbS" id="6rDosczNw6L" role="2LFqv$">
              <node concept="3clFbJ" id="6rDosczNA8d" role="3cqZAp">
                <node concept="3clFbS" id="6rDosczNA8f" role="3clFbx">
                  <node concept="3cpWs8" id="1aYLt$9bB$r" role="3cqZAp">
                    <node concept="3cpWsn" id="1aYLt$9bB$s" role="3cpWs9">
                      <property role="TrG5h" value="classToRun" />
                      <node concept="3Tqbb2" id="1aYLt$9bB$i" role="1tU5fm">
                        <ref role="ehGHo" to="tpee:fz12cDA" resolve="ClassConcept" />
                      </node>
                      <node concept="2OqwBi" id="1aYLt$9bB$t" role="33vP2m">
                        <node concept="2OqwBi" id="1aYLt$9bB$u" role="2Oq$k0">
                          <node concept="37vLTw" id="1aYLt$9bB$v" role="2Oq$k0">
                            <ref role="3cqZAo" node="6rDosczNw6M" resolve="m" />
                          </node>
                          <node concept="2RRcyG" id="1aYLt$9bB$w" role="2OqNvi">
                            <ref role="2RRcyH" to="tpee:fz12cDA" resolve="ClassConcept" />
                          </node>
                        </node>
                        <node concept="1z4cxt" id="1aYLt$9bB$x" role="2OqNvi">
                          <node concept="1bVj0M" id="1aYLt$9bB$y" role="23t8la">
                            <node concept="3clFbS" id="1aYLt$9bB$z" role="1bW5cS">
                              <node concept="3clFbF" id="1aYLt$9bB$$" role="3cqZAp">
                                <node concept="2OqwBi" id="1aYLt$9bB$_" role="3clFbG">
                                  <node concept="2OqwBi" id="1aYLt$9bB$A" role="2Oq$k0">
                                    <node concept="37vLTw" id="1aYLt$9bB$B" role="2Oq$k0">
                                      <ref role="3cqZAo" node="1aYLt$9bB$F" resolve="it" />
                                    </node>
                                    <node concept="3TrcHB" id="1aYLt$9bB$C" role="2OqNvi">
                                      <ref role="3TsBF5" to="tpck:h0TrG11" resolve="name" />
                                    </node>
                                  </node>
                                  <node concept="liA8E" id="1aYLt$9bB$D" role="2OqNvi">
                                    <ref role="37wK5l" to="wyt6:~String.equals(java.lang.Object):boolean" resolve="equals" />
                                    <node concept="37vLTw" id="1aYLt$9esyX" role="37wK5m">
                                      <ref role="3cqZAo" node="1aYLt$9esyT" resolve="className" />
                                    </node>
                                  </node>
                                </node>
                              </node>
                            </node>
                            <node concept="Rh6nW" id="1aYLt$9bB$F" role="1bW2Oz">
                              <property role="TrG5h" value="it" />
                              <node concept="2jxLKc" id="1aYLt$9bB$G" role="1tU5fm" />
                            </node>
                          </node>
                        </node>
                      </node>
                    </node>
                  </node>
                  <node concept="3clFbJ" id="1aYLt$9c4PK" role="3cqZAp">
                    <node concept="3clFbS" id="1aYLt$9c4PM" role="3clFbx">
                      <node concept="3N13vt" id="1aYLt$9c6Ji" role="3cqZAp" />
                    </node>
                    <node concept="2OqwBi" id="1aYLt$9c5wJ" role="3clFbw">
                      <node concept="37vLTw" id="1aYLt$9c52M" role="2Oq$k0">
                        <ref role="3cqZAo" node="1aYLt$9bB$s" resolve="classToRun" />
                      </node>
                      <node concept="3w_OXm" id="1aYLt$9c6GT" role="2OqNvi" />
                    </node>
                  </node>
                  <node concept="3cpWs8" id="1aYLt$9c3LP" role="3cqZAp">
                    <node concept="3cpWsn" id="1aYLt$9c3LQ" role="3cpWs9">
                      <property role="TrG5h" value="methodToRun" />
                      <node concept="3Tqbb2" id="1aYLt$9c3KW" role="1tU5fm">
                        <ref role="ehGHo" to="tpee:fIYIFWa" resolve="StaticMethodDeclaration" />
                      </node>
                      <node concept="2OqwBi" id="1aYLt$9c3LR" role="33vP2m">
                        <node concept="2OqwBi" id="1aYLt$9c3LS" role="2Oq$k0">
                          <node concept="37vLTw" id="1aYLt$9c3LT" role="2Oq$k0">
                            <ref role="3cqZAo" node="1aYLt$9bB$s" resolve="classToRun" />
                          </node>
                          <node concept="2qgKlT" id="1aYLt$9c3LU" role="2OqNvi">
                            <ref role="37wK5l" to="tpek:4_LVZ3pCeXr" resolve="staticMethods" />
                          </node>
                        </node>
                        <node concept="1z4cxt" id="1aYLt$9c3LV" role="2OqNvi">
                          <node concept="1bVj0M" id="1aYLt$9c3LW" role="23t8la">
                            <node concept="3clFbS" id="1aYLt$9c3LX" role="1bW5cS">
                              <node concept="3clFbF" id="1aYLt$9c3LY" role="3cqZAp">
                                <node concept="1Wc70l" id="1aYLt$9c3LZ" role="3clFbG">
                                  <node concept="2OqwBi" id="1aYLt$9c3M0" role="3uHU7w">
                                    <node concept="2OqwBi" id="1aYLt$9c3M1" role="2Oq$k0">
                                      <node concept="37vLTw" id="1aYLt$9c3M2" role="2Oq$k0">
                                        <ref role="3cqZAo" node="1aYLt$9c3Mi" resolve="it" />
                                      </node>
                                      <node concept="3Tsc0h" id="1aYLt$9c3M3" role="2OqNvi">
                                        <ref role="3TtcxE" to="tpee:fzclF7Y" resolve="parameter" />
                                      </node>
                                    </node>
                                    <node concept="1v1jN8" id="1aYLt$9c3M4" role="2OqNvi" />
                                  </node>
                                  <node concept="1Wc70l" id="1aYLt$9c3M5" role="3uHU7B">
                                    <node concept="2OqwBi" id="1aYLt$9c3M6" role="3uHU7B">
                                      <node concept="2OqwBi" id="1aYLt$9c3M7" role="2Oq$k0">
                                        <node concept="37vLTw" id="1aYLt$9c3M8" role="2Oq$k0">
                                          <ref role="3cqZAo" node="1aYLt$9c3Mi" resolve="it" />
                                        </node>
                                        <node concept="3TrcHB" id="1aYLt$9c3M9" role="2OqNvi">
                                          <ref role="3TsBF5" to="tpck:h0TrG11" resolve="name" />
                                        </node>
                                      </node>
                                      <node concept="liA8E" id="1aYLt$9c3Ma" role="2OqNvi">
                                        <ref role="37wK5l" to="wyt6:~String.equals(java.lang.Object):boolean" resolve="equals" />
                                        <node concept="37vLTw" id="1aYLt$9euiX" role="37wK5m">
                                          <ref role="3cqZAo" node="1aYLt$9euiT" resolve="methodName" />
                                        </node>
                                      </node>
                                    </node>
                                    <node concept="2OqwBi" id="1aYLt$9c3Mc" role="3uHU7w">
                                      <node concept="2OqwBi" id="1aYLt$9c3Md" role="2Oq$k0">
                                        <node concept="37vLTw" id="1aYLt$9c3Me" role="2Oq$k0">
                                          <ref role="3cqZAo" node="1aYLt$9c3Mi" resolve="it" />
                                        </node>
                                        <node concept="3TrEf2" id="1aYLt$9c3Mf" role="2OqNvi">
                                          <ref role="3Tt5mk" to="tpee:h9B3oxE" resolve="visibility" />
                                        </node>
                                      </node>
                                      <node concept="1mIQ4w" id="1aYLt$9c3Mg" role="2OqNvi">
                                        <node concept="chp4Y" id="1aYLt$9c3Mh" role="cj9EA">
                                          <ref role="cht4Q" to="tpee:gFTm1ZL" resolve="PublicVisibility" />
                                        </node>
                                      </node>
                                    </node>
                                  </node>
                                </node>
                              </node>
                            </node>
                            <node concept="Rh6nW" id="1aYLt$9c3Mi" role="1bW2Oz">
                              <property role="TrG5h" value="it" />
                              <node concept="2jxLKc" id="1aYLt$9c3Mj" role="1tU5fm" />
                            </node>
                          </node>
                        </node>
                      </node>
                    </node>
                  </node>
                  <node concept="3clFbJ" id="6rDosczM9e1" role="3cqZAp">
                    <node concept="3clFbS" id="6rDosczM9e3" role="3clFbx">
                      <node concept="3cpWs6" id="6rDosczNvQ0" role="3cqZAp" />
                    </node>
                    <node concept="2OqwBi" id="6rDosczNuzk" role="3clFbw">
                      <node concept="37vLTw" id="1aYLt$9c3Mk" role="2Oq$k0">
                        <ref role="3cqZAo" node="1aYLt$9c3LQ" resolve="methodToRun" />
                      </node>
                      <node concept="3x8VRR" id="6rDosczNvEO" role="2OqNvi" />
                    </node>
                  </node>
                </node>
                <node concept="2OqwBi" id="6rDosczNAz1" role="3clFbw">
                  <node concept="2OqwBi" id="6rDosczNAjC" role="2Oq$k0">
                    <node concept="37vLTw" id="6rDosczNAj6" role="2Oq$k0">
                      <ref role="3cqZAo" node="6rDosczNw6M" resolve="m" />
                    </node>
                    <node concept="LkI2h" id="6rDosczNAnu" role="2OqNvi" />
                  </node>
                  <node concept="liA8E" id="6rDosczNBAb" role="2OqNvi">
                    <ref role="37wK5l" to="wyt6:~String.equals(java.lang.Object):boolean" resolve="equals" />
                    <node concept="2OqwBi" id="6rDosczNBAW" role="37wK5m">
                      <node concept="37vLTw" id="6rDosczNBAX" role="2Oq$k0">
                        <ref role="3cqZAo" node="6rDosczM1NB" resolve="module" />
                      </node>
                      <node concept="liA8E" id="6rDosczNBAY" role="2OqNvi">
                        <ref role="37wK5l" to="lui2:~SModule.getModuleName():java.lang.String" resolve="getModuleName" />
                      </node>
                    </node>
                  </node>
                </node>
              </node>
            </node>
            <node concept="3cpWsn" id="6rDosczNw6M" role="1Duv9x">
              <property role="TrG5h" value="m" />
              <node concept="H_c77" id="6rDosczNwtP" role="1tU5fm" />
            </node>
            <node concept="2OqwBi" id="6rDosczNwT0" role="1DdaDG">
              <node concept="37vLTw" id="6rDosczNwS3" role="2Oq$k0">
                <ref role="3cqZAo" node="6rDosczM1NB" resolve="module" />
              </node>
              <node concept="liA8E" id="6rDosczNx9C" role="2OqNvi">
                <ref role="37wK5l" to="lui2:~SModule.getModels():java.lang.Iterable" resolve="getModels" />
              </node>
            </node>
          </node>
        </node>
        <node concept="3y3z36" id="6rDosczM6vV" role="3clFbw">
          <node concept="37vLTw" id="6rDosczM3nL" role="3uHU7B">
            <ref role="3cqZAo" node="6rDosczM1NB" resolve="module" />
          </node>
          <node concept="10Nm6u" id="6rDosczM3o$" role="3uHU7w" />
        </node>
      </node>
      <node concept="2MkqsV" id="6rDosczM6No" role="3cqZAp">
        <node concept="1YBJjd" id="6rDosczM8H$" role="2OEOjV">
          <ref role="1YBMHb" node="6rDosczLWA$" resolve="buildSolutionRunner" />
        </node>
        <node concept="3cpWs3" id="6rDosczM7ae" role="2MkJ7o">
          <node concept="2OqwBi" id="6rDosczM7V$" role="3uHU7w">
            <node concept="2OqwBi" id="6rDosczM7eS" role="2Oq$k0">
              <node concept="1YBJjd" id="6rDosczM7aw" role="2Oq$k0">
                <ref role="1YBMHb" node="6rDosczLWA$" resolve="buildSolutionRunner" />
              </node>
              <node concept="3TrEf2" id="6rDosczM7_k" role="2OqNvi">
                <ref role="3Tt5mk" to="as3y:5iKxrmkn6qh" resolve="solution" />
              </node>
            </node>
            <node concept="3TrcHB" id="6rDosczM8_n" role="2OqNvi">
              <ref role="3TsBF5" to="tpck:h0TrG11" resolve="name" />
            </node>
          </node>
          <node concept="3cpWs3" id="6rDosczOCf8" role="3uHU7B">
            <node concept="3cpWs3" id="6rDosczOCwk" role="3uHU7B">
              <node concept="3cpWs3" id="6rDosczOCn$" role="3uHU7B">
                <node concept="3cpWs3" id="6rDosczOBYz" role="3uHU7B">
                  <node concept="Xl_RD" id="6rDosczOBYD" role="3uHU7B">
                    <property role="Xl_RC" value="Cannot find public static void " />
                  </node>
                  <node concept="37vLTw" id="1aYLt$9esyY" role="3uHU7w">
                    <ref role="3cqZAo" node="1aYLt$9esyT" resolve="className" />
                  </node>
                </node>
                <node concept="Xl_RD" id="6rDosczOCwq" role="3uHU7w">
                  <property role="Xl_RC" value="." />
                </node>
              </node>
              <node concept="37vLTw" id="1aYLt$9euiY" role="3uHU7w">
                <ref role="3cqZAo" node="1aYLt$9euiT" resolve="methodName" />
              </node>
            </node>
            <node concept="Xl_RD" id="6rDosczOCfg" role="3uHU7w">
              <property role="Xl_RC" value="() in " />
            </node>
          </node>
        </node>
        <node concept="2OE7Q9" id="6rDosczM8Qn" role="2OEWyd">
          <ref role="2OEe5H" to="as3y:5iKxrmkn6qh" resolve="solution" />
        </node>
      </node>
    </node>
    <node concept="1YaCAy" id="6rDosczLWA$" role="1YuTPh">
      <property role="TrG5h" value="buildSolutionRunner" />
      <ref role="1YaFvo" to="as3y:3BExUgsK89Y" resolve="BuildSolutionRunnerAspect" />
    </node>
  </node>
</model>

