<?xml version="1.0" encoding="UTF-8"?>
<model ref="r:6554a258-f9f0-41b3-8290-adae628da051(updatedLanguage.constraints)">
  <persistence version="9" />
  <languages>
    <devkit ref="00000000-0000-4000-0000-5604ebd4f22c(jetbrains.mps.devkit.aspect.constraints)" />
  </languages>
  <imports />
  <registry />
</model>

