<?xml version="1.0" encoding="UTF-8"?>
<model ref="r:d2da4af1-e84b-4016-92ec-5817a38dc1f9(updatedLanguage.structure)">
  <persistence version="9" />
  <languages>
    <devkit ref="78434eb8-b0e5-444b-850d-e7c4ad2da9ab(jetbrains.mps.devkit.aspect.structure)" />
  </languages>
  <imports>
    <import index="tpck" ref="r:00000000-0000-4000-0000-011c89590288(jetbrains.mps.lang.core.structure)" implicit="true" />
  </imports>
  <registry>
    <language id="c72da2b9-7cce-4447-8389-f407dc1158b7" name="jetbrains.mps.lang.structure">
      <concept id="1169125787135" name="jetbrains.mps.lang.structure.structure.AbstractConceptDeclaration" flags="ig" index="PkWjJ">
        <property id="6714410169261853888" name="conceptId" index="EcuMT" />
        <child id="1071489727083" name="linkDeclaration" index="1TKVEi" />
        <child id="1071489727084" name="propertyDeclaration" index="1TKVEl" />
      </concept>
      <concept id="1169127622168" name="jetbrains.mps.lang.structure.structure.InterfaceConceptReference" flags="ig" index="PrWs8">
        <reference id="1169127628841" name="intfc" index="PrY4T" />
      </concept>
      <concept id="1071489090640" name="jetbrains.mps.lang.structure.structure.ConceptDeclaration" flags="ig" index="1TIwiD">
        <property id="1096454100552" name="rootable" index="19KtqR" />
        <reference id="1071489389519" name="extends" index="1TJDcQ" />
        <child id="1169129564478" name="implements" index="PzmwI" />
      </concept>
      <concept id="1071489288299" name="jetbrains.mps.lang.structure.structure.PropertyDeclaration" flags="ig" index="1TJgyi">
        <property id="241647608299431129" name="propertyId" index="IQ2nx" />
        <reference id="1082985295845" name="dataType" index="AX2Wp" />
      </concept>
      <concept id="1071489288298" name="jetbrains.mps.lang.structure.structure.LinkDeclaration" flags="ig" index="1TJgyj">
        <property id="1071599776563" name="role" index="20kJfa" />
        <property id="1071599893252" name="sourceCardinality" index="20lbJX" />
        <property id="1071599937831" name="metaClass" index="20lmBu" />
        <property id="241647608299431140" name="linkId" index="IQ2ns" />
        <reference id="1071599976176" name="target" index="20lvS9" />
      </concept>
    </language>
    <language id="ceab5195-25ea-4f22-9b92-103b95ca8c0c" name="jetbrains.mps.lang.core">
      <concept id="1169194658468" name="jetbrains.mps.lang.core.structure.INamedConcept" flags="ng" index="TrEIO">
        <property id="1169194664001" name="name" index="TrG5h" />
      </concept>
    </language>
  </registry>
  <node concept="1TIwiD" id="gwqcHBJ5sR">
    <property role="TrG5h" value="MigratingConcept" />
    <property role="EcuMT" value="297352798234498871" />
    <ref role="1TJDcQ" to="tpck:gw2VY9q" resolve="BaseConcept" />
    <node concept="1TJgyi" id="gwqcHBJ5ue" role="1TKVEl">
      <property role="TrG5h" value="value" />
      <property role="IQ2nx" value="297352798234498958" />
      <ref role="AX2Wp" to="tpck:fKAQMTA" resolve="integer" />
    </node>
    <node concept="1TJgyi" id="gwqcHBJaMf" role="1TKVEl">
      <property role="TrG5h" value="newvalue" />
      <property role="IQ2nx" value="297352798234520719" />
      <ref role="AX2Wp" to="tpck:fKAQMTA" resolve="integer" />
    </node>
    <node concept="PrWs8" id="5SUgnR_I0fP" role="PzmwI">
      <ref role="PrY4T" to="tpck:19gBtYEv0ln" resolve="ImplementationPart" />
    </node>
  </node>
  <node concept="1TIwiD" id="7jBjFIivoZD">
    <property role="TrG5h" value="RootConcept" />
    <property role="19KtqR" value="true" />
    <property role="EcuMT" value="8423788195543355369" />
    <ref role="1TJDcQ" to="tpck:gw2VY9q" resolve="BaseConcept" />
    <node concept="1TJgyj" id="7jBjFIivQBs" role="1TKVEi">
      <property role="20lmBu" value="aggregation" />
      <property role="20kJfa" value="child" />
      <property role="20lbJX" value="1" />
      <property role="IQ2ns" value="8423788195543476700" />
      <ref role="20lvS9" node="gwqcHBJ5sR" resolve="MigratingConcept" />
    </node>
  </node>
</model>

