<?xml version="1.0" encoding="UTF-8"?>
<model ref="r:fc3f6abd-cd88-4607-9a48-3f4ec8d0fc65(updatedLanguage.typesystem)">
  <persistence version="9" />
  <languages>
    <devkit ref="00000000-0000-4000-0000-1de82b3a4936(jetbrains.mps.devkit.aspect.typesystem)" />
  </languages>
  <imports />
  <registry />
</model>

