<?xml version="1.0" encoding="UTF-8"?>
<model ref="00000000-0000-4000-5f02-5beb5f025beb/i:fc113c3(checkpoints/jetbrains.mps.lang.quotation.dataFlow@descriptorclasses)">
  <persistence version="9" />
  <attribute name="checkpoint" value="DescriptorClasses" />
  <attribute name="generation-plan" value="AspectCPS" />
  <languages />
  <imports>
    <import index="tp3o" ref="r:00000000-0000-4000-0000-011c89590348(jetbrains.mps.lang.quotation.dataFlow)" />
    <import index="c17a" ref="8865b7a8-5271-43d3-884c-6fd1d9cfdd34/java:org.jetbrains.mps.openapi.language(MPS.OpenAPI/)" />
    <import index="1fjm" ref="6ed54515-acc8-4d1e-a16c-9fd6cfe951ea/java:jetbrains.mps.lang.dataFlow.framework(MPS.Core/)" />
    <import index="33ny" ref="6354ebe7-c22a-4a0f-ac54-50b52ab9b065/java:java.util(JDK/)" />
    <import index="ii9q" ref="r:1dca5eee-6e62-48f8-9e94-dbbe31be2456(jetbrains.mps.lang.quotation.behavior)" />
    <import index="aplb" ref="2af156ab-65c1-4a62-bd0d-ea734f71eab6/r:a1d8bbbf-d4f0-431f-8dcd-a6badc777315(jetbrains.mps.dataFlow.runtime/jetbrains.mps.lang.dataFlow)" />
    <import index="mhfm" ref="3f233e7f-b8a6-46d2-a57f-795d56775243/java:org.jetbrains.annotations(Annotations/)" />
    <import index="tp3r" ref="r:00000000-0000-4000-0000-011c8959034b(jetbrains.mps.lang.quotation.structure)" />
    <import index="wyt6" ref="6354ebe7-c22a-4a0f-ac54-50b52ab9b065/java:java.lang(JDK/)" />
    <import index="tpee" ref="r:00000000-0000-4000-0000-011c895902ca(jetbrains.mps.baseLanguage.structure)" />
  </imports>
  <registry>
    <language id="f3061a53-9226-4cc5-a443-f952ceaf5816" name="jetbrains.mps.baseLanguage">
      <concept id="1202948039474" name="jetbrains.mps.baseLanguage.structure.InstanceMethodCallOperation" flags="nn" index="liA8E" />
      <concept id="1465982738277781862" name="jetbrains.mps.baseLanguage.structure.PlaceholderMember" flags="ng" index="2tJIrI" />
      <concept id="1188207840427" name="jetbrains.mps.baseLanguage.structure.AnnotationInstance" flags="nn" index="2AHcQZ">
        <reference id="1188208074048" name="annotation" index="2AI5Lk" />
      </concept>
      <concept id="1188208481402" name="jetbrains.mps.baseLanguage.structure.HasAnnotation" flags="ng" index="2AJDlI">
        <child id="1188208488637" name="annotation" index="2AJF6D" />
      </concept>
      <concept id="2820489544401957797" name="jetbrains.mps.baseLanguage.structure.DefaultClassCreator" flags="nn" index="HV5vD">
        <reference id="2820489544401957798" name="classifier" index="HV5vE" />
      </concept>
      <concept id="1154032098014" name="jetbrains.mps.baseLanguage.structure.AbstractLoopStatement" flags="nn" index="2LF5Ji">
        <child id="1154032183016" name="body" index="2LFqv$" />
      </concept>
      <concept id="1197027756228" name="jetbrains.mps.baseLanguage.structure.DotExpression" flags="nn" index="2OqwBi">
        <child id="1197027771414" name="operand" index="2Oq$k0" />
        <child id="1197027833540" name="operation" index="2OqNvi" />
      </concept>
      <concept id="1145552977093" name="jetbrains.mps.baseLanguage.structure.GenericNewExpression" flags="nn" index="2ShNRf">
        <child id="1145553007750" name="creator" index="2ShVmc" />
      </concept>
      <concept id="1081236700937" name="jetbrains.mps.baseLanguage.structure.StaticMethodCall" flags="nn" index="2YIFZM">
        <reference id="1144433194310" name="classConcept" index="1Pybhc" />
      </concept>
      <concept id="1070534934090" name="jetbrains.mps.baseLanguage.structure.CastExpression" flags="nn" index="10QFUN">
        <child id="1070534934091" name="type" index="10QFUM" />
        <child id="1070534934092" name="expression" index="10QFUP" />
      </concept>
      <concept id="1068390468198" name="jetbrains.mps.baseLanguage.structure.ClassConcept" flags="ig" index="312cEu">
        <child id="1165602531693" name="superclass" index="1zkMxy" />
      </concept>
      <concept id="1068431474542" name="jetbrains.mps.baseLanguage.structure.VariableDeclaration" flags="ng" index="33uBYm">
        <property id="1176718929932" name="isFinal" index="3TUv4t" />
      </concept>
      <concept id="1068498886296" name="jetbrains.mps.baseLanguage.structure.VariableReference" flags="nn" index="37vLTw">
        <reference id="1068581517664" name="variableDeclaration" index="3cqZAo" />
      </concept>
      <concept id="1068498886292" name="jetbrains.mps.baseLanguage.structure.ParameterDeclaration" flags="ir" index="37vLTG" />
      <concept id="4972933694980447171" name="jetbrains.mps.baseLanguage.structure.BaseVariableDeclaration" flags="ng" index="19Szcq">
        <child id="5680397130376446158" name="type" index="1tU5fm" />
      </concept>
      <concept id="1068580123132" name="jetbrains.mps.baseLanguage.structure.BaseMethodDeclaration" flags="ng" index="3clF44">
        <property id="4276006055363816570" name="isSynchronized" index="od$2w" />
        <property id="1181808852946" name="isFinal" index="DiZV1" />
        <child id="1068580123133" name="returnType" index="3clF45" />
        <child id="1068580123134" name="parameter" index="3clF46" />
        <child id="1068580123135" name="body" index="3clF47" />
      </concept>
      <concept id="1068580123165" name="jetbrains.mps.baseLanguage.structure.InstanceMethodDeclaration" flags="ig" index="3clFb_">
        <property id="1178608670077" name="isAbstract" index="1EzhhJ" />
      </concept>
      <concept id="1068580123155" name="jetbrains.mps.baseLanguage.structure.ExpressionStatement" flags="nn" index="3clFbF">
        <child id="1068580123156" name="expression" index="3clFbG" />
      </concept>
      <concept id="1068580123136" name="jetbrains.mps.baseLanguage.structure.StatementList" flags="sn" stub="5293379017992965193" index="3clFbS">
        <child id="1068581517665" name="statement" index="3cqZAp" />
      </concept>
      <concept id="1068581242878" name="jetbrains.mps.baseLanguage.structure.ReturnStatement" flags="nn" index="3cpWs6">
        <child id="1068581517676" name="expression" index="3cqZAk" />
      </concept>
      <concept id="1068581242863" name="jetbrains.mps.baseLanguage.structure.LocalVariableDeclaration" flags="nr" index="3cpWsn" />
      <concept id="1068581517677" name="jetbrains.mps.baseLanguage.structure.VoidType" flags="in" index="3cqZAl" />
      <concept id="1079359253375" name="jetbrains.mps.baseLanguage.structure.ParenthesizedExpression" flags="nn" index="1eOMI4">
        <child id="1079359253376" name="expression" index="1eOMHV" />
      </concept>
      <concept id="1204053956946" name="jetbrains.mps.baseLanguage.structure.IMethodCall" flags="ng" index="1ndlxa">
        <reference id="1068499141037" name="baseMethodDeclaration" index="37wK5l" />
        <child id="1068499141038" name="actualArgument" index="37wK5m" />
        <child id="4972241301747169160" name="typeArgument" index="3PaCim" />
      </concept>
      <concept id="1107461130800" name="jetbrains.mps.baseLanguage.structure.Classifier" flags="ng" index="3pOWGL">
        <child id="5375687026011219971" name="member" index="jymVt" unordered="true" />
      </concept>
      <concept id="1107535904670" name="jetbrains.mps.baseLanguage.structure.ClassifierType" flags="in" index="3uibUv">
        <reference id="1107535924139" name="classifier" index="3uigEE" />
        <child id="1109201940907" name="parameter" index="11_B2D" />
      </concept>
      <concept id="1178549954367" name="jetbrains.mps.baseLanguage.structure.IVisible" flags="ng" index="1B3ioH">
        <child id="1178549979242" name="visibility" index="1B3o_S" />
      </concept>
      <concept id="1144226303539" name="jetbrains.mps.baseLanguage.structure.ForeachStatement" flags="nn" index="1DcWWT">
        <child id="1144226360166" name="iterable" index="1DdaDG" />
      </concept>
      <concept id="1144230876926" name="jetbrains.mps.baseLanguage.structure.AbstractForStatement" flags="nn" index="1DupvO">
        <child id="1144230900587" name="variable" index="1Duv9x" />
      </concept>
      <concept id="1146644602865" name="jetbrains.mps.baseLanguage.structure.PublicVisibility" flags="nn" index="3Tm1VV" />
    </language>
    <language id="b401a680-8325-4110-8fd3-84331ff25bef" name="jetbrains.mps.lang.generator">
      <concept id="9032177546941580387" name="jetbrains.mps.lang.generator.structure.TrivialNodeId" flags="nn" index="2$VJBW">
        <property id="9032177546941580392" name="nodeId" index="2$VJBR" />
        <child id="8557539026538618631" name="cncpt" index="3iCydw" />
      </concept>
      <concept id="5808518347809715508" name="jetbrains.mps.lang.generator.structure.GeneratorDebug_InputNode" flags="nn" index="385nmt">
        <property id="5808518347809748738" name="presentation" index="385vuF" />
        <child id="5808518347809747118" name="node" index="385v07" />
      </concept>
      <concept id="3864140621129707969" name="jetbrains.mps.lang.generator.structure.GeneratorDebug_Mappings" flags="nn" index="39dXUE">
        <child id="3864140621129713349" name="labels" index="39e2AI" />
      </concept>
      <concept id="3864140621129713351" name="jetbrains.mps.lang.generator.structure.GeneratorDebug_NodeMapEntry" flags="nn" index="39e2AG">
        <property id="5843998055530255671" name="isNewRoot" index="2mV_xN" />
        <reference id="3864140621129713371" name="inputOrigin" index="39e2AK" />
        <child id="5808518347809748862" name="inputNode" index="385vvn" />
        <child id="3864140621129713365" name="outputNode" index="39e2AY" />
      </concept>
      <concept id="3864140621129713348" name="jetbrains.mps.lang.generator.structure.GeneratorDebug_LabelEntry" flags="nn" index="39e2AJ">
        <property id="3864140621129715945" name="label" index="39e3Y2" />
        <child id="3864140621129715947" name="entries" index="39e3Y0" />
      </concept>
      <concept id="3864140621129713362" name="jetbrains.mps.lang.generator.structure.GeneratorDebug_NodeRef" flags="nn" index="39e2AT">
        <reference id="3864140621129713363" name="node" index="39e2AS" />
      </concept>
    </language>
    <language id="df345b11-b8c7-4213-ac66-48d2a9b75d88" name="jetbrains.mps.baseLanguageInternal">
      <concept id="1174294166120" name="jetbrains.mps.baseLanguageInternal.structure.InternalPartialInstanceMethodCall" flags="nn" index="1DoJHT">
        <property id="1174294288199" name="methodName" index="1Dpdpm" />
        <child id="1174313653259" name="returnType" index="1Ez5kq" />
        <child id="1174317636233" name="instance" index="1EMhIo" />
      </concept>
    </language>
    <language id="7866978e-a0f0-4cc7-81bc-4d213d9375e1" name="jetbrains.mps.lang.smodel">
      <concept id="1177026924588" name="jetbrains.mps.lang.smodel.structure.RefConcept_Reference" flags="nn" index="chp4Y">
        <reference id="1177026940964" name="conceptDeclaration" index="cht4Q" />
      </concept>
      <concept id="1138411891628" name="jetbrains.mps.lang.smodel.structure.SNodeOperation" flags="nn" index="eCIE_">
        <child id="1144104376918" name="parameter" index="1xVPHs" />
      </concept>
      <concept id="1179409122411" name="jetbrains.mps.lang.smodel.structure.Node_ConceptMethodCall" flags="nn" index="2qgKlT" />
      <concept id="6911370362349121511" name="jetbrains.mps.lang.smodel.structure.ConceptId" flags="nn" index="2x4n5u">
        <property id="6911370362349122519" name="conceptName" index="2x4mPI" />
        <property id="6911370362349121516" name="conceptId" index="2x4n5l" />
        <property id="6911370362349133804" name="isInterface" index="2x4o5l" />
        <child id="6911370362349121514" name="languageIdentity" index="2x4n5j" />
      </concept>
      <concept id="1171305280644" name="jetbrains.mps.lang.smodel.structure.Node_GetDescendantsOperation" flags="nn" index="2Rf3mk" />
      <concept id="3542851458883438784" name="jetbrains.mps.lang.smodel.structure.LanguageId" flags="nn" index="2V$Bhx">
        <property id="3542851458883439831" name="namespace" index="2V$B1Q" />
        <property id="3542851458883439832" name="languageId" index="2V$B1T" />
      </concept>
      <concept id="6677504323281689838" name="jetbrains.mps.lang.smodel.structure.SConceptType" flags="in" index="3bZ5Sz" />
      <concept id="1154546950173" name="jetbrains.mps.lang.smodel.structure.ConceptReference" flags="ng" index="3gn64h">
        <reference id="1154546997487" name="concept" index="3gnhBz" />
      </concept>
      <concept id="6039268229364358244" name="jetbrains.mps.lang.smodel.structure.ExactConceptCase" flags="ng" index="1pnPoh">
        <child id="6039268229364358388" name="body" index="1pnPq1" />
        <child id="6039268229364358387" name="concept" index="1pnPq6" />
      </concept>
      <concept id="1144101972840" name="jetbrains.mps.lang.smodel.structure.OperationParm_Concept" flags="ng" index="1xMEDy">
        <child id="1207343664468" name="conceptArgument" index="ri$Ld" />
      </concept>
      <concept id="5944356402132808749" name="jetbrains.mps.lang.smodel.structure.ConceptSwitchStatement" flags="nn" index="1_3QMa">
        <child id="6039268229365417680" name="defaultBlock" index="1prKM_" />
        <child id="5944356402132808753" name="case" index="1_3QMm" />
        <child id="5944356402132808752" name="expression" index="1_3QMn" />
      </concept>
      <concept id="1138055754698" name="jetbrains.mps.lang.smodel.structure.SNodeType" flags="in" index="3Tqbb2">
        <reference id="1138405853777" name="concept" index="ehGHo" />
      </concept>
      <concept id="1138056143562" name="jetbrains.mps.lang.smodel.structure.SLinkAccess" flags="nn" index="3TrEf2">
        <reference id="1138056516764" name="link" index="3Tt5mk" />
      </concept>
    </language>
    <language id="ceab5195-25ea-4f22-9b92-103b95ca8c0c" name="jetbrains.mps.lang.core">
      <concept id="1169194658468" name="jetbrains.mps.lang.core.structure.INamedConcept" flags="ng" index="TrEIO">
        <property id="1169194664001" name="name" index="TrG5h" />
      </concept>
    </language>
  </registry>
  <node concept="312cEu" id="0">
    <property role="TrG5h" value="AbstractAntiquotation_DataFlow" />
    <node concept="3Tm1VV" id="1" role="1B3o_S" />
    <node concept="3uibUv" id="2" role="1zkMxy">
      <ref role="3uigEE" to="aplb:3HJD4JbIwf_" resolve="DataFlowBuilder" />
    </node>
    <node concept="3clFb_" id="3" role="jymVt">
      <property role="TrG5h" value="build" />
      <node concept="3Tm1VV" id="4" role="1B3o_S" />
      <node concept="3cqZAl" id="5" role="3clF45" />
      <node concept="37vLTG" id="6" role="3clF46">
        <property role="TrG5h" value="_context" />
        <property role="3TUv4t" value="true" />
        <node concept="3uibUv" id="8" role="1tU5fm">
          <ref role="3uigEE" to="aplb:3HJD4JbIvKw" resolve="DataFlowBuilderContext" />
        </node>
      </node>
      <node concept="3clFbS" id="7" role="3clF47">
        <node concept="3clFbF" id="9" role="3cqZAp">
          <node concept="2OqwBi" id="a" role="3clFbG">
            <node concept="2OqwBi" id="b" role="2Oq$k0">
              <node concept="37vLTw" id="d" role="2Oq$k0">
                <ref role="3cqZAo" node="6" resolve="_context" />
              </node>
              <node concept="liA8E" id="e" role="2OqNvi">
                <ref role="37wK5l" to="aplb:3HJD4JbIvKV" resolve="getBuilder" />
              </node>
            </node>
            <node concept="liA8E" id="c" role="2OqNvi">
              <ref role="37wK5l" to="1fjm:~StructuralProgramBuilder.build(java.lang.Object):void" resolve="build" />
              <node concept="10QFUN" id="f" role="37wK5m">
                <node concept="2OqwBi" id="g" role="10QFUP">
                  <node concept="1DoJHT" id="i" role="2Oq$k0">
                    <property role="1Dpdpm" value="getNode" />
                    <node concept="3uibUv" id="k" role="1Ez5kq">
                      <ref role="3uigEE" to="wyt6:~Object" resolve="Object" />
                    </node>
                    <node concept="37vLTw" id="l" role="1EMhIo">
                      <ref role="3cqZAo" node="6" resolve="_context" />
                    </node>
                  </node>
                  <node concept="3TrEf2" id="j" role="2OqNvi">
                    <ref role="3Tt5mk" to="tp3r:hqc44pn" resolve="expression" />
                  </node>
                </node>
                <node concept="3Tqbb2" id="h" role="10QFUM" />
              </node>
            </node>
          </node>
        </node>
      </node>
    </node>
  </node>
  <node concept="312cEu" id="m">
    <property role="TrG5h" value="DataFlowAspectDescriptorImpl" />
    <node concept="2tJIrI" id="n" role="jymVt" />
    <node concept="3clFb_" id="o" role="jymVt">
      <property role="1EzhhJ" value="false" />
      <property role="TrG5h" value="getDataFlowBuilders" />
      <property role="DiZV1" value="false" />
      <property role="od$2w" value="false" />
      <node concept="3Tm1VV" id="r" role="1B3o_S" />
      <node concept="2AHcQZ" id="s" role="2AJF6D">
        <ref role="2AI5Lk" to="mhfm:~NotNull" resolve="NotNull" />
      </node>
      <node concept="3uibUv" id="t" role="3clF45">
        <ref role="3uigEE" to="33ny:~Collection" resolve="Collection" />
        <node concept="3uibUv" id="x" role="11_B2D">
          <ref role="3uigEE" to="1fjm:~IDataFlowBuilder" resolve="IDataFlowBuilder" />
        </node>
      </node>
      <node concept="37vLTG" id="u" role="3clF46">
        <property role="TrG5h" value="concept" />
        <node concept="3uibUv" id="y" role="1tU5fm">
          <ref role="3uigEE" to="c17a:~SAbstractConcept" resolve="SAbstractConcept" />
        </node>
      </node>
      <node concept="3clFbS" id="v" role="3clF47">
        <node concept="1_3QMa" id="z" role="3cqZAp">
          <node concept="1eOMI4" id="_" role="1_3QMn">
            <node concept="10QFUN" id="E" role="1eOMHV">
              <node concept="37vLTw" id="F" role="10QFUP">
                <ref role="3cqZAo" node="u" resolve="concept" />
              </node>
              <node concept="3bZ5Sz" id="G" role="10QFUM" />
            </node>
          </node>
          <node concept="1pnPoh" id="A" role="1_3QMm">
            <node concept="3clFbS" id="H" role="1pnPq1">
              <node concept="3cpWs6" id="J" role="3cqZAp">
                <node concept="2YIFZM" id="K" role="3cqZAk">
                  <ref role="37wK5l" to="33ny:~Collections.singletonList(java.lang.Object):java.util.List" resolve="singletonList" />
                  <ref role="1Pybhc" to="33ny:~Collections" resolve="Collections" />
                  <node concept="2ShNRf" id="L" role="37wK5m">
                    <node concept="HV5vD" id="N" role="2ShVmc">
                      <ref role="HV5vE" node="0" resolve="AbstractAntiquotation_DataFlow" />
                    </node>
                  </node>
                  <node concept="3uibUv" id="M" role="3PaCim">
                    <ref role="3uigEE" to="1fjm:~IDataFlowBuilder" resolve="IDataFlowBuilder" />
                  </node>
                </node>
              </node>
            </node>
            <node concept="3gn64h" id="I" role="1pnPq6">
              <ref role="3gnhBz" to="tp3r:hqc44pm" resolve="AbstractAntiquotation" />
            </node>
          </node>
          <node concept="1pnPoh" id="B" role="1_3QMm">
            <node concept="3clFbS" id="O" role="1pnPq1">
              <node concept="3cpWs6" id="Q" role="3cqZAp">
                <node concept="2YIFZM" id="R" role="3cqZAk">
                  <ref role="37wK5l" to="33ny:~Collections.singletonList(java.lang.Object):java.util.List" resolve="singletonList" />
                  <ref role="1Pybhc" to="33ny:~Collections" resolve="Collections" />
                  <node concept="2ShNRf" id="S" role="37wK5m">
                    <node concept="HV5vD" id="U" role="2ShVmc">
                      <ref role="HV5vE" node="1r" resolve="NodeBuilder_DataFlow" />
                    </node>
                  </node>
                  <node concept="3uibUv" id="T" role="3PaCim">
                    <ref role="3uigEE" to="1fjm:~IDataFlowBuilder" resolve="IDataFlowBuilder" />
                  </node>
                </node>
              </node>
            </node>
            <node concept="3gn64h" id="P" role="1pnPq6">
              <ref role="3gnhBz" to="tp3r:4IP40Bi2$Et" resolve="NodeBuilder" />
            </node>
          </node>
          <node concept="1pnPoh" id="C" role="1_3QMm">
            <node concept="3clFbS" id="V" role="1pnPq1">
              <node concept="3cpWs6" id="X" role="3cqZAp">
                <node concept="2YIFZM" id="Y" role="3cqZAk">
                  <ref role="37wK5l" to="33ny:~Collections.singletonList(java.lang.Object):java.util.List" resolve="singletonList" />
                  <ref role="1Pybhc" to="33ny:~Collections" resolve="Collections" />
                  <node concept="2ShNRf" id="Z" role="37wK5m">
                    <node concept="HV5vD" id="11" role="2ShVmc">
                      <ref role="HV5vE" node="1S" resolve="Quotation_DataFlow" />
                    </node>
                  </node>
                  <node concept="3uibUv" id="10" role="3PaCim">
                    <ref role="3uigEE" to="1fjm:~IDataFlowBuilder" resolve="IDataFlowBuilder" />
                  </node>
                </node>
              </node>
            </node>
            <node concept="3gn64h" id="W" role="1pnPq6">
              <ref role="3gnhBz" to="tp3r:hqc44pp" resolve="Quotation" />
            </node>
          </node>
          <node concept="3clFbS" id="D" role="1prKM_" />
        </node>
        <node concept="3cpWs6" id="$" role="3cqZAp">
          <node concept="2YIFZM" id="12" role="3cqZAk">
            <ref role="37wK5l" to="33ny:~Collections.emptyList():java.util.List" resolve="emptyList" />
            <ref role="1Pybhc" to="33ny:~Collections" resolve="Collections" />
            <node concept="3uibUv" id="13" role="3PaCim">
              <ref role="3uigEE" to="1fjm:~IDataFlowBuilder" resolve="IDataFlowBuilder" />
            </node>
          </node>
        </node>
      </node>
      <node concept="2AHcQZ" id="w" role="2AJF6D">
        <ref role="2AI5Lk" to="wyt6:~Override" resolve="Override" />
      </node>
    </node>
    <node concept="3Tm1VV" id="p" role="1B3o_S" />
    <node concept="3uibUv" id="q" role="1zkMxy">
      <ref role="3uigEE" to="1fjm:~DataFlowAspectDescriptorBase" resolve="DataFlowAspectDescriptorBase" />
    </node>
  </node>
  <node concept="39dXUE" id="14">
    <node concept="39e2AJ" id="15" role="39e2AI">
      <property role="39e3Y2" value="dataFlowBuilderClass" />
      <node concept="39e2AG" id="17" role="39e3Y0">
        <ref role="39e2AK" to="tp3o:h$ll6KU" resolve="AbstractAntiquotation_DataFlow" />
        <node concept="385nmt" id="1a" role="385vvn">
          <property role="385vuF" value="AbstractAntiquotation_DataFlow" />
          <node concept="2$VJBW" id="1c" role="385v07">
            <property role="2$VJBR" value="1207243664442" />
            <node concept="2x4n5u" id="1d" role="3iCydw">
              <property role="2x4mPI" value="DataFlowBuilderDeclaration" />
              <property role="2x4o5l" value="false" />
              <property role="2x4n5l" value="fe8cg7jp" />
              <node concept="2V$Bhx" id="1e" role="2x4n5j">
                <property role="2V$B1T" value="7fa12e9c-b949-4976-b4fa-19accbc320b4" />
                <property role="2V$B1Q" value="jetbrains.mps.lang.dataFlow" />
              </node>
            </node>
          </node>
        </node>
        <node concept="39e2AT" id="1b" role="39e2AY">
          <ref role="39e2AS" node="0" resolve="AbstractAntiquotation_DataFlow" />
        </node>
      </node>
      <node concept="39e2AG" id="18" role="39e3Y0">
        <ref role="39e2AK" to="tp3o:RRzwLnBtks" resolve="NodeBuilder_DataFlow" />
        <node concept="385nmt" id="1f" role="385vvn">
          <property role="385vuF" value="NodeBuilder_DataFlow" />
          <node concept="2$VJBW" id="1h" role="385v07">
            <property role="2$VJBR" value="1006429225401308444" />
            <node concept="2x4n5u" id="1i" role="3iCydw">
              <property role="2x4mPI" value="DataFlowBuilderDeclaration" />
              <property role="2x4o5l" value="false" />
              <property role="2x4n5l" value="fe8cg7jp" />
              <node concept="2V$Bhx" id="1j" role="2x4n5j">
                <property role="2V$B1T" value="7fa12e9c-b949-4976-b4fa-19accbc320b4" />
                <property role="2V$B1Q" value="jetbrains.mps.lang.dataFlow" />
              </node>
            </node>
          </node>
        </node>
        <node concept="39e2AT" id="1g" role="39e2AY">
          <ref role="39e2AS" node="1r" resolve="NodeBuilder_DataFlow" />
        </node>
      </node>
      <node concept="39e2AG" id="19" role="39e3Y0">
        <ref role="39e2AK" to="tp3o:h$llxbv" resolve="Quotation_DataFlow" />
        <node concept="385nmt" id="1k" role="385vvn">
          <property role="385vuF" value="Quotation_DataFlow" />
          <node concept="2$VJBW" id="1m" role="385v07">
            <property role="2$VJBR" value="1207243772639" />
            <node concept="2x4n5u" id="1n" role="3iCydw">
              <property role="2x4mPI" value="DataFlowBuilderDeclaration" />
              <property role="2x4o5l" value="false" />
              <property role="2x4n5l" value="fe8cg7jp" />
              <node concept="2V$Bhx" id="1o" role="2x4n5j">
                <property role="2V$B1T" value="7fa12e9c-b949-4976-b4fa-19accbc320b4" />
                <property role="2V$B1Q" value="jetbrains.mps.lang.dataFlow" />
              </node>
            </node>
          </node>
        </node>
        <node concept="39e2AT" id="1l" role="39e2AY">
          <ref role="39e2AS" node="1S" resolve="Quotation_DataFlow" />
        </node>
      </node>
    </node>
    <node concept="39e2AJ" id="16" role="39e2AI">
      <property role="39e3Y2" value="aspectDescriptorClass" />
      <node concept="39e2AG" id="1p" role="39e3Y0">
        <property role="2mV_xN" value="true" />
        <node concept="39e2AT" id="1q" role="39e2AY">
          <ref role="39e2AS" node="m" resolve="DataFlowAspectDescriptorImpl" />
        </node>
      </node>
    </node>
  </node>
  <node concept="312cEu" id="1r">
    <property role="TrG5h" value="NodeBuilder_DataFlow" />
    <node concept="3Tm1VV" id="1s" role="1B3o_S" />
    <node concept="3uibUv" id="1t" role="1zkMxy">
      <ref role="3uigEE" to="aplb:3HJD4JbIwf_" resolve="DataFlowBuilder" />
    </node>
    <node concept="3clFb_" id="1u" role="jymVt">
      <property role="TrG5h" value="build" />
      <node concept="3Tm1VV" id="1v" role="1B3o_S" />
      <node concept="3cqZAl" id="1w" role="3clF45" />
      <node concept="37vLTG" id="1x" role="3clF46">
        <property role="TrG5h" value="_context" />
        <property role="3TUv4t" value="true" />
        <node concept="3uibUv" id="1z" role="1tU5fm">
          <ref role="3uigEE" to="aplb:3HJD4JbIvKw" resolve="DataFlowBuilderContext" />
        </node>
      </node>
      <node concept="3clFbS" id="1y" role="3clF47">
        <node concept="1DcWWT" id="1$" role="3cqZAp">
          <node concept="2OqwBi" id="1_" role="1DdaDG">
            <node concept="2OqwBi" id="1C" role="2Oq$k0">
              <node concept="1DoJHT" id="1E" role="2Oq$k0">
                <property role="1Dpdpm" value="getNode" />
                <node concept="3uibUv" id="1G" role="1Ez5kq">
                  <ref role="3uigEE" to="wyt6:~Object" resolve="Object" />
                </node>
                <node concept="37vLTw" id="1H" role="1EMhIo">
                  <ref role="3cqZAo" node="1x" resolve="_context" />
                </node>
              </node>
              <node concept="3TrEf2" id="1F" role="2OqNvi">
                <ref role="3Tt5mk" to="tp3r:4IP40Bi2$Eu" resolve="quotedNode" />
              </node>
            </node>
            <node concept="2qgKlT" id="1D" role="2OqNvi">
              <ref role="37wK5l" to="ii9q:RRzwLnBxZy" resolve="getExternalExpressions" />
            </node>
          </node>
          <node concept="3cpWsn" id="1A" role="1Duv9x">
            <property role="TrG5h" value="expr" />
            <node concept="3Tqbb2" id="1I" role="1tU5fm">
              <ref role="ehGHo" to="tpee:fz3vP1J" resolve="Expression" />
            </node>
          </node>
          <node concept="3clFbS" id="1B" role="2LFqv$">
            <node concept="3clFbF" id="1J" role="3cqZAp">
              <node concept="2OqwBi" id="1K" role="3clFbG">
                <node concept="2OqwBi" id="1L" role="2Oq$k0">
                  <node concept="37vLTw" id="1N" role="2Oq$k0">
                    <ref role="3cqZAo" node="1x" resolve="_context" />
                  </node>
                  <node concept="liA8E" id="1O" role="2OqNvi">
                    <ref role="37wK5l" to="aplb:3HJD4JbIvKV" resolve="getBuilder" />
                  </node>
                </node>
                <node concept="liA8E" id="1M" role="2OqNvi">
                  <ref role="37wK5l" to="1fjm:~StructuralProgramBuilder.build(java.lang.Object):void" resolve="build" />
                  <node concept="10QFUN" id="1P" role="37wK5m">
                    <node concept="37vLTw" id="1Q" role="10QFUP">
                      <ref role="3cqZAo" node="1A" resolve="expr" />
                    </node>
                    <node concept="3Tqbb2" id="1R" role="10QFUM" />
                  </node>
                </node>
              </node>
            </node>
          </node>
        </node>
      </node>
    </node>
  </node>
  <node concept="312cEu" id="1S">
    <property role="TrG5h" value="Quotation_DataFlow" />
    <node concept="3Tm1VV" id="1T" role="1B3o_S" />
    <node concept="3uibUv" id="1U" role="1zkMxy">
      <ref role="3uigEE" to="aplb:3HJD4JbIwf_" resolve="DataFlowBuilder" />
    </node>
    <node concept="3clFb_" id="1V" role="jymVt">
      <property role="TrG5h" value="build" />
      <node concept="3Tm1VV" id="1W" role="1B3o_S" />
      <node concept="3cqZAl" id="1X" role="3clF45" />
      <node concept="37vLTG" id="1Y" role="3clF46">
        <property role="TrG5h" value="_context" />
        <property role="3TUv4t" value="true" />
        <node concept="3uibUv" id="20" role="1tU5fm">
          <ref role="3uigEE" to="aplb:3HJD4JbIvKw" resolve="DataFlowBuilderContext" />
        </node>
      </node>
      <node concept="3clFbS" id="1Z" role="3clF47">
        <node concept="1DcWWT" id="21" role="3cqZAp">
          <node concept="2OqwBi" id="24" role="1DdaDG">
            <node concept="1DoJHT" id="27" role="2Oq$k0">
              <property role="1Dpdpm" value="getNode" />
              <node concept="3uibUv" id="29" role="1Ez5kq">
                <ref role="3uigEE" to="wyt6:~Object" resolve="Object" />
              </node>
              <node concept="37vLTw" id="2a" role="1EMhIo">
                <ref role="3cqZAo" node="1Y" resolve="_context" />
              </node>
            </node>
            <node concept="2Rf3mk" id="28" role="2OqNvi">
              <node concept="1xMEDy" id="2b" role="1xVPHs">
                <node concept="chp4Y" id="2c" role="ri$Ld">
                  <ref role="cht4Q" to="tp3r:hqc44pm" resolve="AbstractAntiquotation" />
                </node>
              </node>
            </node>
          </node>
          <node concept="3cpWsn" id="25" role="1Duv9x">
            <property role="TrG5h" value="antiquotation" />
            <node concept="3Tqbb2" id="2d" role="1tU5fm" />
          </node>
          <node concept="3clFbS" id="26" role="2LFqv$">
            <node concept="3clFbF" id="2e" role="3cqZAp">
              <node concept="2OqwBi" id="2f" role="3clFbG">
                <node concept="2OqwBi" id="2g" role="2Oq$k0">
                  <node concept="37vLTw" id="2i" role="2Oq$k0">
                    <ref role="3cqZAo" node="1Y" resolve="_context" />
                  </node>
                  <node concept="liA8E" id="2j" role="2OqNvi">
                    <ref role="37wK5l" to="aplb:3HJD4JbIvKV" resolve="getBuilder" />
                  </node>
                </node>
                <node concept="liA8E" id="2h" role="2OqNvi">
                  <ref role="37wK5l" to="1fjm:~StructuralProgramBuilder.build(java.lang.Object):void" resolve="build" />
                  <node concept="10QFUN" id="2k" role="37wK5m">
                    <node concept="37vLTw" id="2l" role="10QFUP">
                      <ref role="3cqZAo" node="25" resolve="antiquotation" />
                    </node>
                    <node concept="3Tqbb2" id="2m" role="10QFUM" />
                  </node>
                </node>
              </node>
            </node>
          </node>
        </node>
        <node concept="3clFbF" id="22" role="3cqZAp">
          <node concept="2OqwBi" id="2n" role="3clFbG">
            <node concept="2OqwBi" id="2o" role="2Oq$k0">
              <node concept="37vLTw" id="2q" role="2Oq$k0">
                <ref role="3cqZAo" node="1Y" resolve="_context" />
              </node>
              <node concept="liA8E" id="2r" role="2OqNvi">
                <ref role="37wK5l" to="aplb:3HJD4JbIvKV" resolve="getBuilder" />
              </node>
            </node>
            <node concept="liA8E" id="2p" role="2OqNvi">
              <ref role="37wK5l" to="1fjm:~StructuralProgramBuilder.build(java.lang.Object):void" resolve="build" />
              <node concept="10QFUN" id="2s" role="37wK5m">
                <node concept="2OqwBi" id="2t" role="10QFUP">
                  <node concept="3TrEf2" id="2v" role="2OqNvi">
                    <ref role="3Tt5mk" to="tp3r:hqc44pr" resolve="modelToCreate" />
                  </node>
                  <node concept="1DoJHT" id="2w" role="2Oq$k0">
                    <property role="1Dpdpm" value="getNode" />
                    <node concept="3uibUv" id="2x" role="1Ez5kq">
                      <ref role="3uigEE" to="wyt6:~Object" resolve="Object" />
                    </node>
                    <node concept="37vLTw" id="2y" role="1EMhIo">
                      <ref role="3cqZAo" node="1Y" resolve="_context" />
                    </node>
                  </node>
                </node>
                <node concept="3Tqbb2" id="2u" role="10QFUM" />
              </node>
            </node>
          </node>
        </node>
        <node concept="3clFbF" id="23" role="3cqZAp">
          <node concept="2OqwBi" id="2z" role="3clFbG">
            <node concept="2OqwBi" id="2$" role="2Oq$k0">
              <node concept="37vLTw" id="2A" role="2Oq$k0">
                <ref role="3cqZAo" node="1Y" resolve="_context" />
              </node>
              <node concept="liA8E" id="2B" role="2OqNvi">
                <ref role="37wK5l" to="aplb:3HJD4JbIvKV" resolve="getBuilder" />
              </node>
            </node>
            <node concept="liA8E" id="2_" role="2OqNvi">
              <ref role="37wK5l" to="1fjm:~StructuralProgramBuilder.build(java.lang.Object):void" resolve="build" />
              <node concept="10QFUN" id="2C" role="37wK5m">
                <node concept="2OqwBi" id="2D" role="10QFUP">
                  <node concept="3TrEf2" id="2F" role="2OqNvi">
                    <ref role="3Tt5mk" to="tp3r:2KyHUfrw9K5" resolve="nodeId" />
                  </node>
                  <node concept="1DoJHT" id="2G" role="2Oq$k0">
                    <property role="1Dpdpm" value="getNode" />
                    <node concept="3uibUv" id="2H" role="1Ez5kq">
                      <ref role="3uigEE" to="wyt6:~Object" resolve="Object" />
                    </node>
                    <node concept="37vLTw" id="2I" role="1EMhIo">
                      <ref role="3cqZAo" node="1Y" resolve="_context" />
                    </node>
                  </node>
                </node>
                <node concept="3Tqbb2" id="2E" role="10QFUM" />
              </node>
            </node>
          </node>
        </node>
      </node>
    </node>
  </node>
</model>

