<?xml version="1.0" encoding="UTF-8"?>
<model ref="00000000-0000-4000-5f02-5beb5f025beb/i:fe6ff4a(checkpoints/jetbrains.mps.lang.quotation.dataFlow@beforebaselang)">
  <persistence version="9" />
  <attribute name="checkpoint" value="BeforeBaseLang" />
  <attribute name="prev-generation-plan" value="AspectCPS" />
  <attribute name="prev-checkpoint" value="DescriptorClasses" />
  <attribute name="generation-plan" value="AspectCPS" />
  <languages />
  <imports>
    <import index="tp3o" ref="r:00000000-0000-4000-0000-011c89590348(jetbrains.mps.lang.quotation.dataFlow)" />
    <import index="ksn4" ref="6ed54515-acc8-4d1e-a16c-9fd6cfe951ea/java:jetbrains.mps.lang.smodel(MPS.Core/)" />
    <import index="c17a" ref="8865b7a8-5271-43d3-884c-6fd1d9cfdd34/java:org.jetbrains.mps.openapi.language(MPS.OpenAPI/)" />
    <import index="i8bi" ref="r:c3548bac-30eb-4a2a-937c-0111d5697309(jetbrains.mps.lang.smodel.generator.smodelAdapter)" />
    <import index="1fjm" ref="6ed54515-acc8-4d1e-a16c-9fd6cfe951ea/java:jetbrains.mps.lang.dataFlow.framework(MPS.Core/)" />
    <import index="2k9e" ref="6ed54515-acc8-4d1e-a16c-9fd6cfe951ea/java:jetbrains.mps.smodel.adapter.structure(MPS.Core/)" />
    <import index="e8bb" ref="6ed54515-acc8-4d1e-a16c-9fd6cfe951ea/java:jetbrains.mps.smodel.adapter.ids(MPS.Core/)" />
    <import index="9r19" ref="d936855b-48da-4812-a8a0-2bfddd633ac5/java:jetbrains.mps.core.aspects.behaviour.api(jetbrains.mps.lang.behavior.api/)" />
    <import index="33ny" ref="6354ebe7-c22a-4a0f-ac54-50b52ab9b065/java:java.util(JDK/)" />
    <import index="mhbf" ref="8865b7a8-5271-43d3-884c-6fd1d9cfdd34/java:org.jetbrains.mps.openapi.model(MPS.OpenAPI/)" />
    <import index="mhfm" ref="3f233e7f-b8a6-46d2-a57f-795d56775243/java:org.jetbrains.annotations(Annotations/)" />
    <import index="aplb" ref="2af156ab-65c1-4a62-bd0d-ea734f71eab6/r:a1d8bbbf-d4f0-431f-8dcd-a6badc777315(jetbrains.mps.dataFlow.runtime/jetbrains.mps.lang.dataFlow)" />
    <import index="wyt6" ref="6354ebe7-c22a-4a0f-ac54-50b52ab9b065/java:java.lang(JDK/)" />
  </imports>
  <registry>
    <language id="f3061a53-9226-4cc5-a443-f952ceaf5816" name="jetbrains.mps.baseLanguage">
      <concept id="1202948039474" name="jetbrains.mps.baseLanguage.structure.InstanceMethodCallOperation" flags="nn" index="liA8E" />
      <concept id="1465982738277781862" name="jetbrains.mps.baseLanguage.structure.PlaceholderMember" flags="ng" index="2tJIrI" />
      <concept id="1188207840427" name="jetbrains.mps.baseLanguage.structure.AnnotationInstance" flags="nn" index="2AHcQZ">
        <reference id="1188208074048" name="annotation" index="2AI5Lk" />
      </concept>
      <concept id="1188208481402" name="jetbrains.mps.baseLanguage.structure.HasAnnotation" flags="ng" index="2AJDlI">
        <child id="1188208488637" name="annotation" index="2AJF6D" />
      </concept>
      <concept id="2820489544401957797" name="jetbrains.mps.baseLanguage.structure.DefaultClassCreator" flags="nn" index="HV5vD">
        <reference id="2820489544401957798" name="classifier" index="HV5vE" />
      </concept>
      <concept id="1154032098014" name="jetbrains.mps.baseLanguage.structure.AbstractLoopStatement" flags="nn" index="2LF5Ji">
        <child id="1154032183016" name="body" index="2LFqv$" />
      </concept>
      <concept id="1197027756228" name="jetbrains.mps.baseLanguage.structure.DotExpression" flags="nn" index="2OqwBi">
        <child id="1197027771414" name="operand" index="2Oq$k0" />
        <child id="1197027833540" name="operation" index="2OqNvi" />
      </concept>
      <concept id="1145552977093" name="jetbrains.mps.baseLanguage.structure.GenericNewExpression" flags="nn" index="2ShNRf">
        <child id="1145553007750" name="creator" index="2ShVmc" />
      </concept>
      <concept id="1070462154015" name="jetbrains.mps.baseLanguage.structure.StaticFieldDeclaration" flags="ig" index="Wx3nA">
        <property id="6468716278899126575" name="isVolatile" index="2dlcS1" />
        <property id="6468716278899125786" name="isTransient" index="2dld4O" />
      </concept>
      <concept id="1070475926800" name="jetbrains.mps.baseLanguage.structure.StringLiteral" flags="nn" index="Xl_RD">
        <property id="1070475926801" name="value" index="Xl_RC" />
      </concept>
      <concept id="1081236700937" name="jetbrains.mps.baseLanguage.structure.StaticMethodCall" flags="nn" index="2YIFZM">
        <reference id="1144433194310" name="classConcept" index="1Pybhc" />
      </concept>
      <concept id="1070534934090" name="jetbrains.mps.baseLanguage.structure.CastExpression" flags="nn" index="10QFUN">
        <child id="1070534934091" name="type" index="10QFUM" />
        <child id="1070534934092" name="expression" index="10QFUP" />
      </concept>
      <concept id="1068390468198" name="jetbrains.mps.baseLanguage.structure.ClassConcept" flags="ig" index="312cEu">
        <child id="1165602531693" name="superclass" index="1zkMxy" />
      </concept>
      <concept id="1068431474542" name="jetbrains.mps.baseLanguage.structure.VariableDeclaration" flags="ng" index="33uBYm">
        <property id="1176718929932" name="isFinal" index="3TUv4t" />
        <child id="1068431790190" name="initializer" index="33vP2m" />
      </concept>
      <concept id="1068498886296" name="jetbrains.mps.baseLanguage.structure.VariableReference" flags="nn" index="37vLTw">
        <reference id="1068581517664" name="variableDeclaration" index="3cqZAo" />
      </concept>
      <concept id="1068498886292" name="jetbrains.mps.baseLanguage.structure.ParameterDeclaration" flags="ir" index="37vLTG" />
      <concept id="4972933694980447171" name="jetbrains.mps.baseLanguage.structure.BaseVariableDeclaration" flags="ng" index="19Szcq">
        <child id="5680397130376446158" name="type" index="1tU5fm" />
      </concept>
      <concept id="4269842503726207156" name="jetbrains.mps.baseLanguage.structure.LongLiteral" flags="nn" index="1adDum">
        <property id="4269842503726207157" name="value" index="1adDun" />
      </concept>
      <concept id="1068580123132" name="jetbrains.mps.baseLanguage.structure.BaseMethodDeclaration" flags="ng" index="3clF44">
        <property id="4276006055363816570" name="isSynchronized" index="od$2w" />
        <property id="1181808852946" name="isFinal" index="DiZV1" />
        <child id="1068580123133" name="returnType" index="3clF45" />
        <child id="1068580123134" name="parameter" index="3clF46" />
        <child id="1068580123135" name="body" index="3clF47" />
      </concept>
      <concept id="1068580123165" name="jetbrains.mps.baseLanguage.structure.InstanceMethodDeclaration" flags="ig" index="3clFb_">
        <property id="1178608670077" name="isAbstract" index="1EzhhJ" />
      </concept>
      <concept id="1068580123155" name="jetbrains.mps.baseLanguage.structure.ExpressionStatement" flags="nn" index="3clFbF">
        <child id="1068580123156" name="expression" index="3clFbG" />
      </concept>
      <concept id="1068580123136" name="jetbrains.mps.baseLanguage.structure.StatementList" flags="sn" stub="5293379017992965193" index="3clFbS">
        <child id="1068581517665" name="statement" index="3cqZAp" />
      </concept>
      <concept id="1068580123137" name="jetbrains.mps.baseLanguage.structure.BooleanConstant" flags="nn" index="3clFbT">
        <property id="1068580123138" name="value" index="3clFbU" />
      </concept>
      <concept id="1068580320020" name="jetbrains.mps.baseLanguage.structure.IntegerConstant" flags="nn" index="3cmrfG">
        <property id="1068580320021" name="value" index="3cmrfH" />
      </concept>
      <concept id="1068581242878" name="jetbrains.mps.baseLanguage.structure.ReturnStatement" flags="nn" index="3cpWs6">
        <child id="1068581517676" name="expression" index="3cqZAk" />
      </concept>
      <concept id="1068581242864" name="jetbrains.mps.baseLanguage.structure.LocalVariableDeclarationStatement" flags="nn" index="3cpWs8">
        <child id="1068581242865" name="localVariableDeclaration" index="3cpWs9" />
      </concept>
      <concept id="1068581242863" name="jetbrains.mps.baseLanguage.structure.LocalVariableDeclaration" flags="nr" index="3cpWsn" />
      <concept id="1068581517677" name="jetbrains.mps.baseLanguage.structure.VoidType" flags="in" index="3cqZAl" />
      <concept id="1079359253375" name="jetbrains.mps.baseLanguage.structure.ParenthesizedExpression" flags="nn" index="1eOMI4">
        <child id="1079359253376" name="expression" index="1eOMHV" />
      </concept>
      <concept id="1154542696413" name="jetbrains.mps.baseLanguage.structure.ArrayCreatorWithInitializer" flags="nn" index="3g6Rrh">
        <child id="1154542793668" name="componentType" index="3g7fb8" />
      </concept>
      <concept id="1204053956946" name="jetbrains.mps.baseLanguage.structure.IMethodCall" flags="ng" index="1ndlxa">
        <reference id="1068499141037" name="baseMethodDeclaration" index="37wK5l" />
        <child id="1068499141038" name="actualArgument" index="37wK5m" />
        <child id="4972241301747169160" name="typeArgument" index="3PaCim" />
      </concept>
      <concept id="1212685548494" name="jetbrains.mps.baseLanguage.structure.ClassCreator" flags="nn" index="1pGfFk" />
      <concept id="1107461130800" name="jetbrains.mps.baseLanguage.structure.Classifier" flags="ng" index="3pOWGL">
        <child id="5375687026011219971" name="member" index="jymVt" unordered="true" />
      </concept>
      <concept id="1107535904670" name="jetbrains.mps.baseLanguage.structure.ClassifierType" flags="in" index="3uibUv">
        <reference id="1107535924139" name="classifier" index="3uigEE" />
        <child id="1109201940907" name="parameter" index="11_B2D" />
      </concept>
      <concept id="1178549954367" name="jetbrains.mps.baseLanguage.structure.IVisible" flags="ng" index="1B3ioH">
        <child id="1178549979242" name="visibility" index="1B3o_S" />
      </concept>
      <concept id="1144226303539" name="jetbrains.mps.baseLanguage.structure.ForeachStatement" flags="nn" index="1DcWWT">
        <child id="1144226360166" name="iterable" index="1DdaDG" />
      </concept>
      <concept id="1144230876926" name="jetbrains.mps.baseLanguage.structure.AbstractForStatement" flags="nn" index="1DupvO">
        <child id="1144230900587" name="variable" index="1Duv9x" />
      </concept>
      <concept id="1163670490218" name="jetbrains.mps.baseLanguage.structure.SwitchStatement" flags="nn" index="3KaCP$">
        <child id="1163670592366" name="defaultBlock" index="3Kb1Dw" />
        <child id="1163670766145" name="expression" index="3KbGdf" />
        <child id="1163670772911" name="case" index="3KbHQx" />
      </concept>
      <concept id="1163670641947" name="jetbrains.mps.baseLanguage.structure.SwitchCase" flags="ng" index="3KbdKl">
        <child id="1163670677455" name="expression" index="3Kbmr1" />
        <child id="1163670683720" name="body" index="3Kbo56" />
      </concept>
      <concept id="1146644602865" name="jetbrains.mps.baseLanguage.structure.PublicVisibility" flags="nn" index="3Tm1VV" />
      <concept id="1146644623116" name="jetbrains.mps.baseLanguage.structure.PrivateVisibility" flags="nn" index="3Tm6S6" />
    </language>
    <language id="b401a680-8325-4110-8fd3-84331ff25bef" name="jetbrains.mps.lang.generator">
      <concept id="9032177546941580387" name="jetbrains.mps.lang.generator.structure.TrivialNodeId" flags="nn" index="2$VJBW">
        <property id="9032177546941580392" name="nodeId" index="2$VJBR" />
        <child id="8557539026538618631" name="cncpt" index="3iCydw" />
      </concept>
      <concept id="5808518347809715508" name="jetbrains.mps.lang.generator.structure.GeneratorDebug_InputNode" flags="nn" index="385nmt">
        <property id="5808518347809748738" name="presentation" index="385vuF" />
        <child id="5808518347809747118" name="node" index="385v07" />
      </concept>
      <concept id="3864140621129707969" name="jetbrains.mps.lang.generator.structure.GeneratorDebug_Mappings" flags="nn" index="39dXUE">
        <child id="3864140621129713349" name="labels" index="39e2AI" />
      </concept>
      <concept id="3864140621129713351" name="jetbrains.mps.lang.generator.structure.GeneratorDebug_NodeMapEntry" flags="nn" index="39e2AG">
        <child id="5808518347809748862" name="inputNode" index="385vvn" />
        <child id="3864140621129713365" name="outputNode" index="39e2AY" />
      </concept>
      <concept id="3864140621129713348" name="jetbrains.mps.lang.generator.structure.GeneratorDebug_LabelEntry" flags="nn" index="39e2AJ">
        <property id="3864140621129715945" name="label" index="39e3Y2" />
        <child id="3864140621129715947" name="entries" index="39e3Y0" />
      </concept>
      <concept id="3864140621129713362" name="jetbrains.mps.lang.generator.structure.GeneratorDebug_NodeRef" flags="nn" index="39e2AT">
        <reference id="3864140621129713363" name="node" index="39e2AS" />
      </concept>
    </language>
    <language id="df345b11-b8c7-4213-ac66-48d2a9b75d88" name="jetbrains.mps.baseLanguageInternal">
      <concept id="8228699960986551056" name="jetbrains.mps.baseLanguageInternal.structure.InternalTypedStaticFieldReference" flags="nn" index="FVvgk">
        <child id="8228699960986556342" name="returnType" index="FVu2M" />
      </concept>
      <concept id="1173995204289" name="jetbrains.mps.baseLanguageInternal.structure.InternalStaticFieldReference" flags="nn" index="1n$iZg">
        <property id="1173995448817" name="fqClassName" index="1n_ezw" />
        <property id="1173995466678" name="fieldName" index="1n_iUB" />
      </concept>
      <concept id="1174294166120" name="jetbrains.mps.baseLanguageInternal.structure.InternalPartialInstanceMethodCall" flags="nn" index="1DoJHT">
        <property id="1174294288199" name="methodName" index="1Dpdpm" />
        <child id="1174313653259" name="returnType" index="1Ez5kq" />
        <child id="1174317636233" name="instance" index="1EMhIo" />
      </concept>
    </language>
    <language id="7866978e-a0f0-4cc7-81bc-4d213d9375e1" name="jetbrains.mps.lang.smodel">
      <concept id="6911370362349121511" name="jetbrains.mps.lang.smodel.structure.ConceptId" flags="nn" index="2x4n5u">
        <property id="6911370362349122519" name="conceptName" index="2x4mPI" />
        <property id="6911370362349121516" name="conceptId" index="2x4n5l" />
        <property id="6911370362349133804" name="isInterface" index="2x4o5l" />
        <child id="6911370362349121514" name="languageIdentity" index="2x4n5j" />
      </concept>
      <concept id="3542851458883438784" name="jetbrains.mps.lang.smodel.structure.LanguageId" flags="nn" index="2V$Bhx">
        <property id="3542851458883439831" name="namespace" index="2V$B1Q" />
        <property id="3542851458883439832" name="languageId" index="2V$B1T" />
      </concept>
    </language>
    <language id="ceab5195-25ea-4f22-9b92-103b95ca8c0c" name="jetbrains.mps.lang.core">
      <concept id="1169194658468" name="jetbrains.mps.lang.core.structure.INamedConcept" flags="ng" index="TrEIO">
        <property id="1169194664001" name="name" index="TrG5h" />
      </concept>
    </language>
    <language id="83888646-71ce-4f1c-9c53-c54016f6ad4f" name="jetbrains.mps.baseLanguage.collections">
      <concept id="1151689724996" name="jetbrains.mps.baseLanguage.collections.structure.SequenceType" flags="in" index="A3Dl8">
        <child id="1151689745422" name="elementType" index="A3Ik2" />
      </concept>
    </language>
  </registry>
  <node concept="312cEu" id="0">
    <property role="TrG5h" value="AbstractAntiquotation_DataFlow" />
    <node concept="3Tm1VV" id="1" role="1B3o_S" />
    <node concept="3uibUv" id="2" role="1zkMxy">
      <ref role="3uigEE" to="aplb:3HJD4JbIwf_" resolve="DataFlowBuilder" />
    </node>
    <node concept="3clFb_" id="3" role="jymVt">
      <property role="TrG5h" value="build" />
      <node concept="3Tm1VV" id="4" role="1B3o_S" />
      <node concept="3cqZAl" id="5" role="3clF45" />
      <node concept="37vLTG" id="6" role="3clF46">
        <property role="TrG5h" value="_context" />
        <property role="3TUv4t" value="true" />
        <node concept="3uibUv" id="8" role="1tU5fm">
          <ref role="3uigEE" to="aplb:3HJD4JbIvKw" resolve="DataFlowBuilderContext" />
        </node>
      </node>
      <node concept="3clFbS" id="7" role="3clF47">
        <node concept="3clFbF" id="9" role="3cqZAp">
          <node concept="2OqwBi" id="a" role="3clFbG">
            <node concept="2OqwBi" id="b" role="2Oq$k0">
              <node concept="37vLTw" id="d" role="2Oq$k0">
                <ref role="3cqZAo" node="6" resolve="_context" />
              </node>
              <node concept="liA8E" id="e" role="2OqNvi">
                <ref role="37wK5l" to="aplb:3HJD4JbIvKV" resolve="getBuilder" />
              </node>
            </node>
            <node concept="liA8E" id="c" role="2OqNvi">
              <ref role="37wK5l" to="1fjm:~StructuralProgramBuilder.build(java.lang.Object):void" resolve="build" />
              <node concept="10QFUN" id="f" role="37wK5m">
                <node concept="2YIFZM" id="g" role="10QFUP">
                  <ref role="1Pybhc" to="i8bi:5IkW5anFcpd" resolve="SLinkOperations" />
                  <ref role="37wK5l" to="i8bi:1pwnB5DiOAj" resolve="getTarget" />
                  <node concept="1DoJHT" id="i" role="37wK5m">
                    <property role="1Dpdpm" value="getNode" />
                    <node concept="3uibUv" id="k" role="1Ez5kq">
                      <ref role="3uigEE" to="wyt6:~Object" resolve="Object" />
                    </node>
                    <node concept="37vLTw" id="l" role="1EMhIo">
                      <ref role="3cqZAo" node="6" resolve="_context" />
                    </node>
                  </node>
                  <node concept="2YIFZM" id="j" role="37wK5m">
                    <ref role="1Pybhc" to="2k9e:~MetaAdapterFactory" resolve="MetaAdapterFactory" />
                    <ref role="37wK5l" to="2k9e:~MetaAdapterFactory.getContainmentLink(long,long,long,long,java.lang.String):org.jetbrains.mps.openapi.language.SContainmentLink" resolve="getContainmentLink" />
                    <node concept="1adDum" id="m" role="37wK5m">
                      <property role="1adDun" value="0x3a13115c633c4c5cL" />
                    </node>
                    <node concept="1adDum" id="n" role="37wK5m">
                      <property role="1adDun" value="0xbbcc75c4219e9555L" />
                    </node>
                    <node concept="1adDum" id="o" role="37wK5m">
                      <property role="1adDun" value="0x1168c104656L" />
                    </node>
                    <node concept="1adDum" id="p" role="37wK5m">
                      <property role="1adDun" value="0x1168c104657L" />
                    </node>
                    <node concept="Xl_RD" id="q" role="37wK5m">
                      <property role="Xl_RC" value="expression" />
                    </node>
                  </node>
                </node>
                <node concept="3uibUv" id="h" role="10QFUM">
                  <ref role="3uigEE" to="mhbf:~SNode" resolve="SNode" />
                </node>
              </node>
            </node>
          </node>
        </node>
      </node>
    </node>
  </node>
  <node concept="312cEu" id="r">
    <property role="TrG5h" value="DataFlowAspectDescriptorImpl" />
    <node concept="2tJIrI" id="s" role="jymVt" />
    <node concept="3clFb_" id="t" role="jymVt">
      <property role="1EzhhJ" value="false" />
      <property role="TrG5h" value="getDataFlowBuilders" />
      <property role="DiZV1" value="false" />
      <property role="od$2w" value="false" />
      <node concept="3Tm1VV" id="x" role="1B3o_S" />
      <node concept="2AHcQZ" id="y" role="2AJF6D">
        <ref role="2AI5Lk" to="mhfm:~NotNull" resolve="NotNull" />
      </node>
      <node concept="3uibUv" id="z" role="3clF45">
        <ref role="3uigEE" to="33ny:~Collection" resolve="Collection" />
        <node concept="3uibUv" id="B" role="11_B2D">
          <ref role="3uigEE" to="1fjm:~IDataFlowBuilder" resolve="IDataFlowBuilder" />
        </node>
      </node>
      <node concept="37vLTG" id="$" role="3clF46">
        <property role="TrG5h" value="concept" />
        <node concept="3uibUv" id="C" role="1tU5fm">
          <ref role="3uigEE" to="c17a:~SAbstractConcept" resolve="SAbstractConcept" />
        </node>
      </node>
      <node concept="3clFbS" id="_" role="3clF47">
        <node concept="3cpWs8" id="D" role="3cqZAp">
          <node concept="3cpWsn" id="G" role="3cpWs9">
            <property role="TrG5h" value="cncpt_a0b" />
            <node concept="3uibUv" id="H" role="1tU5fm">
              <ref role="3uigEE" to="c17a:~SAbstractConcept" resolve="SAbstractConcept" />
            </node>
            <node concept="1eOMI4" id="I" role="33vP2m">
              <node concept="10QFUN" id="J" role="1eOMHV">
                <node concept="37vLTw" id="K" role="10QFUP">
                  <ref role="3cqZAo" node="$" resolve="concept" />
                </node>
                <node concept="3uibUv" id="L" role="10QFUM">
                  <ref role="3uigEE" to="c17a:~SAbstractConcept" resolve="SAbstractConcept" />
                </node>
              </node>
            </node>
          </node>
        </node>
        <node concept="3KaCP$" id="E" role="3cqZAp">
          <node concept="3clFbS" id="M" role="3Kb1Dw" />
          <node concept="3KbdKl" id="N" role="3KbHQx">
            <node concept="3cmrfG" id="R" role="3Kbmr1">
              <property role="3cmrfH" value="0" />
            </node>
            <node concept="3clFbS" id="S" role="3Kbo56">
              <node concept="3cpWs6" id="T" role="3cqZAp">
                <node concept="2YIFZM" id="U" role="3cqZAk">
                  <ref role="37wK5l" to="33ny:~Collections.singletonList(java.lang.Object):java.util.List" resolve="singletonList" />
                  <ref role="1Pybhc" to="33ny:~Collections" resolve="Collections" />
                  <node concept="2ShNRf" id="V" role="37wK5m">
                    <node concept="HV5vD" id="X" role="2ShVmc">
                      <ref role="HV5vE" node="0" resolve="AbstractAntiquotation_DataFlow" />
                    </node>
                  </node>
                  <node concept="3uibUv" id="W" role="3PaCim">
                    <ref role="3uigEE" to="1fjm:~IDataFlowBuilder" resolve="IDataFlowBuilder" />
                  </node>
                </node>
              </node>
            </node>
          </node>
          <node concept="3KbdKl" id="O" role="3KbHQx">
            <node concept="3cmrfG" id="Y" role="3Kbmr1">
              <property role="3cmrfH" value="1" />
            </node>
            <node concept="3clFbS" id="Z" role="3Kbo56">
              <node concept="3cpWs6" id="10" role="3cqZAp">
                <node concept="2YIFZM" id="11" role="3cqZAk">
                  <ref role="37wK5l" to="33ny:~Collections.singletonList(java.lang.Object):java.util.List" resolve="singletonList" />
                  <ref role="1Pybhc" to="33ny:~Collections" resolve="Collections" />
                  <node concept="2ShNRf" id="12" role="37wK5m">
                    <node concept="HV5vD" id="14" role="2ShVmc">
                      <ref role="HV5vE" node="1O" resolve="NodeBuilder_DataFlow" />
                    </node>
                  </node>
                  <node concept="3uibUv" id="13" role="3PaCim">
                    <ref role="3uigEE" to="1fjm:~IDataFlowBuilder" resolve="IDataFlowBuilder" />
                  </node>
                </node>
              </node>
            </node>
          </node>
          <node concept="3KbdKl" id="P" role="3KbHQx">
            <node concept="3cmrfG" id="15" role="3Kbmr1">
              <property role="3cmrfH" value="2" />
            </node>
            <node concept="3clFbS" id="16" role="3Kbo56">
              <node concept="3cpWs6" id="17" role="3cqZAp">
                <node concept="2YIFZM" id="18" role="3cqZAk">
                  <ref role="37wK5l" to="33ny:~Collections.singletonList(java.lang.Object):java.util.List" resolve="singletonList" />
                  <ref role="1Pybhc" to="33ny:~Collections" resolve="Collections" />
                  <node concept="2ShNRf" id="19" role="37wK5m">
                    <node concept="HV5vD" id="1b" role="2ShVmc">
                      <ref role="HV5vE" node="2q" resolve="Quotation_DataFlow" />
                    </node>
                  </node>
                  <node concept="3uibUv" id="1a" role="3PaCim">
                    <ref role="3uigEE" to="1fjm:~IDataFlowBuilder" resolve="IDataFlowBuilder" />
                  </node>
                </node>
              </node>
            </node>
          </node>
          <node concept="2OqwBi" id="Q" role="3KbGdf">
            <node concept="liA8E" id="1c" role="2OqNvi">
              <ref role="37wK5l" to="ksn4:~ConceptIndex.index(org.jetbrains.mps.openapi.language.SAbstractConcept):int" resolve="index" />
              <node concept="37vLTw" id="1e" role="37wK5m">
                <ref role="3cqZAo" node="G" resolve="cncpt_a0b" />
              </node>
            </node>
            <node concept="37vLTw" id="1d" role="2Oq$k0">
              <ref role="3cqZAo" node="w" resolve="index_vhxjlb_a0b" />
            </node>
          </node>
        </node>
        <node concept="3cpWs6" id="F" role="3cqZAp">
          <node concept="2YIFZM" id="1f" role="3cqZAk">
            <ref role="37wK5l" to="33ny:~Collections.emptyList():java.util.List" resolve="emptyList" />
            <ref role="1Pybhc" to="33ny:~Collections" resolve="Collections" />
            <node concept="3uibUv" id="1g" role="3PaCim">
              <ref role="3uigEE" to="1fjm:~IDataFlowBuilder" resolve="IDataFlowBuilder" />
            </node>
          </node>
        </node>
      </node>
      <node concept="2AHcQZ" id="A" role="2AJF6D">
        <ref role="2AI5Lk" to="wyt6:~Override" resolve="Override" />
      </node>
    </node>
    <node concept="3Tm1VV" id="u" role="1B3o_S" />
    <node concept="3uibUv" id="v" role="1zkMxy">
      <ref role="3uigEE" to="1fjm:~DataFlowAspectDescriptorBase" resolve="DataFlowAspectDescriptorBase" />
    </node>
    <node concept="Wx3nA" id="w" role="jymVt">
      <property role="2dlcS1" value="false" />
      <property role="2dld4O" value="false" />
      <property role="3TUv4t" value="true" />
      <property role="TrG5h" value="index_vhxjlb_a0b" />
      <node concept="3Tm6S6" id="1h" role="1B3o_S" />
      <node concept="2OqwBi" id="1i" role="33vP2m">
        <node concept="2OqwBi" id="1k" role="2Oq$k0">
          <node concept="2ShNRf" id="1m" role="2Oq$k0">
            <node concept="1pGfFk" id="1o" role="2ShVmc">
              <ref role="37wK5l" to="ksn4:~ConceptSwitchIndexBuilder.&lt;init&gt;()" resolve="ConceptSwitchIndexBuilder" />
            </node>
          </node>
          <node concept="liA8E" id="1n" role="2OqNvi">
            <ref role="37wK5l" to="ksn4:~ConceptSwitchIndexBuilder.put(jetbrains.mps.smodel.adapter.ids.SConceptId...):jetbrains.mps.lang.smodel.ConceptSwitchIndexBuilder" resolve="put" />
            <node concept="2YIFZM" id="1p" role="37wK5m">
              <ref role="37wK5l" to="e8bb:~MetaIdFactory.conceptId(long,long,long):jetbrains.mps.smodel.adapter.ids.SConceptId" resolve="conceptId" />
              <ref role="1Pybhc" to="e8bb:~MetaIdFactory" resolve="MetaIdFactory" />
              <node concept="1adDum" id="1s" role="37wK5m">
                <property role="1adDun" value="0x3a13115c633c4c5cL" />
              </node>
              <node concept="1adDum" id="1t" role="37wK5m">
                <property role="1adDun" value="0xbbcc75c4219e9555L" />
              </node>
              <node concept="1adDum" id="1u" role="37wK5m">
                <property role="1adDun" value="0x1168c104656L" />
              </node>
            </node>
            <node concept="2YIFZM" id="1q" role="37wK5m">
              <ref role="37wK5l" to="e8bb:~MetaIdFactory.conceptId(long,long,long):jetbrains.mps.smodel.adapter.ids.SConceptId" resolve="conceptId" />
              <ref role="1Pybhc" to="e8bb:~MetaIdFactory" resolve="MetaIdFactory" />
              <node concept="1adDum" id="1v" role="37wK5m">
                <property role="1adDun" value="0x3a13115c633c4c5cL" />
              </node>
              <node concept="1adDum" id="1w" role="37wK5m">
                <property role="1adDun" value="0xbbcc75c4219e9555L" />
              </node>
              <node concept="1adDum" id="1x" role="37wK5m">
                <property role="1adDun" value="0x4bb51009d20a4a9dL" />
              </node>
            </node>
            <node concept="2YIFZM" id="1r" role="37wK5m">
              <ref role="37wK5l" to="e8bb:~MetaIdFactory.conceptId(long,long,long):jetbrains.mps.smodel.adapter.ids.SConceptId" resolve="conceptId" />
              <ref role="1Pybhc" to="e8bb:~MetaIdFactory" resolve="MetaIdFactory" />
              <node concept="1adDum" id="1y" role="37wK5m">
                <property role="1adDun" value="0x3a13115c633c4c5cL" />
              </node>
              <node concept="1adDum" id="1z" role="37wK5m">
                <property role="1adDun" value="0xbbcc75c4219e9555L" />
              </node>
              <node concept="1adDum" id="1$" role="37wK5m">
                <property role="1adDun" value="0x1168c104659L" />
              </node>
            </node>
          </node>
        </node>
        <node concept="liA8E" id="1l" role="2OqNvi">
          <ref role="37wK5l" to="ksn4:~ConceptSwitchIndexBuilder.seal():jetbrains.mps.lang.smodel.ConceptSwitchIndex" resolve="seal" />
        </node>
      </node>
      <node concept="3uibUv" id="1j" role="1tU5fm">
        <ref role="3uigEE" to="ksn4:~ConceptSwitchIndex" resolve="ConceptSwitchIndex" />
      </node>
    </node>
  </node>
  <node concept="39dXUE" id="1_">
    <node concept="39e2AJ" id="1A" role="39e2AI">
      <property role="39e3Y2" value="switchField" />
      <node concept="39e2AG" id="1C" role="39e3Y0">
        <node concept="385nmt" id="1D" role="385vvn">
          <property role="385vuF" value="concept switch" />
          <node concept="2$VJBW" id="1F" role="385v07">
            <property role="2$VJBR" value="35" />
            <node concept="2x4n5u" id="1G" role="3iCydw">
              <property role="2x4mPI" value="ConceptSwitchStatement" />
              <property role="2x4o5l" value="false" />
              <property role="2x4n5l" value="195uihc0nrdil" />
              <node concept="2V$Bhx" id="1H" role="2x4n5j">
                <property role="2V$B1T" value="7866978e-a0f0-4cc7-81bc-4d213d9375e1" />
                <property role="2V$B1Q" value="jetbrains.mps.lang.smodel" />
              </node>
            </node>
          </node>
        </node>
        <node concept="39e2AT" id="1E" role="39e2AY">
          <ref role="39e2AS" node="w" resolve="index_vhxjlb_a0b" />
        </node>
      </node>
    </node>
    <node concept="39e2AJ" id="1B" role="39e2AI">
      <property role="39e3Y2" value="switchVar" />
      <node concept="39e2AG" id="1I" role="39e3Y0">
        <node concept="385nmt" id="1J" role="385vvn">
          <property role="385vuF" value="concept switch" />
          <node concept="2$VJBW" id="1L" role="385v07">
            <property role="2$VJBR" value="35" />
            <node concept="2x4n5u" id="1M" role="3iCydw">
              <property role="2x4mPI" value="ConceptSwitchStatement" />
              <property role="2x4o5l" value="false" />
              <property role="2x4n5l" value="195uihc0nrdil" />
              <node concept="2V$Bhx" id="1N" role="2x4n5j">
                <property role="2V$B1T" value="7866978e-a0f0-4cc7-81bc-4d213d9375e1" />
                <property role="2V$B1Q" value="jetbrains.mps.lang.smodel" />
              </node>
            </node>
          </node>
        </node>
        <node concept="39e2AT" id="1K" role="39e2AY">
          <ref role="39e2AS" node="G" resolve="cncpt_a0b" />
        </node>
      </node>
    </node>
  </node>
  <node concept="312cEu" id="1O">
    <property role="TrG5h" value="NodeBuilder_DataFlow" />
    <node concept="3Tm1VV" id="1P" role="1B3o_S" />
    <node concept="3uibUv" id="1Q" role="1zkMxy">
      <ref role="3uigEE" to="aplb:3HJD4JbIwf_" resolve="DataFlowBuilder" />
    </node>
    <node concept="3clFb_" id="1R" role="jymVt">
      <property role="TrG5h" value="build" />
      <node concept="3Tm1VV" id="1S" role="1B3o_S" />
      <node concept="3cqZAl" id="1T" role="3clF45" />
      <node concept="37vLTG" id="1U" role="3clF46">
        <property role="TrG5h" value="_context" />
        <property role="3TUv4t" value="true" />
        <node concept="3uibUv" id="1W" role="1tU5fm">
          <ref role="3uigEE" to="aplb:3HJD4JbIvKw" resolve="DataFlowBuilderContext" />
        </node>
      </node>
      <node concept="3clFbS" id="1V" role="3clF47">
        <node concept="1DcWWT" id="1X" role="3cqZAp">
          <node concept="2OqwBi" id="1Y" role="1DdaDG">
            <node concept="liA8E" id="21" role="2OqNvi">
              <ref role="37wK5l" to="9r19:~SMethod.invoke(org.jetbrains.mps.openapi.language.SAbstractConcept,java.lang.Object...):java.lang.Object" resolve="invoke" />
              <node concept="2YIFZM" id="23" role="37wK5m">
                <ref role="1Pybhc" to="i8bi:5IkW5anFcpd" resolve="SLinkOperations" />
                <ref role="37wK5l" to="i8bi:1pwnB5DiOAj" resolve="getTarget" />
                <node concept="1DoJHT" id="24" role="37wK5m">
                  <property role="1Dpdpm" value="getNode" />
                  <node concept="3uibUv" id="26" role="1Ez5kq">
                    <ref role="3uigEE" to="wyt6:~Object" resolve="Object" />
                  </node>
                  <node concept="37vLTw" id="27" role="1EMhIo">
                    <ref role="3cqZAo" node="1U" resolve="_context" />
                  </node>
                </node>
                <node concept="2YIFZM" id="25" role="37wK5m">
                  <ref role="1Pybhc" to="2k9e:~MetaAdapterFactory" resolve="MetaAdapterFactory" />
                  <ref role="37wK5l" to="2k9e:~MetaAdapterFactory.getContainmentLink(long,long,long,long,java.lang.String):org.jetbrains.mps.openapi.language.SContainmentLink" resolve="getContainmentLink" />
                  <node concept="1adDum" id="28" role="37wK5m">
                    <property role="1adDun" value="0x3a13115c633c4c5cL" />
                  </node>
                  <node concept="1adDum" id="29" role="37wK5m">
                    <property role="1adDun" value="0xbbcc75c4219e9555L" />
                  </node>
                  <node concept="1adDum" id="2a" role="37wK5m">
                    <property role="1adDun" value="0x4bb51009d20a4a9dL" />
                  </node>
                  <node concept="1adDum" id="2b" role="37wK5m">
                    <property role="1adDun" value="0x4bb51009d20a4a9eL" />
                  </node>
                  <node concept="Xl_RD" id="2c" role="37wK5m">
                    <property role="Xl_RC" value="quotedNode" />
                  </node>
                </node>
              </node>
            </node>
            <node concept="FVvgk" id="22" role="2Oq$k0">
              <property role="1n_ezw" value="jetbrains.mps.lang.quotation.behavior.NodeBuilderNode__BehaviorDescriptor" />
              <property role="1n_iUB" value="getExternalExpressions_idRRzwLnBxZy" />
              <node concept="3uibUv" id="2d" role="FVu2M">
                <ref role="3uigEE" to="9r19:~SMethod" resolve="SMethod" />
                <node concept="A3Dl8" id="2e" role="11_B2D">
                  <node concept="3uibUv" id="2f" role="A3Ik2">
                    <ref role="3uigEE" to="mhbf:~SNode" resolve="SNode" />
                  </node>
                </node>
              </node>
            </node>
          </node>
          <node concept="3cpWsn" id="1Z" role="1Duv9x">
            <property role="TrG5h" value="expr" />
            <node concept="3uibUv" id="2g" role="1tU5fm">
              <ref role="3uigEE" to="mhbf:~SNode" resolve="SNode" />
            </node>
          </node>
          <node concept="3clFbS" id="20" role="2LFqv$">
            <node concept="3clFbF" id="2h" role="3cqZAp">
              <node concept="2OqwBi" id="2i" role="3clFbG">
                <node concept="2OqwBi" id="2j" role="2Oq$k0">
                  <node concept="37vLTw" id="2l" role="2Oq$k0">
                    <ref role="3cqZAo" node="1U" resolve="_context" />
                  </node>
                  <node concept="liA8E" id="2m" role="2OqNvi">
                    <ref role="37wK5l" to="aplb:3HJD4JbIvKV" resolve="getBuilder" />
                  </node>
                </node>
                <node concept="liA8E" id="2k" role="2OqNvi">
                  <ref role="37wK5l" to="1fjm:~StructuralProgramBuilder.build(java.lang.Object):void" resolve="build" />
                  <node concept="10QFUN" id="2n" role="37wK5m">
                    <node concept="37vLTw" id="2o" role="10QFUP">
                      <ref role="3cqZAo" node="1Z" resolve="expr" />
                    </node>
                    <node concept="3uibUv" id="2p" role="10QFUM">
                      <ref role="3uigEE" to="mhbf:~SNode" resolve="SNode" />
                    </node>
                  </node>
                </node>
              </node>
            </node>
          </node>
        </node>
      </node>
    </node>
  </node>
  <node concept="312cEu" id="2q">
    <property role="TrG5h" value="Quotation_DataFlow" />
    <node concept="3Tm1VV" id="2r" role="1B3o_S" />
    <node concept="3uibUv" id="2s" role="1zkMxy">
      <ref role="3uigEE" to="aplb:3HJD4JbIwf_" resolve="DataFlowBuilder" />
    </node>
    <node concept="3clFb_" id="2t" role="jymVt">
      <property role="TrG5h" value="build" />
      <node concept="3Tm1VV" id="2u" role="1B3o_S" />
      <node concept="3cqZAl" id="2v" role="3clF45" />
      <node concept="37vLTG" id="2w" role="3clF46">
        <property role="TrG5h" value="_context" />
        <property role="3TUv4t" value="true" />
        <node concept="3uibUv" id="2y" role="1tU5fm">
          <ref role="3uigEE" to="aplb:3HJD4JbIvKw" resolve="DataFlowBuilderContext" />
        </node>
      </node>
      <node concept="3clFbS" id="2x" role="3clF47">
        <node concept="1DcWWT" id="2z" role="3cqZAp">
          <node concept="2YIFZM" id="2A" role="1DdaDG">
            <ref role="1Pybhc" to="i8bi:5IkW5anFcyt" resolve="SNodeOperations" />
            <ref role="37wK5l" to="i8bi:5IkW5anFecg" resolve="getNodeDescendants" />
            <node concept="1DoJHT" id="2D" role="37wK5m">
              <property role="1Dpdpm" value="getNode" />
              <node concept="3uibUv" id="2H" role="1Ez5kq">
                <ref role="3uigEE" to="wyt6:~Object" resolve="Object" />
              </node>
              <node concept="37vLTw" id="2I" role="1EMhIo">
                <ref role="3cqZAo" node="2w" resolve="_context" />
              </node>
            </node>
            <node concept="2YIFZM" id="2E" role="37wK5m">
              <ref role="1Pybhc" to="2k9e:~MetaAdapterFactory" resolve="MetaAdapterFactory" />
              <ref role="37wK5l" to="2k9e:~MetaAdapterFactory.getInterfaceConcept(long,long,long,java.lang.String):org.jetbrains.mps.openapi.language.SInterfaceConcept" resolve="getInterfaceConcept" />
              <node concept="1adDum" id="2J" role="37wK5m">
                <property role="1adDun" value="0x3a13115c633c4c5cL" />
              </node>
              <node concept="1adDum" id="2K" role="37wK5m">
                <property role="1adDun" value="0xbbcc75c4219e9555L" />
              </node>
              <node concept="1adDum" id="2L" role="37wK5m">
                <property role="1adDun" value="0x1168c104656L" />
              </node>
              <node concept="Xl_RD" id="2M" role="37wK5m">
                <property role="Xl_RC" value="jetbrains.mps.lang.quotation.structure.AbstractAntiquotation" />
              </node>
            </node>
            <node concept="3clFbT" id="2F" role="37wK5m">
              <property role="3clFbU" value="false" />
            </node>
            <node concept="2ShNRf" id="2G" role="37wK5m">
              <node concept="3g6Rrh" id="2N" role="2ShVmc">
                <node concept="3uibUv" id="2O" role="3g7fb8">
                  <ref role="3uigEE" to="c17a:~SAbstractConcept" resolve="SAbstractConcept" />
                </node>
              </node>
            </node>
          </node>
          <node concept="3cpWsn" id="2B" role="1Duv9x">
            <property role="TrG5h" value="antiquotation" />
            <node concept="3uibUv" id="2P" role="1tU5fm">
              <ref role="3uigEE" to="mhbf:~SNode" resolve="SNode" />
            </node>
          </node>
          <node concept="3clFbS" id="2C" role="2LFqv$">
            <node concept="3clFbF" id="2Q" role="3cqZAp">
              <node concept="2OqwBi" id="2R" role="3clFbG">
                <node concept="2OqwBi" id="2S" role="2Oq$k0">
                  <node concept="37vLTw" id="2U" role="2Oq$k0">
                    <ref role="3cqZAo" node="2w" resolve="_context" />
                  </node>
                  <node concept="liA8E" id="2V" role="2OqNvi">
                    <ref role="37wK5l" to="aplb:3HJD4JbIvKV" resolve="getBuilder" />
                  </node>
                </node>
                <node concept="liA8E" id="2T" role="2OqNvi">
                  <ref role="37wK5l" to="1fjm:~StructuralProgramBuilder.build(java.lang.Object):void" resolve="build" />
                  <node concept="10QFUN" id="2W" role="37wK5m">
                    <node concept="37vLTw" id="2X" role="10QFUP">
                      <ref role="3cqZAo" node="2B" resolve="antiquotation" />
                    </node>
                    <node concept="3uibUv" id="2Y" role="10QFUM">
                      <ref role="3uigEE" to="mhbf:~SNode" resolve="SNode" />
                    </node>
                  </node>
                </node>
              </node>
            </node>
          </node>
        </node>
        <node concept="3clFbF" id="2$" role="3cqZAp">
          <node concept="2OqwBi" id="2Z" role="3clFbG">
            <node concept="2OqwBi" id="30" role="2Oq$k0">
              <node concept="37vLTw" id="32" role="2Oq$k0">
                <ref role="3cqZAo" node="2w" resolve="_context" />
              </node>
              <node concept="liA8E" id="33" role="2OqNvi">
                <ref role="37wK5l" to="aplb:3HJD4JbIvKV" resolve="getBuilder" />
              </node>
            </node>
            <node concept="liA8E" id="31" role="2OqNvi">
              <ref role="37wK5l" to="1fjm:~StructuralProgramBuilder.build(java.lang.Object):void" resolve="build" />
              <node concept="10QFUN" id="34" role="37wK5m">
                <node concept="2YIFZM" id="35" role="10QFUP">
                  <ref role="1Pybhc" to="i8bi:5IkW5anFcpd" resolve="SLinkOperations" />
                  <ref role="37wK5l" to="i8bi:1pwnB5DiOAj" resolve="getTarget" />
                  <node concept="1DoJHT" id="37" role="37wK5m">
                    <property role="1Dpdpm" value="getNode" />
                    <node concept="3uibUv" id="39" role="1Ez5kq">
                      <ref role="3uigEE" to="wyt6:~Object" resolve="Object" />
                    </node>
                    <node concept="37vLTw" id="3a" role="1EMhIo">
                      <ref role="3cqZAo" node="2w" resolve="_context" />
                    </node>
                  </node>
                  <node concept="2YIFZM" id="38" role="37wK5m">
                    <ref role="1Pybhc" to="2k9e:~MetaAdapterFactory" resolve="MetaAdapterFactory" />
                    <ref role="37wK5l" to="2k9e:~MetaAdapterFactory.getContainmentLink(long,long,long,long,java.lang.String):org.jetbrains.mps.openapi.language.SContainmentLink" resolve="getContainmentLink" />
                    <node concept="1adDum" id="3b" role="37wK5m">
                      <property role="1adDun" value="0x3a13115c633c4c5cL" />
                    </node>
                    <node concept="1adDum" id="3c" role="37wK5m">
                      <property role="1adDun" value="0xbbcc75c4219e9555L" />
                    </node>
                    <node concept="1adDum" id="3d" role="37wK5m">
                      <property role="1adDun" value="0x1168c104659L" />
                    </node>
                    <node concept="1adDum" id="3e" role="37wK5m">
                      <property role="1adDun" value="0x1168c10465bL" />
                    </node>
                    <node concept="Xl_RD" id="3f" role="37wK5m">
                      <property role="Xl_RC" value="modelToCreate" />
                    </node>
                  </node>
                </node>
                <node concept="3uibUv" id="36" role="10QFUM">
                  <ref role="3uigEE" to="mhbf:~SNode" resolve="SNode" />
                </node>
              </node>
            </node>
          </node>
        </node>
        <node concept="3clFbF" id="2_" role="3cqZAp">
          <node concept="2OqwBi" id="3g" role="3clFbG">
            <node concept="2OqwBi" id="3h" role="2Oq$k0">
              <node concept="37vLTw" id="3j" role="2Oq$k0">
                <ref role="3cqZAo" node="2w" resolve="_context" />
              </node>
              <node concept="liA8E" id="3k" role="2OqNvi">
                <ref role="37wK5l" to="aplb:3HJD4JbIvKV" resolve="getBuilder" />
              </node>
            </node>
            <node concept="liA8E" id="3i" role="2OqNvi">
              <ref role="37wK5l" to="1fjm:~StructuralProgramBuilder.build(java.lang.Object):void" resolve="build" />
              <node concept="10QFUN" id="3l" role="37wK5m">
                <node concept="2YIFZM" id="3m" role="10QFUP">
                  <ref role="1Pybhc" to="i8bi:5IkW5anFcpd" resolve="SLinkOperations" />
                  <ref role="37wK5l" to="i8bi:1pwnB5DiOAj" resolve="getTarget" />
                  <node concept="1DoJHT" id="3o" role="37wK5m">
                    <property role="1Dpdpm" value="getNode" />
                    <node concept="3uibUv" id="3q" role="1Ez5kq">
                      <ref role="3uigEE" to="wyt6:~Object" resolve="Object" />
                    </node>
                    <node concept="37vLTw" id="3r" role="1EMhIo">
                      <ref role="3cqZAo" node="2w" resolve="_context" />
                    </node>
                  </node>
                  <node concept="2YIFZM" id="3p" role="37wK5m">
                    <ref role="1Pybhc" to="2k9e:~MetaAdapterFactory" resolve="MetaAdapterFactory" />
                    <ref role="37wK5l" to="2k9e:~MetaAdapterFactory.getContainmentLink(long,long,long,long,java.lang.String):org.jetbrains.mps.openapi.language.SContainmentLink" resolve="getContainmentLink" />
                    <node concept="1adDum" id="3s" role="37wK5m">
                      <property role="1adDun" value="0x3a13115c633c4c5cL" />
                    </node>
                    <node concept="1adDum" id="3t" role="37wK5m">
                      <property role="1adDun" value="0xbbcc75c4219e9555L" />
                    </node>
                    <node concept="1adDum" id="3u" role="37wK5m">
                      <property role="1adDun" value="0x1168c104659L" />
                    </node>
                    <node concept="1adDum" id="3v" role="37wK5m">
                      <property role="1adDun" value="0x2c22b7a3db809c05L" />
                    </node>
                    <node concept="Xl_RD" id="3w" role="37wK5m">
                      <property role="Xl_RC" value="nodeId" />
                    </node>
                  </node>
                </node>
                <node concept="3uibUv" id="3n" role="10QFUM">
                  <ref role="3uigEE" to="mhbf:~SNode" resolve="SNode" />
                </node>
              </node>
            </node>
          </node>
        </node>
      </node>
    </node>
  </node>
</model>

