<?xml version="1.0" encoding="UTF-8"?>
<model ref="00000000-0000-4000-5f02-5beb5f025beb/i:f2c4ce0(checkpoints/jetbrains.mps.samples.attribute.textGen@descriptorclasses)">
  <persistence version="9" />
  <attribute name="checkpoint" value="DescriptorClasses" />
  <attribute name="generation-plan" value="AspectCPS" />
  <languages />
  <imports>
    <import index="rnuf" ref="r:edfeddd0-4d5d-4ba0-8508-4c23321fc724(jetbrains.mps.samples.attribute.textGen)" />
    <import index="ao3" ref="6ed54515-acc8-4d1e-a16c-9fd6cfe951ea/java:jetbrains.mps.text(MPS.Core/)" />
    <import index="tpcf" ref="r:00000000-0000-4000-0000-011c89590293(jetbrains.mps.lang.structure.generator_new.baseLanguage@generator)" />
    <import index="dmyu" ref="r:c6eeedda-084d-4659-9c4d-80b7768f2bb2(jetbrains.mps.baseLanguage.textGen)" />
    <import index="t1gd" ref="r:e99786b4-cb81-48f5-ad96-d9e0d7c7aa3c(jetbrains.mps.samples.attribute.structure)" />
    <import index="mhbf" ref="8865b7a8-5271-43d3-884c-6fd1d9cfdd34/java:org.jetbrains.mps.openapi.model(MPS.OpenAPI/)" />
    <import index="yfwt" ref="6ed54515-acc8-4d1e-a16c-9fd6cfe951ea/java:jetbrains.mps.text.rt(MPS.Core/)" />
    <import index="mhfm" ref="3f233e7f-b8a6-46d2-a57f-795d56775243/java:org.jetbrains.annotations(Annotations/)" />
    <import index="kpbf" ref="6ed54515-acc8-4d1e-a16c-9fd6cfe951ea/java:jetbrains.mps.text.impl(MPS.Core/)" />
    <import index="wyt6" ref="6354ebe7-c22a-4a0f-ac54-50b52ab9b065/java:java.lang(JDK/)" />
  </imports>
  <registry>
    <language id="f3061a53-9226-4cc5-a443-f952ceaf5816" name="jetbrains.mps.baseLanguage">
      <concept id="1202948039474" name="jetbrains.mps.baseLanguage.structure.InstanceMethodCallOperation" flags="nn" index="liA8E" />
      <concept id="1465982738277781862" name="jetbrains.mps.baseLanguage.structure.PlaceholderMember" flags="ng" index="2tJIrI" />
      <concept id="1188207840427" name="jetbrains.mps.baseLanguage.structure.AnnotationInstance" flags="nn" index="2AHcQZ">
        <reference id="1188208074048" name="annotation" index="2AI5Lk" />
      </concept>
      <concept id="1188208481402" name="jetbrains.mps.baseLanguage.structure.HasAnnotation" flags="ng" index="2AJDlI">
        <child id="1188208488637" name="annotation" index="2AJF6D" />
      </concept>
      <concept id="2820489544401957797" name="jetbrains.mps.baseLanguage.structure.DefaultClassCreator" flags="nn" index="HV5vD">
        <reference id="2820489544401957798" name="classifier" index="HV5vE" />
      </concept>
      <concept id="1224848483129" name="jetbrains.mps.baseLanguage.structure.IBLDeprecatable" flags="ng" index="IEa8$">
        <property id="1224848525476" name="isDeprecated" index="IEkAT" />
      </concept>
      <concept id="1154032098014" name="jetbrains.mps.baseLanguage.structure.AbstractLoopStatement" flags="nn" index="2LF5Ji">
        <child id="1154032183016" name="body" index="2LFqv$" />
      </concept>
      <concept id="1197027756228" name="jetbrains.mps.baseLanguage.structure.DotExpression" flags="nn" index="2OqwBi">
        <child id="1197027771414" name="operand" index="2Oq$k0" />
        <child id="1197027833540" name="operation" index="2OqNvi" />
      </concept>
      <concept id="1145552977093" name="jetbrains.mps.baseLanguage.structure.GenericNewExpression" flags="nn" index="2ShNRf">
        <child id="1145553007750" name="creator" index="2ShVmc" />
      </concept>
      <concept id="1070475926800" name="jetbrains.mps.baseLanguage.structure.StringLiteral" flags="nn" index="Xl_RD">
        <property id="1070475926801" name="value" index="Xl_RC" />
      </concept>
      <concept id="1081236700938" name="jetbrains.mps.baseLanguage.structure.StaticMethodDeclaration" flags="ig" index="2YIFZL" />
      <concept id="1081236700937" name="jetbrains.mps.baseLanguage.structure.StaticMethodCall" flags="nn" index="2YIFZM">
        <reference id="1144433194310" name="classConcept" index="1Pybhc" />
      </concept>
      <concept id="1070534058343" name="jetbrains.mps.baseLanguage.structure.NullLiteral" flags="nn" index="10Nm6u" />
      <concept id="1068390468200" name="jetbrains.mps.baseLanguage.structure.FieldDeclaration" flags="ig" index="312cEg" />
      <concept id="1068390468198" name="jetbrains.mps.baseLanguage.structure.ClassConcept" flags="ig" index="312cEu">
        <property id="1075300953594" name="abstractClass" index="1sVAO0" />
        <child id="1165602531693" name="superclass" index="1zkMxy" />
      </concept>
      <concept id="1068431474542" name="jetbrains.mps.baseLanguage.structure.VariableDeclaration" flags="ng" index="33uBYm">
        <property id="1176718929932" name="isFinal" index="3TUv4t" />
        <child id="1068431790190" name="initializer" index="33vP2m" />
      </concept>
      <concept id="1068498886296" name="jetbrains.mps.baseLanguage.structure.VariableReference" flags="nn" index="37vLTw">
        <reference id="1068581517664" name="variableDeclaration" index="3cqZAo" />
      </concept>
      <concept id="1068498886292" name="jetbrains.mps.baseLanguage.structure.ParameterDeclaration" flags="ir" index="37vLTG" />
      <concept id="4972933694980447171" name="jetbrains.mps.baseLanguage.structure.BaseVariableDeclaration" flags="ng" index="19Szcq">
        <child id="5680397130376446158" name="type" index="1tU5fm" />
      </concept>
      <concept id="1068580123132" name="jetbrains.mps.baseLanguage.structure.BaseMethodDeclaration" flags="ng" index="3clF44">
        <property id="4276006055363816570" name="isSynchronized" index="od$2w" />
        <property id="1181808852946" name="isFinal" index="DiZV1" />
        <child id="1068580123133" name="returnType" index="3clF45" />
        <child id="1068580123134" name="parameter" index="3clF46" />
        <child id="1068580123135" name="body" index="3clF47" />
      </concept>
      <concept id="1068580123165" name="jetbrains.mps.baseLanguage.structure.InstanceMethodDeclaration" flags="ig" index="3clFb_">
        <property id="1178608670077" name="isAbstract" index="1EzhhJ" />
      </concept>
      <concept id="1068580123152" name="jetbrains.mps.baseLanguage.structure.EqualsExpression" flags="nn" index="3clFbC" />
      <concept id="1068580123155" name="jetbrains.mps.baseLanguage.structure.ExpressionStatement" flags="nn" index="3clFbF">
        <child id="1068580123156" name="expression" index="3clFbG" />
      </concept>
      <concept id="1068580123159" name="jetbrains.mps.baseLanguage.structure.IfStatement" flags="nn" index="3clFbJ">
        <child id="1068580123160" name="condition" index="3clFbw" />
        <child id="1068580123161" name="ifTrue" index="3clFbx" />
      </concept>
      <concept id="1068580123136" name="jetbrains.mps.baseLanguage.structure.StatementList" flags="sn" stub="5293379017992965193" index="3clFbS">
        <child id="1068581517665" name="statement" index="3cqZAp" />
      </concept>
      <concept id="1068580123140" name="jetbrains.mps.baseLanguage.structure.ConstructorDeclaration" flags="ig" index="3clFbW" />
      <concept id="1068581242875" name="jetbrains.mps.baseLanguage.structure.PlusExpression" flags="nn" index="3cpWs3" />
      <concept id="1068581242878" name="jetbrains.mps.baseLanguage.structure.ReturnStatement" flags="nn" index="3cpWs6">
        <child id="1068581517676" name="expression" index="3cqZAk" />
      </concept>
      <concept id="1068581242864" name="jetbrains.mps.baseLanguage.structure.LocalVariableDeclarationStatement" flags="nn" index="3cpWs8">
        <child id="1068581242865" name="localVariableDeclaration" index="3cpWs9" />
      </concept>
      <concept id="1068581242863" name="jetbrains.mps.baseLanguage.structure.LocalVariableDeclaration" flags="nr" index="3cpWsn" />
      <concept id="1068581517677" name="jetbrains.mps.baseLanguage.structure.VoidType" flags="in" index="3cqZAl" />
      <concept id="1079359253375" name="jetbrains.mps.baseLanguage.structure.ParenthesizedExpression" flags="nn" index="1eOMI4">
        <child id="1079359253376" name="expression" index="1eOMHV" />
      </concept>
      <concept id="1204053956946" name="jetbrains.mps.baseLanguage.structure.IMethodCall" flags="ng" index="1ndlxa">
        <reference id="1068499141037" name="baseMethodDeclaration" index="37wK5l" />
        <child id="1068499141038" name="actualArgument" index="37wK5m" />
      </concept>
      <concept id="1212685548494" name="jetbrains.mps.baseLanguage.structure.ClassCreator" flags="nn" index="1pGfFk" />
      <concept id="1107461130800" name="jetbrains.mps.baseLanguage.structure.Classifier" flags="ng" index="3pOWGL">
        <child id="5375687026011219971" name="member" index="jymVt" unordered="true" />
      </concept>
      <concept id="7812454656619025416" name="jetbrains.mps.baseLanguage.structure.MethodDeclaration" flags="ng" index="1rXfSm">
        <property id="8355037393041754995" name="isNative" index="2aFKle" />
      </concept>
      <concept id="7812454656619025412" name="jetbrains.mps.baseLanguage.structure.LocalMethodCall" flags="nn" index="1rXfSq" />
      <concept id="1107535904670" name="jetbrains.mps.baseLanguage.structure.ClassifierType" flags="in" index="3uibUv">
        <reference id="1107535924139" name="classifier" index="3uigEE" />
      </concept>
      <concept id="1081773326031" name="jetbrains.mps.baseLanguage.structure.BinaryOperation" flags="nn" index="3uHJSO">
        <child id="1081773367579" name="rightExpression" index="3uHU7w" />
        <child id="1081773367580" name="leftExpression" index="3uHU7B" />
      </concept>
      <concept id="1178549954367" name="jetbrains.mps.baseLanguage.structure.IVisible" flags="ng" index="1B3ioH">
        <child id="1178549979242" name="visibility" index="1B3o_S" />
      </concept>
      <concept id="1144226303539" name="jetbrains.mps.baseLanguage.structure.ForeachStatement" flags="nn" index="1DcWWT">
        <child id="1144226360166" name="iterable" index="1DdaDG" />
      </concept>
      <concept id="1144230876926" name="jetbrains.mps.baseLanguage.structure.AbstractForStatement" flags="nn" index="1DupvO">
        <child id="1144230900587" name="variable" index="1Duv9x" />
      </concept>
      <concept id="1163668896201" name="jetbrains.mps.baseLanguage.structure.TernaryOperatorExpression" flags="nn" index="3K4zz7">
        <child id="1163668914799" name="condition" index="3K4Cdx" />
        <child id="1163668922816" name="ifTrue" index="3K4E3e" />
        <child id="1163668934364" name="ifFalse" index="3K4GZi" />
      </concept>
      <concept id="1163670490218" name="jetbrains.mps.baseLanguage.structure.SwitchStatement" flags="nn" index="3KaCP$">
        <child id="1163670766145" name="expression" index="3KbGdf" />
        <child id="1163670772911" name="case" index="3KbHQx" />
      </concept>
      <concept id="1163670641947" name="jetbrains.mps.baseLanguage.structure.SwitchCase" flags="ng" index="3KbdKl">
        <child id="1163670677455" name="expression" index="3Kbmr1" />
        <child id="1163670683720" name="body" index="3Kbo56" />
      </concept>
      <concept id="1082113931046" name="jetbrains.mps.baseLanguage.structure.ContinueStatement" flags="nn" index="3N13vt" />
      <concept id="1146644602865" name="jetbrains.mps.baseLanguage.structure.PublicVisibility" flags="nn" index="3Tm1VV" />
      <concept id="1146644623116" name="jetbrains.mps.baseLanguage.structure.PrivateVisibility" flags="nn" index="3Tm6S6" />
      <concept id="1200397529627" name="jetbrains.mps.baseLanguage.structure.CharConstant" flags="nn" index="1Xhbcc">
        <property id="1200397540847" name="charConstant" index="1XhdNS" />
      </concept>
    </language>
    <language id="b401a680-8325-4110-8fd3-84331ff25bef" name="jetbrains.mps.lang.generator">
      <concept id="9032177546941580387" name="jetbrains.mps.lang.generator.structure.TrivialNodeId" flags="nn" index="2$VJBW">
        <property id="9032177546941580392" name="nodeId" index="2$VJBR" />
        <child id="8557539026538618631" name="cncpt" index="3iCydw" />
      </concept>
      <concept id="5808518347809715508" name="jetbrains.mps.lang.generator.structure.GeneratorDebug_InputNode" flags="nn" index="385nmt">
        <property id="5808518347809748738" name="presentation" index="385vuF" />
        <child id="5808518347809747118" name="node" index="385v07" />
      </concept>
      <concept id="3864140621129707969" name="jetbrains.mps.lang.generator.structure.GeneratorDebug_Mappings" flags="nn" index="39dXUE">
        <child id="3864140621129713349" name="labels" index="39e2AI" />
      </concept>
      <concept id="3864140621129713351" name="jetbrains.mps.lang.generator.structure.GeneratorDebug_NodeMapEntry" flags="nn" index="39e2AG">
        <property id="5843998055530255671" name="isNewRoot" index="2mV_xN" />
        <reference id="3864140621129713371" name="inputOrigin" index="39e2AK" />
        <child id="5808518347809748862" name="inputNode" index="385vvn" />
        <child id="3864140621129713365" name="outputNode" index="39e2AY" />
      </concept>
      <concept id="3864140621129713348" name="jetbrains.mps.lang.generator.structure.GeneratorDebug_LabelEntry" flags="nn" index="39e2AJ">
        <property id="3864140621129715945" name="label" index="39e3Y2" />
        <child id="3864140621129715947" name="entries" index="39e3Y0" />
      </concept>
      <concept id="3864140621129713362" name="jetbrains.mps.lang.generator.structure.GeneratorDebug_NodeRef" flags="nn" index="39e2AT">
        <reference id="3864140621129713363" name="node" index="39e2AS" />
      </concept>
    </language>
    <language id="df345b11-b8c7-4213-ac66-48d2a9b75d88" name="jetbrains.mps.baseLanguageInternal">
      <concept id="1174914042989" name="jetbrains.mps.baseLanguageInternal.structure.InternalClassifierType" flags="in" index="2eloPW">
        <property id="1174914081067" name="fqClassName" index="2ely0U" />
      </concept>
      <concept id="1100832983841311024" name="jetbrains.mps.baseLanguageInternal.structure.InternalClassCreator" flags="nn" index="xCZzO">
        <property id="1100832983841311026" name="fqClassName" index="xCZzQ" />
        <child id="1100832983841311029" name="type" index="xCZzL" />
      </concept>
      <concept id="1173995204289" name="jetbrains.mps.baseLanguageInternal.structure.InternalStaticFieldReference" flags="nn" index="1n$iZg">
        <property id="1173995448817" name="fqClassName" index="1n_ezw" />
        <property id="1173995466678" name="fieldName" index="1n_iUB" />
      </concept>
    </language>
    <language id="7866978e-a0f0-4cc7-81bc-4d213d9375e1" name="jetbrains.mps.lang.smodel">
      <concept id="6911370362349121511" name="jetbrains.mps.lang.smodel.structure.ConceptId" flags="nn" index="2x4n5u">
        <property id="6911370362349122519" name="conceptName" index="2x4mPI" />
        <property id="6911370362349121516" name="conceptId" index="2x4n5l" />
        <property id="6911370362349133804" name="isInterface" index="2x4o5l" />
        <child id="6911370362349121514" name="languageIdentity" index="2x4n5j" />
      </concept>
      <concept id="3542851458883438784" name="jetbrains.mps.lang.smodel.structure.LanguageId" flags="nn" index="2V$Bhx">
        <property id="3542851458883439831" name="namespace" index="2V$B1Q" />
        <property id="3542851458883439832" name="languageId" index="2V$B1T" />
      </concept>
      <concept id="2644386474300074836" name="jetbrains.mps.lang.smodel.structure.ConceptIdRefExpression" flags="nn" index="35c_gC">
        <reference id="2644386474300074837" name="conceptDeclaration" index="35c_gD" />
      </concept>
      <concept id="6677504323281689838" name="jetbrains.mps.lang.smodel.structure.SConceptType" flags="in" index="3bZ5Sz" />
      <concept id="1138056022639" name="jetbrains.mps.lang.smodel.structure.SPropertyAccess" flags="nn" index="3TrcHB">
        <reference id="1138056395725" name="property" index="3TsBF5" />
      </concept>
    </language>
    <language id="ceab5195-25ea-4f22-9b92-103b95ca8c0c" name="jetbrains.mps.lang.core">
      <concept id="1133920641626" name="jetbrains.mps.lang.core.structure.BaseConcept" flags="ng" index="2VYdi">
        <child id="5169995583184591170" name="smodelAttribute" index="lGtFl" />
      </concept>
      <concept id="1169194658468" name="jetbrains.mps.lang.core.structure.INamedConcept" flags="ng" index="TrEIO">
        <property id="1169194664001" name="name" index="TrG5h" />
      </concept>
      <concept id="779128492853369165" name="jetbrains.mps.lang.core.structure.SideTransformInfo" flags="ng" index="1KehLL">
        <property id="779128492853935960" name="anchorTag" index="1K8rD$" />
        <property id="779128492853934523" name="cellId" index="1K8rM7" />
        <property id="779128492853699361" name="side" index="1Kfyot" />
      </concept>
    </language>
  </registry>
  <node concept="312cEu" id="0">
    <property role="1sVAO0" value="true" />
    <property role="TrG5h" value="Auxiliary" />
    <node concept="3Tm1VV" id="1" role="1B3o_S" />
    <node concept="2YIFZL" id="2" role="jymVt">
      <property role="DiZV1" value="false" />
      <property role="od$2w" value="false" />
      <property role="TrG5h" value="contextObjectInstance_ctx" />
      <node concept="3clFbS" id="3" role="3clF47">
        <node concept="3cpWs6" id="7" role="3cqZAp">
          <node concept="2ShNRf" id="8" role="3cqZAk">
            <node concept="1pGfFk" id="9" role="2ShVmc">
              <ref role="37wK5l" to="dmyu:23Rh9MB78wC" resolve="ClassifierUnitContext" />
              <node concept="37vLTw" id="a" role="37wK5m">
                <ref role="3cqZAo" node="6" resolve="primaryInputNode" />
              </node>
            </node>
          </node>
        </node>
      </node>
      <node concept="3uibUv" id="4" role="3clF45">
        <ref role="3uigEE" to="dmyu:23Rh9MB7812" resolve="ClassifierUnitContext" />
      </node>
      <node concept="3Tm1VV" id="5" role="1B3o_S" />
      <node concept="37vLTG" id="6" role="3clF46">
        <property role="TrG5h" value="primaryInputNode" />
        <node concept="3uibUv" id="b" role="1tU5fm">
          <ref role="3uigEE" to="mhbf:~SNode" resolve="SNode" />
        </node>
      </node>
    </node>
  </node>
  <node concept="312cEu" id="c">
    <property role="1sVAO0" value="false" />
    <property role="TrG5h" value="CommentAttribute2_TextGen" />
    <node concept="3Tm1VV" id="d" role="1B3o_S" />
    <node concept="3uibUv" id="e" role="1zkMxy">
      <ref role="3uigEE" to="yfwt:~TextGenDescriptorBase" resolve="TextGenDescriptorBase" />
    </node>
    <node concept="3clFb_" id="f" role="jymVt">
      <property role="TrG5h" value="generateText" />
      <node concept="3cqZAl" id="g" role="3clF45" />
      <node concept="3Tm1VV" id="h" role="1B3o_S" />
      <node concept="3clFbS" id="i" role="3clF47">
        <node concept="3cpWs8" id="l" role="3cqZAp">
          <node concept="3cpWsn" id="r" role="3cpWs9">
            <property role="3TUv4t" value="true" />
            <property role="TrG5h" value="tgs" />
            <node concept="3uibUv" id="s" role="1tU5fm">
              <ref role="3uigEE" to="kpbf:~TextGenSupport" resolve="TextGenSupport" />
            </node>
            <node concept="2ShNRf" id="t" role="33vP2m">
              <node concept="1pGfFk" id="u" role="2ShVmc">
                <ref role="37wK5l" to="kpbf:~TextGenSupport.&lt;init&gt;(jetbrains.mps.text.rt.TextGenContext)" resolve="TextGenSupport" />
                <node concept="37vLTw" id="v" role="37wK5m">
                  <ref role="3cqZAo" node="j" resolve="ctx" />
                </node>
              </node>
            </node>
          </node>
        </node>
        <node concept="3clFbF" id="m" role="3cqZAp">
          <node concept="2OqwBi" id="w" role="3clFbG">
            <node concept="37vLTw" id="x" role="2Oq$k0">
              <ref role="3cqZAo" node="r" resolve="tgs" />
            </node>
            <node concept="liA8E" id="y" role="2OqNvi">
              <ref role="37wK5l" to="kpbf:~TextGenSupport.append(java.lang.CharSequence):jetbrains.mps.text.TextArea" resolve="append" />
              <node concept="Xl_RD" id="z" role="37wK5m">
                <property role="Xl_RC" value="// " />
              </node>
            </node>
          </node>
        </node>
        <node concept="3clFbF" id="n" role="3cqZAp">
          <node concept="2OqwBi" id="$" role="3clFbG">
            <node concept="37vLTw" id="_" role="2Oq$k0">
              <ref role="3cqZAo" node="r" resolve="tgs" />
            </node>
            <node concept="liA8E" id="A" role="2OqNvi">
              <ref role="37wK5l" to="kpbf:~TextGenSupport.append(java.lang.CharSequence):jetbrains.mps.text.TextArea" resolve="append" />
              <node concept="2OqwBi" id="B" role="37wK5m">
                <node concept="2OqwBi" id="C" role="2Oq$k0">
                  <node concept="37vLTw" id="E" role="2Oq$k0">
                    <ref role="3cqZAo" node="j" resolve="ctx" />
                  </node>
                  <node concept="liA8E" id="F" role="2OqNvi">
                    <ref role="37wK5l" to="yfwt:~TextGenContext.getPrimaryInput():org.jetbrains.mps.openapi.model.SNode" resolve="getPrimaryInput" />
                  </node>
                </node>
                <node concept="3TrcHB" id="D" role="2OqNvi">
                  <ref role="3TsBF5" to="t1gd:70B0YGk0iGO" resolve="text" />
                </node>
              </node>
            </node>
          </node>
        </node>
        <node concept="3clFbF" id="o" role="3cqZAp">
          <node concept="2OqwBi" id="G" role="3clFbG">
            <node concept="37vLTw" id="H" role="2Oq$k0">
              <ref role="3cqZAo" node="r" resolve="tgs" />
            </node>
            <node concept="liA8E" id="I" role="2OqNvi">
              <ref role="37wK5l" to="kpbf:~TextGenSupport.newLine():jetbrains.mps.text.TextArea" resolve="newLine" />
            </node>
          </node>
        </node>
        <node concept="3clFbF" id="p" role="3cqZAp">
          <node concept="2OqwBi" id="J" role="3clFbG">
            <node concept="37vLTw" id="K" role="2Oq$k0">
              <ref role="3cqZAo" node="r" resolve="tgs" />
            </node>
            <node concept="liA8E" id="L" role="2OqNvi">
              <ref role="37wK5l" to="kpbf:~TextGenSupport.indent():jetbrains.mps.text.TextArea" resolve="indent" />
            </node>
          </node>
        </node>
        <node concept="3clFbF" id="q" role="3cqZAp">
          <node concept="2OqwBi" id="M" role="3clFbG">
            <node concept="37vLTw" id="N" role="2Oq$k0">
              <ref role="3cqZAo" node="r" resolve="tgs" />
            </node>
            <node concept="liA8E" id="O" role="2OqNvi">
              <ref role="37wK5l" to="kpbf:~TextGenSupport.appendAttributedNode():void" resolve="appendAttributedNode" />
            </node>
          </node>
        </node>
      </node>
      <node concept="37vLTG" id="j" role="3clF46">
        <property role="TrG5h" value="ctx" />
        <property role="3TUv4t" value="true" />
        <node concept="3uibUv" id="P" role="1tU5fm">
          <ref role="3uigEE" to="yfwt:~TextGenContext" resolve="TextGenContext" />
        </node>
      </node>
      <node concept="2AHcQZ" id="k" role="2AJF6D">
        <ref role="2AI5Lk" to="wyt6:~Override" resolve="Override" />
      </node>
    </node>
  </node>
  <node concept="312cEu" id="Q">
    <property role="1sVAO0" value="false" />
    <property role="TrG5h" value="CommentAttribute_TextGen" />
    <node concept="3Tm1VV" id="R" role="1B3o_S" />
    <node concept="3uibUv" id="S" role="1zkMxy">
      <ref role="3uigEE" to="yfwt:~TextGenDescriptorBase" resolve="TextGenDescriptorBase" />
    </node>
    <node concept="3clFb_" id="T" role="jymVt">
      <property role="TrG5h" value="generateText" />
      <node concept="3cqZAl" id="U" role="3clF45" />
      <node concept="3Tm1VV" id="V" role="1B3o_S" />
      <node concept="3clFbS" id="W" role="3clF47">
        <node concept="3cpWs8" id="Z" role="3cqZAp">
          <node concept="3cpWsn" id="16" role="3cpWs9">
            <property role="3TUv4t" value="true" />
            <property role="TrG5h" value="tgs" />
            <node concept="3uibUv" id="17" role="1tU5fm">
              <ref role="3uigEE" to="kpbf:~TextGenSupport" resolve="TextGenSupport" />
            </node>
            <node concept="2ShNRf" id="18" role="33vP2m">
              <node concept="1pGfFk" id="19" role="2ShVmc">
                <ref role="37wK5l" to="kpbf:~TextGenSupport.&lt;init&gt;(jetbrains.mps.text.rt.TextGenContext)" resolve="TextGenSupport" />
                <node concept="37vLTw" id="1a" role="37wK5m">
                  <ref role="3cqZAo" node="X" resolve="ctx" />
                </node>
              </node>
            </node>
          </node>
        </node>
        <node concept="3clFbF" id="10" role="3cqZAp">
          <node concept="2OqwBi" id="1b" role="3clFbG">
            <node concept="37vLTw" id="1d" role="2Oq$k0">
              <ref role="3cqZAo" node="16" resolve="tgs" />
            </node>
            <node concept="liA8E" id="1e" role="2OqNvi">
              <ref role="37wK5l" to="kpbf:~TextGenSupport.append(java.lang.CharSequence):jetbrains.mps.text.TextArea" resolve="append" />
              <node concept="Xl_RD" id="1f" role="37wK5m">
                <property role="Xl_RC" value="&lt;!--" />
              </node>
            </node>
          </node>
          <node concept="1KehLL" id="1c" role="lGtFl">
            <property role="1K8rM7" value="Constant_yuehr3_c0" />
            <property role="1K8rD$" value="default_RTransform" />
            <property role="1Kfyot" value="left" />
          </node>
        </node>
        <node concept="3clFbF" id="11" role="3cqZAp">
          <node concept="2OqwBi" id="1g" role="3clFbG">
            <node concept="37vLTw" id="1i" role="2Oq$k0">
              <ref role="3cqZAo" node="16" resolve="tgs" />
            </node>
            <node concept="liA8E" id="1j" role="2OqNvi">
              <ref role="37wK5l" to="kpbf:~TextGenSupport.append(java.lang.CharSequence):jetbrains.mps.text.TextArea" resolve="append" />
              <node concept="2OqwBi" id="1k" role="37wK5m">
                <node concept="2OqwBi" id="1l" role="2Oq$k0">
                  <node concept="37vLTw" id="1n" role="2Oq$k0">
                    <ref role="3cqZAo" node="X" resolve="ctx" />
                  </node>
                  <node concept="liA8E" id="1o" role="2OqNvi">
                    <ref role="37wK5l" to="yfwt:~TextGenContext.getPrimaryInput():org.jetbrains.mps.openapi.model.SNode" resolve="getPrimaryInput" />
                  </node>
                </node>
                <node concept="3TrcHB" id="1m" role="2OqNvi">
                  <ref role="3TsBF5" to="t1gd:6fYGsMY855o" resolve="text" />
                </node>
              </node>
            </node>
          </node>
          <node concept="1KehLL" id="1h" role="lGtFl">
            <property role="1K8rM7" value="Constant_yuehr3_c0" />
            <property role="1K8rD$" value="default_RTransform" />
            <property role="1Kfyot" value="left" />
          </node>
        </node>
        <node concept="3clFbF" id="12" role="3cqZAp">
          <node concept="2OqwBi" id="1p" role="3clFbG">
            <node concept="37vLTw" id="1r" role="2Oq$k0">
              <ref role="3cqZAo" node="16" resolve="tgs" />
            </node>
            <node concept="liA8E" id="1s" role="2OqNvi">
              <ref role="37wK5l" to="kpbf:~TextGenSupport.append(java.lang.CharSequence):jetbrains.mps.text.TextArea" resolve="append" />
              <node concept="Xl_RD" id="1t" role="37wK5m">
                <property role="Xl_RC" value="--&gt;" />
              </node>
            </node>
          </node>
          <node concept="1KehLL" id="1q" role="lGtFl">
            <property role="1K8rM7" value="Constant_yuehr3_c0" />
            <property role="1K8rD$" value="default_RTransform" />
            <property role="1Kfyot" value="left" />
          </node>
        </node>
        <node concept="3clFbF" id="13" role="3cqZAp">
          <node concept="2OqwBi" id="1u" role="3clFbG">
            <node concept="37vLTw" id="1w" role="2Oq$k0">
              <ref role="3cqZAo" node="16" resolve="tgs" />
            </node>
            <node concept="liA8E" id="1x" role="2OqNvi">
              <ref role="37wK5l" to="kpbf:~TextGenSupport.newLine():jetbrains.mps.text.TextArea" resolve="newLine" />
            </node>
          </node>
          <node concept="1KehLL" id="1v" role="lGtFl">
            <property role="1K8rM7" value="Constant_yuehr3_c0" />
            <property role="1K8rD$" value="default_RTransform" />
            <property role="1Kfyot" value="left" />
          </node>
        </node>
        <node concept="3clFbF" id="14" role="3cqZAp">
          <node concept="2OqwBi" id="1y" role="3clFbG">
            <node concept="37vLTw" id="1$" role="2Oq$k0">
              <ref role="3cqZAo" node="16" resolve="tgs" />
            </node>
            <node concept="liA8E" id="1_" role="2OqNvi">
              <ref role="37wK5l" to="kpbf:~TextGenSupport.indent():jetbrains.mps.text.TextArea" resolve="indent" />
            </node>
          </node>
          <node concept="1KehLL" id="1z" role="lGtFl">
            <property role="1K8rM7" value="Constant_yuehr3_c0" />
            <property role="1K8rD$" value="default_RTransform" />
            <property role="1Kfyot" value="left" />
          </node>
        </node>
        <node concept="3clFbF" id="15" role="3cqZAp">
          <node concept="2OqwBi" id="1A" role="3clFbG">
            <node concept="37vLTw" id="1C" role="2Oq$k0">
              <ref role="3cqZAo" node="16" resolve="tgs" />
            </node>
            <node concept="liA8E" id="1D" role="2OqNvi">
              <ref role="37wK5l" to="kpbf:~TextGenSupport.appendAttributedNode():void" resolve="appendAttributedNode" />
            </node>
          </node>
          <node concept="1KehLL" id="1B" role="lGtFl">
            <property role="1K8rM7" value="Constant_yuehr3_c0" />
            <property role="1K8rD$" value="default_RTransform" />
            <property role="1Kfyot" value="left" />
          </node>
        </node>
      </node>
      <node concept="37vLTG" id="X" role="3clF46">
        <property role="TrG5h" value="ctx" />
        <property role="3TUv4t" value="true" />
        <node concept="3uibUv" id="1E" role="1tU5fm">
          <ref role="3uigEE" to="yfwt:~TextGenContext" resolve="TextGenContext" />
        </node>
      </node>
      <node concept="2AHcQZ" id="Y" role="2AJF6D">
        <ref role="2AI5Lk" to="wyt6:~Override" resolve="Override" />
      </node>
    </node>
  </node>
  <node concept="39dXUE" id="1F">
    <node concept="39e2AJ" id="1G" role="39e2AI">
      <property role="39e3Y2" value="GetExtension" />
      <node concept="39e2AG" id="1M" role="39e3Y0">
        <ref role="39e2AK" to="rnuf:3fG6dkhfgJf" resolve="HandlerAsRoot_TextGen" />
        <node concept="385nmt" id="1N" role="385vvn">
          <property role="385vuF" value="HandlerAsRoot_TextGen" />
          <node concept="2$VJBW" id="1P" role="385v07">
            <property role="2$VJBR" value="3741392693834353615" />
            <node concept="2x4n5u" id="1Q" role="3iCydw">
              <property role="2x4mPI" value="ConceptTextGenDeclaration" />
              <property role="2x4o5l" value="false" />
              <property role="2x4n5l" value="fqqnb33d" />
              <node concept="2V$Bhx" id="1R" role="2x4n5j">
                <property role="2V$B1T" value="b83431fe-5c8f-40bc-8a36-65e25f4dd253" />
                <property role="2V$B1Q" value="jetbrains.mps.lang.textGen" />
              </node>
            </node>
          </node>
        </node>
        <node concept="39e2AT" id="1O" role="39e2AY">
          <ref role="39e2AS" node="2z" resolve="getFileExtension_HandlerAsRoot" />
        </node>
      </node>
    </node>
    <node concept="39e2AJ" id="1H" role="39e2AI">
      <property role="39e3Y2" value="GetFilename" />
      <node concept="39e2AG" id="1S" role="39e3Y0">
        <ref role="39e2AK" to="rnuf:3fG6dkhfgJf" resolve="HandlerAsRoot_TextGen" />
        <node concept="385nmt" id="1T" role="385vvn">
          <property role="385vuF" value="HandlerAsRoot_TextGen" />
          <node concept="2$VJBW" id="1V" role="385v07">
            <property role="2$VJBR" value="3741392693834353615" />
            <node concept="2x4n5u" id="1W" role="3iCydw">
              <property role="2x4mPI" value="ConceptTextGenDeclaration" />
              <property role="2x4o5l" value="false" />
              <property role="2x4n5l" value="fqqnb33d" />
              <node concept="2V$Bhx" id="1X" role="2x4n5j">
                <property role="2V$B1T" value="b83431fe-5c8f-40bc-8a36-65e25f4dd253" />
                <property role="2V$B1Q" value="jetbrains.mps.lang.textGen" />
              </node>
            </node>
          </node>
        </node>
        <node concept="39e2AT" id="1U" role="39e2AY">
          <ref role="39e2AS" node="2y" resolve="getFileName_HandlerAsRoot" />
        </node>
      </node>
    </node>
    <node concept="39e2AJ" id="1I" role="39e2AI">
      <property role="39e3Y2" value="GetTextUnit" />
      <node concept="39e2AG" id="1Y" role="39e3Y0">
        <ref role="39e2AK" to="rnuf:3fG6dkhfgJf" resolve="HandlerAsRoot_TextGen" />
        <node concept="385nmt" id="1Z" role="385vvn">
          <property role="385vuF" value="HandlerAsRoot_TextGen" />
          <node concept="2$VJBW" id="21" role="385v07">
            <property role="2$VJBR" value="3741392693834353615" />
            <node concept="2x4n5u" id="22" role="3iCydw">
              <property role="2x4mPI" value="ConceptTextGenDeclaration" />
              <property role="2x4o5l" value="false" />
              <property role="2x4n5l" value="fqqnb33d" />
              <node concept="2V$Bhx" id="23" role="2x4n5j">
                <property role="2V$B1T" value="b83431fe-5c8f-40bc-8a36-65e25f4dd253" />
                <property role="2V$B1Q" value="jetbrains.mps.lang.textGen" />
              </node>
            </node>
          </node>
        </node>
        <node concept="39e2AT" id="20" role="39e2AY">
          <ref role="39e2AS" node="2$" resolve="createTextUnit0" />
        </node>
      </node>
    </node>
    <node concept="39e2AJ" id="1J" role="39e2AI">
      <property role="39e3Y2" value="LanguageUtilityClass" />
      <node concept="39e2AG" id="24" role="39e3Y0">
        <ref role="39e2AK" to="rnuf:2$ptf_hB9bh" resolve="Auxiliary" />
        <node concept="385nmt" id="25" role="385vvn">
          <property role="385vuF" value="Auxiliary" />
          <node concept="2$VJBW" id="27" role="385v07">
            <property role="2$VJBR" value="2961526844137706193" />
            <node concept="2x4n5u" id="28" role="3iCydw">
              <property role="2x4mPI" value="LanguageTextGenDeclaration" />
              <property role="2x4o5l" value="false" />
              <property role="2x4n5l" value="fqusxd7j" />
              <node concept="2V$Bhx" id="29" role="2x4n5j">
                <property role="2V$B1T" value="b83431fe-5c8f-40bc-8a36-65e25f4dd253" />
                <property role="2V$B1Q" value="jetbrains.mps.lang.textGen" />
              </node>
            </node>
          </node>
        </node>
        <node concept="39e2AT" id="26" role="39e2AY">
          <ref role="39e2AS" node="0" resolve="Auxiliary" />
        </node>
      </node>
    </node>
    <node concept="39e2AJ" id="1K" role="39e2AI">
      <property role="39e3Y2" value="TextGenClass" />
      <node concept="39e2AG" id="2a" role="39e3Y0">
        <ref role="39e2AK" to="rnuf:70B0YGk0iEE" resolve="CommentAttribute2_TextGen" />
        <node concept="385nmt" id="2c" role="385vvn">
          <property role="385vuF" value="CommentAttribute2_TextGen" />
          <node concept="2$VJBW" id="2e" role="385v07">
            <property role="2$VJBR" value="8081432364527463082" />
            <node concept="2x4n5u" id="2f" role="3iCydw">
              <property role="2x4mPI" value="ConceptTextGenDeclaration" />
              <property role="2x4o5l" value="false" />
              <property role="2x4n5l" value="fqqnb33d" />
              <node concept="2V$Bhx" id="2g" role="2x4n5j">
                <property role="2V$B1T" value="b83431fe-5c8f-40bc-8a36-65e25f4dd253" />
                <property role="2V$B1Q" value="jetbrains.mps.lang.textGen" />
              </node>
            </node>
          </node>
        </node>
        <node concept="39e2AT" id="2d" role="39e2AY">
          <ref role="39e2AS" node="c" resolve="CommentAttribute2_TextGen" />
        </node>
      </node>
      <node concept="39e2AG" id="2b" role="39e3Y0">
        <ref role="39e2AK" to="rnuf:6fYGsMY855M" resolve="CommentAttribute_TextGen" />
        <node concept="385nmt" id="2h" role="385vvn">
          <property role="385vuF" value="CommentAttribute_TextGen" />
          <node concept="2$VJBW" id="2j" role="385v07">
            <property role="2$VJBR" value="7205391946760606066" />
            <node concept="2x4n5u" id="2k" role="3iCydw">
              <property role="2x4mPI" value="ConceptTextGenDeclaration" />
              <property role="2x4o5l" value="false" />
              <property role="2x4n5l" value="fqqnb33d" />
              <node concept="2V$Bhx" id="2l" role="2x4n5j">
                <property role="2V$B1T" value="b83431fe-5c8f-40bc-8a36-65e25f4dd253" />
                <property role="2V$B1Q" value="jetbrains.mps.lang.textGen" />
              </node>
            </node>
          </node>
        </node>
        <node concept="39e2AT" id="2i" role="39e2AY">
          <ref role="39e2AS" node="Q" resolve="CommentAttribute_TextGen" />
        </node>
      </node>
    </node>
    <node concept="39e2AJ" id="1L" role="39e2AI">
      <property role="39e3Y2" value="TextGenAspectDescriptorCons" />
      <node concept="39e2AG" id="2m" role="39e3Y0">
        <property role="2mV_xN" value="true" />
        <node concept="39e2AT" id="2n" role="39e2AY">
          <ref role="39e2AS" node="2r" resolve="TextGenAspectDescriptor" />
        </node>
      </node>
    </node>
  </node>
  <node concept="312cEu" id="2o">
    <property role="TrG5h" value="TextGenAspectDescriptor" />
    <node concept="312cEg" id="2p" role="jymVt">
      <property role="TrG5h" value="myIndex" />
      <property role="3TUv4t" value="true" />
      <node concept="3Tm6S6" id="2_" role="1B3o_S" />
      <node concept="2eloPW" id="2A" role="1tU5fm">
        <property role="2ely0U" value="jetbrains.mps.samples.attribute.structure.LanguageConceptSwitch" />
        <ref role="3uigEE" to="tpcf:1OW7rNmnulT" resolve="LanguageConceptSwitch" />
      </node>
      <node concept="2ShNRf" id="2B" role="33vP2m">
        <node concept="xCZzO" id="2C" role="2ShVmc">
          <property role="xCZzQ" value="jetbrains.mps.samples.attribute.structure.LanguageConceptSwitch" />
          <node concept="3uibUv" id="2D" role="xCZzL">
            <ref role="3uigEE" to="tpcf:1OW7rNmnulT" resolve="LanguageConceptSwitch" />
          </node>
        </node>
      </node>
    </node>
    <node concept="2tJIrI" id="2q" role="jymVt" />
    <node concept="3clFbW" id="2r" role="jymVt">
      <node concept="3cqZAl" id="2E" role="3clF45" />
      <node concept="3clFbS" id="2F" role="3clF47" />
      <node concept="3Tm1VV" id="2G" role="1B3o_S" />
    </node>
    <node concept="2tJIrI" id="2s" role="jymVt" />
    <node concept="3Tm1VV" id="2t" role="1B3o_S" />
    <node concept="3uibUv" id="2u" role="1zkMxy">
      <ref role="3uigEE" to="yfwt:~TextGenAspectBase" resolve="TextGenAspectBase" />
    </node>
    <node concept="3clFb_" id="2v" role="jymVt">
      <property role="1EzhhJ" value="false" />
      <property role="TrG5h" value="getDescriptor" />
      <property role="DiZV1" value="false" />
      <property role="IEkAT" value="false" />
      <node concept="3Tm1VV" id="2H" role="1B3o_S" />
      <node concept="3uibUv" id="2I" role="3clF45">
        <ref role="3uigEE" to="yfwt:~TextGenDescriptor" resolve="TextGenDescriptor" />
      </node>
      <node concept="37vLTG" id="2J" role="3clF46">
        <property role="TrG5h" value="concept" />
        <node concept="3bZ5Sz" id="2N" role="1tU5fm" />
        <node concept="2AHcQZ" id="2O" role="2AJF6D">
          <ref role="2AI5Lk" to="mhfm:~NotNull" resolve="NotNull" />
        </node>
      </node>
      <node concept="2AHcQZ" id="2K" role="2AJF6D">
        <ref role="2AI5Lk" to="mhfm:~Nullable" resolve="Nullable" />
      </node>
      <node concept="3clFbS" id="2L" role="3clF47">
        <node concept="3KaCP$" id="2P" role="3cqZAp">
          <node concept="2OqwBi" id="2R" role="3KbGdf">
            <node concept="37vLTw" id="2U" role="2Oq$k0">
              <ref role="3cqZAo" node="2p" resolve="myIndex" />
            </node>
            <node concept="liA8E" id="2V" role="2OqNvi">
              <ref role="37wK5l" to="tpcf:1OW7rNmnuDr" resolve="index" />
              <node concept="37vLTw" id="2W" role="37wK5m">
                <ref role="3cqZAo" node="2J" resolve="concept" />
              </node>
            </node>
          </node>
          <node concept="3KbdKl" id="2S" role="3KbHQx">
            <node concept="1n$iZg" id="2X" role="3Kbmr1">
              <property role="1n_iUB" value="CommentAttribute" />
              <property role="1n_ezw" value="jetbrains.mps.samples.attribute.structure.LanguageConceptSwitch" />
            </node>
            <node concept="3clFbS" id="2Y" role="3Kbo56">
              <node concept="3cpWs6" id="2Z" role="3cqZAp">
                <node concept="2ShNRf" id="30" role="3cqZAk">
                  <node concept="HV5vD" id="31" role="2ShVmc">
                    <ref role="HV5vE" node="Q" resolve="CommentAttribute_TextGen" />
                  </node>
                </node>
              </node>
            </node>
          </node>
          <node concept="3KbdKl" id="2T" role="3KbHQx">
            <node concept="1n$iZg" id="32" role="3Kbmr1">
              <property role="1n_iUB" value="CommentAttribute2" />
              <property role="1n_ezw" value="jetbrains.mps.samples.attribute.structure.LanguageConceptSwitch" />
            </node>
            <node concept="3clFbS" id="33" role="3Kbo56">
              <node concept="3cpWs6" id="34" role="3cqZAp">
                <node concept="2ShNRf" id="35" role="3cqZAk">
                  <node concept="HV5vD" id="36" role="2ShVmc">
                    <ref role="HV5vE" node="c" resolve="CommentAttribute2_TextGen" />
                  </node>
                </node>
              </node>
            </node>
          </node>
        </node>
        <node concept="3cpWs6" id="2Q" role="3cqZAp">
          <node concept="10Nm6u" id="37" role="3cqZAk" />
        </node>
      </node>
      <node concept="2AHcQZ" id="2M" role="2AJF6D">
        <ref role="2AI5Lk" to="wyt6:~Override" resolve="Override" />
      </node>
    </node>
    <node concept="2tJIrI" id="2w" role="jymVt" />
    <node concept="3clFb_" id="2x" role="jymVt">
      <property role="1EzhhJ" value="false" />
      <property role="TrG5h" value="breakdownToUnits" />
      <property role="DiZV1" value="false" />
      <property role="IEkAT" value="false" />
      <node concept="3Tm1VV" id="38" role="1B3o_S" />
      <node concept="3cqZAl" id="39" role="3clF45" />
      <node concept="37vLTG" id="3a" role="3clF46">
        <property role="TrG5h" value="outline" />
        <node concept="3uibUv" id="3d" role="1tU5fm">
          <ref role="3uigEE" to="yfwt:~TextGenModelOutline" resolve="TextGenModelOutline" />
        </node>
        <node concept="2AHcQZ" id="3e" role="2AJF6D">
          <ref role="2AI5Lk" to="mhfm:~NotNull" resolve="NotNull" />
        </node>
      </node>
      <node concept="3clFbS" id="3b" role="3clF47">
        <node concept="1DcWWT" id="3f" role="3cqZAp">
          <node concept="3clFbS" id="3g" role="2LFqv$">
            <node concept="3clFbJ" id="3j" role="3cqZAp">
              <node concept="3clFbS" id="3k" role="3clFbx">
                <node concept="3cpWs8" id="3m" role="3cqZAp">
                  <node concept="3cpWsn" id="3q" role="3cpWs9">
                    <property role="TrG5h" value="fname" />
                    <node concept="3uibUv" id="3r" role="1tU5fm">
                      <ref role="3uigEE" to="wyt6:~String" resolve="String" />
                    </node>
                    <node concept="1rXfSq" id="3s" role="33vP2m">
                      <ref role="37wK5l" node="2y" resolve="getFileName_HandlerAsRoot" />
                      <node concept="37vLTw" id="3t" role="37wK5m">
                        <ref role="3cqZAo" node="3h" resolve="root" />
                      </node>
                    </node>
                  </node>
                </node>
                <node concept="3cpWs8" id="3n" role="3cqZAp">
                  <node concept="3cpWsn" id="3u" role="3cpWs9">
                    <property role="TrG5h" value="ext" />
                    <node concept="3uibUv" id="3v" role="1tU5fm">
                      <ref role="3uigEE" to="wyt6:~String" resolve="String" />
                    </node>
                    <node concept="1rXfSq" id="3w" role="33vP2m">
                      <ref role="37wK5l" node="2z" resolve="getFileExtension_HandlerAsRoot" />
                      <node concept="37vLTw" id="3x" role="37wK5m">
                        <ref role="3cqZAo" node="3h" resolve="root" />
                      </node>
                    </node>
                  </node>
                </node>
                <node concept="3clFbF" id="3o" role="3cqZAp">
                  <node concept="2OqwBi" id="3y" role="3clFbG">
                    <node concept="37vLTw" id="3z" role="2Oq$k0">
                      <ref role="3cqZAo" node="3a" resolve="outline" />
                    </node>
                    <node concept="liA8E" id="3$" role="2OqNvi">
                      <ref role="37wK5l" to="yfwt:~TextGenModelOutline.registerTextUnit(jetbrains.mps.text.TextUnit):void" resolve="registerTextUnit" />
                      <node concept="1rXfSq" id="3_" role="37wK5m">
                        <ref role="37wK5l" node="2$" resolve="createTextUnit0" />
                        <node concept="3K4zz7" id="3A" role="37wK5m">
                          <node concept="1eOMI4" id="3C" role="3K4GZi">
                            <node concept="3cpWs3" id="3F" role="1eOMHV">
                              <node concept="37vLTw" id="3G" role="3uHU7w">
                                <ref role="3cqZAo" node="3u" resolve="ext" />
                              </node>
                              <node concept="3cpWs3" id="3H" role="3uHU7B">
                                <node concept="37vLTw" id="3I" role="3uHU7B">
                                  <ref role="3cqZAo" node="3q" resolve="fname" />
                                </node>
                                <node concept="1Xhbcc" id="3J" role="3uHU7w">
                                  <property role="1XhdNS" value="." />
                                </node>
                              </node>
                            </node>
                          </node>
                          <node concept="37vLTw" id="3D" role="3K4E3e">
                            <ref role="3cqZAo" node="3q" resolve="fname" />
                          </node>
                          <node concept="3clFbC" id="3E" role="3K4Cdx">
                            <node concept="10Nm6u" id="3K" role="3uHU7w" />
                            <node concept="37vLTw" id="3L" role="3uHU7B">
                              <ref role="3cqZAo" node="3u" resolve="ext" />
                            </node>
                          </node>
                        </node>
                        <node concept="37vLTw" id="3B" role="37wK5m">
                          <ref role="3cqZAo" node="3h" resolve="root" />
                        </node>
                      </node>
                    </node>
                  </node>
                </node>
                <node concept="3N13vt" id="3p" role="3cqZAp" />
              </node>
              <node concept="2OqwBi" id="3l" role="3clFbw">
                <node concept="2OqwBi" id="3M" role="2Oq$k0">
                  <node concept="37vLTw" id="3O" role="2Oq$k0">
                    <ref role="3cqZAo" node="3h" resolve="root" />
                  </node>
                  <node concept="liA8E" id="3P" role="2OqNvi">
                    <ref role="37wK5l" to="mhbf:~SNode.getConcept():org.jetbrains.mps.openapi.language.SConcept" resolve="getConcept" />
                  </node>
                </node>
                <node concept="liA8E" id="3N" role="2OqNvi">
                  <ref role="37wK5l" to="wyt6:~Object.equals(java.lang.Object):boolean" resolve="equals" />
                  <node concept="35c_gC" id="3Q" role="37wK5m">
                    <ref role="35c_gD" to="t1gd:3fG6dkheFNp" resolve="HandlerAsRoot" />
                  </node>
                </node>
              </node>
            </node>
          </node>
          <node concept="3cpWsn" id="3h" role="1Duv9x">
            <property role="TrG5h" value="root" />
            <node concept="3uibUv" id="3R" role="1tU5fm">
              <ref role="3uigEE" to="mhbf:~SNode" resolve="SNode" />
            </node>
          </node>
          <node concept="2OqwBi" id="3i" role="1DdaDG">
            <node concept="2OqwBi" id="3S" role="2Oq$k0">
              <node concept="37vLTw" id="3U" role="2Oq$k0">
                <ref role="3cqZAo" node="3a" resolve="outline" />
              </node>
              <node concept="liA8E" id="3V" role="2OqNvi">
                <ref role="37wK5l" to="yfwt:~TextGenModelOutline.getModel():org.jetbrains.mps.openapi.model.SModel" resolve="getModel" />
              </node>
            </node>
            <node concept="liA8E" id="3T" role="2OqNvi">
              <ref role="37wK5l" to="mhbf:~SModel.getRootNodes():java.lang.Iterable" resolve="getRootNodes" />
            </node>
          </node>
        </node>
      </node>
      <node concept="2AHcQZ" id="3c" role="2AJF6D">
        <ref role="2AI5Lk" to="wyt6:~Override" resolve="Override" />
      </node>
    </node>
    <node concept="2YIFZL" id="2y" role="jymVt">
      <property role="od$2w" value="false" />
      <property role="DiZV1" value="false" />
      <property role="2aFKle" value="false" />
      <property role="TrG5h" value="getFileName_HandlerAsRoot" />
      <node concept="3clFbS" id="3W" role="3clF47">
        <node concept="3cpWs6" id="40" role="3cqZAp">
          <node concept="2OqwBi" id="41" role="3cqZAk">
            <node concept="37vLTw" id="42" role="2Oq$k0">
              <ref role="3cqZAo" node="3Z" resolve="node" />
            </node>
            <node concept="liA8E" id="43" role="2OqNvi">
              <ref role="37wK5l" to="mhbf:~SNode.getName():java.lang.String" resolve="getName" />
            </node>
          </node>
        </node>
      </node>
      <node concept="3Tm6S6" id="3X" role="1B3o_S" />
      <node concept="3uibUv" id="3Y" role="3clF45">
        <ref role="3uigEE" to="wyt6:~String" resolve="String" />
      </node>
      <node concept="37vLTG" id="3Z" role="3clF46">
        <property role="TrG5h" value="node" />
        <node concept="3uibUv" id="44" role="1tU5fm">
          <ref role="3uigEE" to="mhbf:~SNode" resolve="SNode" />
        </node>
      </node>
    </node>
    <node concept="2YIFZL" id="2z" role="jymVt">
      <property role="od$2w" value="false" />
      <property role="DiZV1" value="false" />
      <property role="2aFKle" value="false" />
      <property role="TrG5h" value="getFileExtension_HandlerAsRoot" />
      <node concept="3clFbS" id="45" role="3clF47">
        <node concept="3cpWs6" id="49" role="3cqZAp">
          <node concept="10Nm6u" id="4a" role="3cqZAk" />
        </node>
      </node>
      <node concept="3Tm6S6" id="46" role="1B3o_S" />
      <node concept="3uibUv" id="47" role="3clF45">
        <ref role="3uigEE" to="wyt6:~String" resolve="String" />
      </node>
      <node concept="37vLTG" id="48" role="3clF46">
        <property role="TrG5h" value="node" />
        <node concept="3uibUv" id="4b" role="1tU5fm">
          <ref role="3uigEE" to="mhbf:~SNode" resolve="SNode" />
        </node>
      </node>
    </node>
    <node concept="2YIFZL" id="2$" role="jymVt">
      <property role="od$2w" value="false" />
      <property role="DiZV1" value="false" />
      <property role="2aFKle" value="false" />
      <property role="TrG5h" value="createTextUnit0" />
      <node concept="3clFbS" id="4c" role="3clF47">
        <node concept="3cpWs8" id="4h" role="3cqZAp">
          <node concept="3cpWsn" id="4r" role="3cpWs9">
            <property role="TrG5h" value="lb" />
            <node concept="3uibUv" id="4s" role="1tU5fm">
              <ref role="3uigEE" to="kpbf:~BufferLayoutBuilder" resolve="BufferLayoutBuilder" />
            </node>
            <node concept="2ShNRf" id="4t" role="33vP2m">
              <node concept="1pGfFk" id="4u" role="2ShVmc">
                <ref role="37wK5l" to="kpbf:~BufferLayoutBuilder.&lt;init&gt;()" resolve="BufferLayoutBuilder" />
              </node>
            </node>
          </node>
        </node>
        <node concept="3clFbF" id="4i" role="3cqZAp">
          <node concept="2OqwBi" id="4v" role="3clFbG">
            <node concept="37vLTw" id="4w" role="2Oq$k0">
              <ref role="3cqZAo" node="4r" resolve="lb" />
            </node>
            <node concept="liA8E" id="4x" role="2OqNvi">
              <ref role="37wK5l" to="kpbf:~BufferLayoutBuilder.add(java.lang.Object):jetbrains.mps.text.impl.BufferLayoutBuilder" resolve="add" />
              <node concept="Xl_RD" id="4y" role="37wK5m">
                <property role="Xl_RC" value="HEADER" />
              </node>
            </node>
          </node>
        </node>
        <node concept="3clFbF" id="4j" role="3cqZAp">
          <node concept="2OqwBi" id="4z" role="3clFbG">
            <node concept="37vLTw" id="4$" role="2Oq$k0">
              <ref role="3cqZAo" node="4r" resolve="lb" />
            </node>
            <node concept="liA8E" id="4_" role="2OqNvi">
              <ref role="37wK5l" to="kpbf:~BufferLayoutBuilder.add(java.lang.Object):jetbrains.mps.text.impl.BufferLayoutBuilder" resolve="add" />
              <node concept="Xl_RD" id="4A" role="37wK5m">
                <property role="Xl_RC" value="IMPORTS" />
              </node>
            </node>
          </node>
        </node>
        <node concept="3clFbF" id="4k" role="3cqZAp">
          <node concept="2OqwBi" id="4B" role="3clFbG">
            <node concept="37vLTw" id="4C" role="2Oq$k0">
              <ref role="3cqZAo" node="4r" resolve="lb" />
            </node>
            <node concept="liA8E" id="4D" role="2OqNvi">
              <ref role="37wK5l" to="kpbf:~BufferLayoutBuilder.add(java.lang.Object):jetbrains.mps.text.impl.BufferLayoutBuilder" resolve="add" />
              <node concept="Xl_RD" id="4E" role="37wK5m">
                <property role="Xl_RC" value="SEPARATOR" />
              </node>
            </node>
          </node>
        </node>
        <node concept="3clFbF" id="4l" role="3cqZAp">
          <node concept="2OqwBi" id="4F" role="3clFbG">
            <node concept="37vLTw" id="4G" role="2Oq$k0">
              <ref role="3cqZAo" node="4r" resolve="lb" />
            </node>
            <node concept="liA8E" id="4H" role="2OqNvi">
              <ref role="37wK5l" to="kpbf:~BufferLayoutBuilder.add(java.lang.Object):jetbrains.mps.text.impl.BufferLayoutBuilder" resolve="add" />
              <node concept="Xl_RD" id="4I" role="37wK5m">
                <property role="Xl_RC" value="BODY" />
              </node>
            </node>
          </node>
        </node>
        <node concept="3clFbF" id="4m" role="3cqZAp">
          <node concept="2OqwBi" id="4J" role="3clFbG">
            <node concept="37vLTw" id="4K" role="2Oq$k0">
              <ref role="3cqZAo" node="4r" resolve="lb" />
            </node>
            <node concept="liA8E" id="4L" role="2OqNvi">
              <ref role="37wK5l" to="kpbf:~BufferLayoutBuilder.activate(java.lang.Object):jetbrains.mps.text.impl.BufferLayoutBuilder" resolve="activate" />
              <node concept="Xl_RD" id="4M" role="37wK5m">
                <property role="Xl_RC" value="BODY" />
              </node>
            </node>
          </node>
        </node>
        <node concept="3cpWs8" id="4n" role="3cqZAp">
          <node concept="3cpWsn" id="4N" role="3cpWs9">
            <property role="TrG5h" value="rv" />
            <node concept="3uibUv" id="4O" role="1tU5fm">
              <ref role="3uigEE" to="kpbf:~RegularTextUnit" resolve="RegularTextUnit" />
            </node>
            <node concept="2ShNRf" id="4P" role="33vP2m">
              <node concept="1pGfFk" id="4Q" role="2ShVmc">
                <ref role="37wK5l" to="kpbf:~RegularTextUnit.&lt;init&gt;(org.jetbrains.mps.openapi.model.SNode,java.lang.String,java.nio.charset.Charset)" resolve="RegularTextUnit" />
                <node concept="37vLTw" id="4R" role="37wK5m">
                  <ref role="3cqZAo" node="4g" resolve="node" />
                </node>
                <node concept="37vLTw" id="4S" role="37wK5m">
                  <ref role="3cqZAo" node="4f" resolve="filename" />
                </node>
                <node concept="10Nm6u" id="4T" role="37wK5m" />
              </node>
            </node>
          </node>
        </node>
        <node concept="3clFbF" id="4o" role="3cqZAp">
          <node concept="2OqwBi" id="4U" role="3clFbG">
            <node concept="37vLTw" id="4V" role="2Oq$k0">
              <ref role="3cqZAo" node="4N" resolve="rv" />
            </node>
            <node concept="liA8E" id="4W" role="2OqNvi">
              <ref role="37wK5l" to="kpbf:~RegularTextUnit.setBufferLayout(jetbrains.mps.text.impl.BufferLayoutConfiguration):void" resolve="setBufferLayout" />
              <node concept="2OqwBi" id="4X" role="37wK5m">
                <node concept="37vLTw" id="4Y" role="2Oq$k0">
                  <ref role="3cqZAo" node="4r" resolve="lb" />
                </node>
                <node concept="liA8E" id="4Z" role="2OqNvi">
                  <ref role="37wK5l" to="kpbf:~BufferLayoutBuilder.create():jetbrains.mps.text.impl.BufferLayoutConfiguration" resolve="create" />
                </node>
              </node>
            </node>
          </node>
        </node>
        <node concept="3clFbF" id="4p" role="3cqZAp">
          <node concept="2OqwBi" id="50" role="3clFbG">
            <node concept="37vLTw" id="51" role="2Oq$k0">
              <ref role="3cqZAo" node="4N" resolve="rv" />
            </node>
            <node concept="liA8E" id="52" role="2OqNvi">
              <ref role="37wK5l" to="kpbf:~RegularTextUnit.addContextObject(java.lang.String,java.lang.Object):void" resolve="addContextObject" />
              <node concept="Xl_RD" id="53" role="37wK5m">
                <property role="Xl_RC" value="ctx" />
              </node>
              <node concept="2YIFZM" id="54" role="37wK5m">
                <ref role="1Pybhc" node="0" resolve="Auxiliary" />
                <ref role="37wK5l" node="2" resolve="contextObjectInstance_ctx" />
                <node concept="37vLTw" id="55" role="37wK5m">
                  <ref role="3cqZAo" node="4g" resolve="node" />
                </node>
              </node>
            </node>
          </node>
        </node>
        <node concept="3cpWs6" id="4q" role="3cqZAp">
          <node concept="37vLTw" id="56" role="3cqZAk">
            <ref role="3cqZAo" node="4N" resolve="rv" />
          </node>
        </node>
      </node>
      <node concept="3Tm6S6" id="4d" role="1B3o_S" />
      <node concept="3uibUv" id="4e" role="3clF45">
        <ref role="3uigEE" to="ao3:~TextUnit" resolve="TextUnit" />
      </node>
      <node concept="37vLTG" id="4f" role="3clF46">
        <property role="TrG5h" value="filename" />
        <node concept="3uibUv" id="57" role="1tU5fm">
          <ref role="3uigEE" to="wyt6:~String" resolve="String" />
        </node>
      </node>
      <node concept="37vLTG" id="4g" role="3clF46">
        <property role="TrG5h" value="node" />
        <node concept="3uibUv" id="58" role="1tU5fm">
          <ref role="3uigEE" to="mhbf:~SNode" resolve="SNode" />
        </node>
      </node>
    </node>
  </node>
</model>

