<?xml version="1.0" encoding="UTF-8"?>
<model ref="r:801736ac-10f8-4a89-84dc-330faeba8f1d(migratingSolution.sandbox)" doNotGenerate="true">
  <persistence version="9" />
  <languages>
    <use id="a59395ba-5d94-4758-a87c-b11e086d5491" name="updatedLanguage" version="1" />
  </languages>
  <imports />
  <registry>
    <language id="a59395ba-5d94-4758-a87c-b11e086d5491" name="updatedLanguage">
      <concept id="297352798234498871" name="updatedLanguage.structure.MigratingConcept" flags="lg" index="1zB3ZW">
        <property id="297352798234498958" name="value" index="1zB3X5" />
        <property id="297352798234520719" name="newvalue" index="1zBch4" />
      </concept>
      <concept id="8423788195543355369" name="updatedLanguage.structure.RootConcept" flags="ng" index="3AAG5i">
        <child id="8423788195543476700" name="child" index="3AA2tB" />
      </concept>
    </language>
  </registry>
  <node concept="3AAG5i" id="7jBjFIiwcgy">
    <node concept="1zB3ZW" id="7jBjFIiwcgz" role="3AA2tB">
      <property role="1zB3X5" value="239" />
      <property role="1zBch4" value="239" />
    </node>
  </node>
</model>

