<?xml version="1.0" encoding="UTF-8"?>
<model ref="r:9fe3b5b8-3b82-4c46-a9a9-5eb7cd2665a4(jetbrains.mps.baseLanguage.checkedDots.generator.referenceUtils)">
  <persistence version="9" />
  <languages>
    <devkit ref="a2eb3a43-fcc2-4200-80dc-c60110c4862d(jetbrains.mps.devkit.templates)" />
  </languages>
  <imports>
    <import index="tpck" ref="r:00000000-0000-4000-0000-011c89590288(jetbrains.mps.lang.core.structure)" implicit="true" />
    <import index="tpee" ref="r:00000000-0000-4000-0000-011c895902ca(jetbrains.mps.baseLanguage.structure)" implicit="true" />
  </imports>
  <registry>
    <language id="f3061a53-9226-4cc5-a443-f952ceaf5816" name="jetbrains.mps.baseLanguage">
      <concept id="4836112446988635817" name="jetbrains.mps.baseLanguage.structure.UndefinedType" flags="in" index="2jxLKc" />
      <concept id="1465982738277781862" name="jetbrains.mps.baseLanguage.structure.PlaceholderMember" flags="ng" index="2tJIrI" />
      <concept id="1197027756228" name="jetbrains.mps.baseLanguage.structure.DotExpression" flags="nn" index="2OqwBi">
        <child id="1197027771414" name="operand" index="2Oq$k0" />
        <child id="1197027833540" name="operation" index="2OqNvi" />
      </concept>
      <concept id="1081236700938" name="jetbrains.mps.baseLanguage.structure.StaticMethodDeclaration" flags="ig" index="2YIFZL" />
      <concept id="1081236700937" name="jetbrains.mps.baseLanguage.structure.StaticMethodCall" flags="nn" index="2YIFZM">
        <reference id="1144433194310" name="classConcept" index="1Pybhc" />
      </concept>
      <concept id="1068390468198" name="jetbrains.mps.baseLanguage.structure.ClassConcept" flags="ig" index="312cEu" />
      <concept id="1068431474542" name="jetbrains.mps.baseLanguage.structure.VariableDeclaration" flags="ng" index="33uBYm">
        <child id="1068431790190" name="initializer" index="33vP2m" />
      </concept>
      <concept id="1068498886296" name="jetbrains.mps.baseLanguage.structure.VariableReference" flags="nn" index="37vLTw">
        <reference id="1068581517664" name="variableDeclaration" index="3cqZAo" />
      </concept>
      <concept id="1068498886292" name="jetbrains.mps.baseLanguage.structure.ParameterDeclaration" flags="ir" index="37vLTG" />
      <concept id="4972933694980447171" name="jetbrains.mps.baseLanguage.structure.BaseVariableDeclaration" flags="ng" index="19Szcq">
        <child id="5680397130376446158" name="type" index="1tU5fm" />
      </concept>
      <concept id="1068580123132" name="jetbrains.mps.baseLanguage.structure.BaseMethodDeclaration" flags="ng" index="3clF44">
        <property id="4276006055363816570" name="isSynchronized" index="od$2w" />
        <property id="1181808852946" name="isFinal" index="DiZV1" />
        <child id="1068580123133" name="returnType" index="3clF45" />
        <child id="1068580123134" name="parameter" index="3clF46" />
        <child id="1068580123135" name="body" index="3clF47" />
      </concept>
      <concept id="1068580123157" name="jetbrains.mps.baseLanguage.structure.Statement" flags="nn" index="3clFbH" />
      <concept id="1068580123136" name="jetbrains.mps.baseLanguage.structure.StatementList" flags="sn" stub="5293379017992965193" index="3clFbS">
        <child id="1068581517665" name="statement" index="3cqZAp" />
      </concept>
      <concept id="1068581242878" name="jetbrains.mps.baseLanguage.structure.ReturnStatement" flags="nn" index="3cpWs6">
        <child id="1068581517676" name="expression" index="3cqZAk" />
      </concept>
      <concept id="1068581242864" name="jetbrains.mps.baseLanguage.structure.LocalVariableDeclarationStatement" flags="nn" index="3cpWs8">
        <child id="1068581242865" name="localVariableDeclaration" index="3cpWs9" />
      </concept>
      <concept id="1068581242863" name="jetbrains.mps.baseLanguage.structure.LocalVariableDeclaration" flags="nr" index="3cpWsn" />
      <concept id="1081516740877" name="jetbrains.mps.baseLanguage.structure.NotExpression" flags="nn" index="3fqX7Q">
        <child id="1081516765348" name="expression" index="3fr31v" />
      </concept>
      <concept id="1204053956946" name="jetbrains.mps.baseLanguage.structure.IMethodCall" flags="ng" index="1ndlxa">
        <reference id="1068499141037" name="baseMethodDeclaration" index="37wK5l" />
        <child id="1068499141038" name="actualArgument" index="37wK5m" />
      </concept>
      <concept id="1107461130800" name="jetbrains.mps.baseLanguage.structure.Classifier" flags="ng" index="3pOWGL">
        <child id="5375687026011219971" name="member" index="jymVt" unordered="true" />
      </concept>
      <concept id="7812454656619025416" name="jetbrains.mps.baseLanguage.structure.MethodDeclaration" flags="ng" index="1rXfSm">
        <property id="8355037393041754995" name="isNative" index="2aFKle" />
      </concept>
      <concept id="1178549954367" name="jetbrains.mps.baseLanguage.structure.IVisible" flags="ng" index="1B3ioH">
        <child id="1178549979242" name="visibility" index="1B3o_S" />
      </concept>
      <concept id="1146644602865" name="jetbrains.mps.baseLanguage.structure.PublicVisibility" flags="nn" index="3Tm1VV" />
      <concept id="1146644623116" name="jetbrains.mps.baseLanguage.structure.PrivateVisibility" flags="nn" index="3Tm6S6" />
    </language>
    <language id="fd392034-7849-419d-9071-12563d152375" name="jetbrains.mps.baseLanguage.closures">
      <concept id="1199569711397" name="jetbrains.mps.baseLanguage.closures.structure.ClosureLiteral" flags="nn" index="1bVj0M">
        <child id="1199569906740" name="parameter" index="1bW2Oz" />
        <child id="1199569916463" name="body" index="1bW5cS" />
      </concept>
    </language>
    <language id="7866978e-a0f0-4cc7-81bc-4d213d9375e1" name="jetbrains.mps.lang.smodel">
      <concept id="1177026924588" name="jetbrains.mps.lang.smodel.structure.RefConcept_Reference" flags="nn" index="chp4Y">
        <reference id="1177026940964" name="conceptDeclaration" index="cht4Q" />
      </concept>
      <concept id="1138411891628" name="jetbrains.mps.lang.smodel.structure.SNodeOperation" flags="nn" index="eCIE_">
        <child id="1144104376918" name="parameter" index="1xVPHs" />
      </concept>
      <concept id="1145383075378" name="jetbrains.mps.lang.smodel.structure.SNodeListType" flags="in" index="2I9FWS">
        <reference id="1145383142433" name="elementConcept" index="2I9WkF" />
      </concept>
      <concept id="1171305280644" name="jetbrains.mps.lang.smodel.structure.Node_GetDescendantsOperation" flags="nn" index="2Rf3mk" />
      <concept id="1171407110247" name="jetbrains.mps.lang.smodel.structure.Node_GetAncestorOperation" flags="nn" index="2Xjw5R" />
      <concept id="1154546920561" name="jetbrains.mps.lang.smodel.structure.OperationParm_ConceptList" flags="ng" index="3gmYPX">
        <child id="1154546920563" name="concept" index="3gmYPZ" />
      </concept>
      <concept id="1154546950173" name="jetbrains.mps.lang.smodel.structure.ConceptReference" flags="ng" index="3gn64h">
        <reference id="1154546997487" name="concept" index="3gnhBz" />
      </concept>
      <concept id="1144100932627" name="jetbrains.mps.lang.smodel.structure.OperationParm_Inclusion" flags="ng" index="1xIGOp" />
      <concept id="1144101972840" name="jetbrains.mps.lang.smodel.structure.OperationParm_Concept" flags="ng" index="1xMEDy">
        <child id="1207343664468" name="conceptArgument" index="ri$Ld" />
      </concept>
      <concept id="1138055754698" name="jetbrains.mps.lang.smodel.structure.SNodeType" flags="in" index="3Tqbb2">
        <reference id="1138405853777" name="concept" index="ehGHo" />
      </concept>
    </language>
    <language id="ceab5195-25ea-4f22-9b92-103b95ca8c0c" name="jetbrains.mps.lang.core">
      <concept id="1169194658468" name="jetbrains.mps.lang.core.structure.INamedConcept" flags="ng" index="TrEIO">
        <property id="1169194664001" name="name" index="TrG5h" />
      </concept>
    </language>
    <language id="83888646-71ce-4f1c-9c53-c54016f6ad4f" name="jetbrains.mps.baseLanguage.collections">
      <concept id="1204796164442" name="jetbrains.mps.baseLanguage.collections.structure.InternalSequenceOperation" flags="nn" index="23sCx2">
        <child id="1204796294226" name="closure" index="23t8la" />
      </concept>
      <concept id="540871147943773365" name="jetbrains.mps.baseLanguage.collections.structure.SingleArgumentSequenceOperation" flags="nn" index="25WWJ4">
        <child id="540871147943773366" name="argument" index="25WWJ7" />
      </concept>
      <concept id="1151689724996" name="jetbrains.mps.baseLanguage.collections.structure.SequenceType" flags="in" index="A3Dl8">
        <child id="1151689745422" name="elementType" index="A3Ik2" />
      </concept>
      <concept id="1203518072036" name="jetbrains.mps.baseLanguage.collections.structure.SmartClosureParameterDeclaration" flags="ig" index="Rh6nW" />
      <concept id="1202120902084" name="jetbrains.mps.baseLanguage.collections.structure.WhereOperation" flags="nn" index="3zZkjj" />
      <concept id="1172254888721" name="jetbrains.mps.baseLanguage.collections.structure.ContainsOperation" flags="nn" index="3JPx81" />
    </language>
  </registry>
  <node concept="312cEu" id="gvjHH0mY3s">
    <property role="TrG5h" value="ReferenceConversionHelper" />
    <node concept="2tJIrI" id="gvjHH0rxQh" role="jymVt" />
    <node concept="2YIFZL" id="gvjHH0mYjY" role="jymVt">
      <property role="TrG5h" value="retrieveDescendentRefs" />
      <property role="od$2w" value="false" />
      <property role="DiZV1" value="false" />
      <property role="2aFKle" value="false" />
      <node concept="3clFbS" id="gvjHH0mYk1" role="3clF47">
        <node concept="3cpWs8" id="gvjHH0lFMM" role="3cqZAp">
          <node concept="3cpWsn" id="gvjHH0lFMN" role="3cpWs9">
            <property role="TrG5h" value="flowInterruptors" />
            <node concept="2I9FWS" id="gvjHH0lFMO" role="1tU5fm">
              <ref role="2I9WkF" to="tpck:gw2VY9q" resolve="BaseConcept" />
            </node>
            <node concept="2YIFZM" id="gvjHH0pgj4" role="33vP2m">
              <ref role="1Pybhc" node="gvjHH0mY3s" resolve="ReferenceConversionHelper" />
              <ref role="37wK5l" node="gvjHH0pgj0" resolve="retrieveFlowInterruptors" />
              <node concept="37vLTw" id="gvjHH0pgj3" role="37wK5m">
                <ref role="3cqZAo" node="gvjHH0mZ0v" resolve="node" />
              </node>
            </node>
          </node>
        </node>
        <node concept="3clFbH" id="gvjHH0lC1d" role="3cqZAp" />
        <node concept="3cpWs6" id="gvjHH0mhcg" role="3cqZAp">
          <node concept="2OqwBi" id="gvjHH0mv4k" role="3cqZAk">
            <node concept="2OqwBi" id="gvjHH0mv4l" role="2Oq$k0">
              <node concept="37vLTw" id="gvjHH0n0lA" role="2Oq$k0">
                <ref role="3cqZAo" node="gvjHH0mZ0v" resolve="node" />
              </node>
              <node concept="2Rf3mk" id="gvjHH0mv4p" role="2OqNvi">
                <node concept="1xMEDy" id="gvjHH0mv4q" role="1xVPHs">
                  <node concept="chp4Y" id="gvjHH0mv4r" role="ri$Ld">
                    <ref role="cht4Q" to="tpee:SORzhOp6jM" resolve="IVariableReference" />
                  </node>
                </node>
              </node>
            </node>
            <node concept="3zZkjj" id="gvjHH0mv4s" role="2OqNvi">
              <node concept="1bVj0M" id="gvjHH0mv4t" role="23t8la">
                <node concept="3clFbS" id="gvjHH0mv4u" role="1bW5cS">
                  <node concept="3cpWs6" id="gvjHH0mv4v" role="3cqZAp">
                    <node concept="3fqX7Q" id="gvjHH0mv4w" role="3cqZAk">
                      <node concept="2OqwBi" id="gvjHH0mv4x" role="3fr31v">
                        <node concept="37vLTw" id="gvjHH0mv4y" role="2Oq$k0">
                          <ref role="3cqZAo" node="gvjHH0lFMN" resolve="flowInterruptors" />
                        </node>
                        <node concept="3JPx81" id="gvjHH0mv4z" role="2OqNvi">
                          <node concept="2OqwBi" id="gvjHH0mv4$" role="25WWJ7">
                            <node concept="37vLTw" id="gvjHH0mv4_" role="2Oq$k0">
                              <ref role="3cqZAo" node="gvjHH0mv4F" resolve="ref" />
                            </node>
                            <node concept="2Xjw5R" id="gvjHH0mv4A" role="2OqNvi">
                              <node concept="3gmYPX" id="gvjHH0mv4B" role="1xVPHs">
                                <node concept="3gn64h" id="gvjHH0mv4C" role="3gmYPZ">
                                  <ref role="3gnhBz" to="tpee:7M5lxl52eA0" resolve="IControlFlowInterrupter" />
                                </node>
                                <node concept="3gn64h" id="gvjHH0mv4D" role="3gmYPZ">
                                  <ref role="3gnhBz" to="tpee:htgVS9_" resolve="IStatementListContainer" />
                                </node>
                                <node concept="3gn64h" id="gvjHH0mv4E" role="3gmYPZ">
                                  <ref role="3gnhBz" to="tpee:i0zv2NF" resolve="IContainsStatementList" />
                                </node>
                              </node>
                            </node>
                          </node>
                        </node>
                      </node>
                    </node>
                  </node>
                </node>
                <node concept="Rh6nW" id="gvjHH0mv4F" role="1bW2Oz">
                  <property role="TrG5h" value="ref" />
                  <node concept="2jxLKc" id="gvjHH0mv4G" role="1tU5fm" />
                </node>
              </node>
            </node>
          </node>
        </node>
      </node>
      <node concept="3Tm1VV" id="gvjHH0mYeE" role="1B3o_S" />
      <node concept="37vLTG" id="gvjHH0mZ0v" role="3clF46">
        <property role="TrG5h" value="node" />
        <node concept="3Tqbb2" id="gvjHH0mZ0u" role="1tU5fm" />
      </node>
      <node concept="A3Dl8" id="gvjHH0n0QF" role="3clF45">
        <node concept="3Tqbb2" id="gvjHH0n0QI" role="A3Ik2">
          <ref role="ehGHo" to="tpee:SORzhOp6jM" resolve="IVariableReference" />
        </node>
      </node>
    </node>
    <node concept="2tJIrI" id="gvjHH0rxMu" role="jymVt" />
    <node concept="2YIFZL" id="gvjHH0p4zK" role="jymVt">
      <property role="TrG5h" value="retrieveDescendentMethodCalls" />
      <property role="od$2w" value="false" />
      <property role="DiZV1" value="false" />
      <property role="2aFKle" value="false" />
      <node concept="3clFbS" id="gvjHH0p4zL" role="3clF47">
        <node concept="3cpWs8" id="gvjHH0plh6" role="3cqZAp">
          <node concept="3cpWsn" id="gvjHH0plh7" role="3cpWs9">
            <property role="TrG5h" value="flowInterruptors" />
            <node concept="2I9FWS" id="gvjHH0plh8" role="1tU5fm">
              <ref role="2I9WkF" to="tpck:gw2VY9q" resolve="BaseConcept" />
            </node>
            <node concept="2YIFZM" id="gvjHH0plh9" role="33vP2m">
              <ref role="1Pybhc" node="gvjHH0mY3s" resolve="ReferenceConversionHelper" />
              <ref role="37wK5l" node="gvjHH0pgj0" resolve="retrieveFlowInterruptors" />
              <node concept="37vLTw" id="gvjHH0plha" role="37wK5m">
                <ref role="3cqZAo" node="gvjHH0p4$m" resolve="node" />
              </node>
            </node>
          </node>
        </node>
        <node concept="3clFbH" id="gvjHH0pjRu" role="3cqZAp" />
        <node concept="3cpWs6" id="gvjHH0plIg" role="3cqZAp">
          <node concept="2OqwBi" id="gvjHH0plIi" role="3cqZAk">
            <node concept="2OqwBi" id="gvjHH0plIj" role="2Oq$k0">
              <node concept="37vLTw" id="gvjHH0plIk" role="2Oq$k0">
                <ref role="3cqZAo" node="gvjHH0p4$m" resolve="node" />
              </node>
              <node concept="2Rf3mk" id="gvjHH0plIl" role="2OqNvi">
                <node concept="1xMEDy" id="gvjHH0plIm" role="1xVPHs">
                  <node concept="chp4Y" id="gvjHH0plIn" role="ri$Ld">
                    <ref role="cht4Q" to="tpee:hxndl_i" resolve="IMethodCall" />
                  </node>
                </node>
                <node concept="1xIGOp" id="4rZDlxW8q3H" role="1xVPHs" />
              </node>
            </node>
            <node concept="3zZkjj" id="gvjHH0plIo" role="2OqNvi">
              <node concept="1bVj0M" id="gvjHH0plIp" role="23t8la">
                <node concept="3clFbS" id="gvjHH0plIq" role="1bW5cS">
                  <node concept="3cpWs6" id="gvjHH0plIr" role="3cqZAp">
                    <node concept="3fqX7Q" id="gvjHH0plIs" role="3cqZAk">
                      <node concept="2OqwBi" id="gvjHH0plIt" role="3fr31v">
                        <node concept="37vLTw" id="gvjHH0plIu" role="2Oq$k0">
                          <ref role="3cqZAo" node="gvjHH0plh7" resolve="flowInterruptors" />
                        </node>
                        <node concept="3JPx81" id="gvjHH0plIv" role="2OqNvi">
                          <node concept="2OqwBi" id="gvjHH0plIw" role="25WWJ7">
                            <node concept="37vLTw" id="gvjHH0plIx" role="2Oq$k0">
                              <ref role="3cqZAo" node="gvjHH0plIB" resolve="call" />
                            </node>
                            <node concept="2Xjw5R" id="gvjHH0plIy" role="2OqNvi">
                              <node concept="3gmYPX" id="gvjHH0plIz" role="1xVPHs">
                                <node concept="3gn64h" id="gvjHH0plI$" role="3gmYPZ">
                                  <ref role="3gnhBz" to="tpee:7M5lxl52eA0" resolve="IControlFlowInterrupter" />
                                </node>
                                <node concept="3gn64h" id="gvjHH0plI_" role="3gmYPZ">
                                  <ref role="3gnhBz" to="tpee:htgVS9_" resolve="IStatementListContainer" />
                                </node>
                                <node concept="3gn64h" id="gvjHH0plIA" role="3gmYPZ">
                                  <ref role="3gnhBz" to="tpee:i0zv2NF" resolve="IContainsStatementList" />
                                </node>
                              </node>
                            </node>
                          </node>
                        </node>
                      </node>
                    </node>
                  </node>
                </node>
                <node concept="Rh6nW" id="gvjHH0plIB" role="1bW2Oz">
                  <property role="TrG5h" value="call" />
                  <node concept="2jxLKc" id="gvjHH0plIC" role="1tU5fm" />
                </node>
              </node>
            </node>
          </node>
        </node>
      </node>
      <node concept="3Tm1VV" id="gvjHH0p4$l" role="1B3o_S" />
      <node concept="37vLTG" id="gvjHH0p4$m" role="3clF46">
        <property role="TrG5h" value="node" />
        <node concept="3Tqbb2" id="gvjHH0p4$n" role="1tU5fm" />
      </node>
      <node concept="A3Dl8" id="gvjHH0p4$o" role="3clF45">
        <node concept="3Tqbb2" id="gvjHH0p4$p" role="A3Ik2">
          <ref role="ehGHo" to="tpee:hxndl_i" resolve="IMethodCall" />
        </node>
      </node>
    </node>
    <node concept="2tJIrI" id="gvjHH0rxU5" role="jymVt" />
    <node concept="2YIFZL" id="gvjHH0pgj0" role="jymVt">
      <property role="TrG5h" value="retrieveFlowInterruptors" />
      <node concept="3Tm6S6" id="gvjHH0pgj1" role="1B3o_S" />
      <node concept="2I9FWS" id="gvjHH0pgj2" role="3clF45">
        <ref role="2I9WkF" to="tpck:gw2VY9q" resolve="BaseConcept" />
      </node>
      <node concept="37vLTG" id="gvjHH0pg1Y" role="3clF46">
        <property role="TrG5h" value="node" />
        <node concept="3Tqbb2" id="gvjHH0pg1Z" role="1tU5fm" />
      </node>
      <node concept="3clFbS" id="gvjHH0pfKR" role="3clF47">
        <node concept="3cpWs6" id="gvjHH0pg1Q" role="3cqZAp">
          <node concept="2OqwBi" id="gvjHH0pg1R" role="3cqZAk">
            <node concept="37vLTw" id="gvjHH0pg20" role="2Oq$k0">
              <ref role="3cqZAo" node="gvjHH0pg1Y" resolve="node" />
            </node>
            <node concept="2Rf3mk" id="gvjHH0pg1T" role="2OqNvi">
              <node concept="3gmYPX" id="gvjHH0pg1U" role="1xVPHs">
                <node concept="3gn64h" id="gvjHH0pg1V" role="3gmYPZ">
                  <ref role="3gnhBz" to="tpee:7M5lxl52eA0" resolve="IControlFlowInterrupter" />
                </node>
                <node concept="3gn64h" id="gvjHH0pg1W" role="3gmYPZ">
                  <ref role="3gnhBz" to="tpee:htgVS9_" resolve="IStatementListContainer" />
                </node>
                <node concept="3gn64h" id="gvjHH0pg1X" role="3gmYPZ">
                  <ref role="3gnhBz" to="tpee:i0zv2NF" resolve="IContainsStatementList" />
                </node>
              </node>
              <node concept="1xIGOp" id="4rZDlxW8qCj" role="1xVPHs" />
            </node>
          </node>
        </node>
      </node>
    </node>
    <node concept="3Tm1VV" id="gvjHH0mY3t" role="1B3o_S" />
  </node>
</model>

